,column,time,tech,header_params,chs,params_ch,ch1,rssi,band1,cells,params_cell,cell_type,band,ch,sc,ec,sttd,rscp,scr_file
3591,CELLMEAS,03:45:32.483,5,0,2,3,10737,-79.0,50001,10762,-77.0,50001,2,17,2,50001,10737,121,18Jan19 034247_CS_PS_NKVE HIGHWAY_BUKIT JELUTONG-SUBANG JAYA_OPEN MODE_LC_SC_DL_UL_01
3611,CELLMEAS,03:45:33.484,5,0,2,3,10737,-78.0,50001,10762,-76.0,50001,2,17,2,50001,10737,121,18Jan19 034247_CS_PS_NKVE HIGHWAY_BUKIT JELUTONG-SUBANG JAYA_OPEN MODE_LC_SC_DL_UL_01
3633,CELLMEAS,03:45:34.487,5,0,2,3,10737,-79.0,50001,10762,-77.0,50001,2,17,2,50001,10737,121,18Jan19 034247_CS_PS_NKVE HIGHWAY_BUKIT JELUTONG-SUBANG JAYA_OPEN MODE_LC_SC_DL_UL_01
3653,CELLMEAS,03:45:35.484,5,0,2,3,10737,-79.0,50001,10762,-77.0,50001,2,17,2,50001,10737,121,18Jan19 034247_CS_PS_NKVE HIGHWAY_BUKIT JELUTONG-SUBANG JAYA_OPEN MODE_LC_SC_DL_UL_01
3676,CELLMEAS,03:45:36.486,5,0,2,3,10737,-79.0,50001,10762,-77.0,50001,3,17,2,50001,10737,401,18Jan19 034247_CS_PS_NKVE HIGHWAY_BUKIT JELUTONG-SUBANG JAYA_OPEN MODE_LC_SC_DL_UL_01
3696,CELLMEAS,03:45:37.486,5,0,1,3,10762,-78.0,50001,1,17,2,50001,10762,121,-13.0,,-91.0,18Jan19 034247_CS_PS_NKVE HIGHWAY_BUKIT JELUTONG-SUBANG JAYA_OPEN MODE_LC_SC_DL_UL_01
3780,CELLMEAS,03:45:39.483,5,0,0,3,0,17,,,,,,,,,,,18Jan19 034247_CS_PS_NKVE HIGHWAY_BUKIT JELUTONG-SUBANG JAYA_OPEN MODE_LC_SC_DL_UL_01
5314,CELLMEAS,03:46:56.538,5,0,2,3,10762,-68.0,50001,10737,-68.0,50001,3,17,2,50001,10762,34,18Jan19 034247_CS_PS_NKVE HIGHWAY_BUKIT JELUTONG-SUBANG JAYA_OPEN MODE_LC_SC_DL_UL_01
5331,CELLMEAS,03:46:57.536,5,0,2,3,10762,-68.0,50001,10737,-69.0,50001,3,17,2,50001,10762,392,18Jan19 034247_CS_PS_NKVE HIGHWAY_BUKIT JELUTONG-SUBANG JAYA_OPEN MODE_LC_SC_DL_UL_01
5354,CELLMEAS,03:46:58.540,5,0,2,3,10762,-69.0,50001,10737,-70.0,50001,4,17,2,50001,10762,392,18Jan19 034247_CS_PS_NKVE HIGHWAY_BUKIT JELUTONG-SUBANG JAYA_OPEN MODE_LC_SC_DL_UL_01
5374,CELLMEAS,03:46:59.538,5,0,2,3,10762,-65.0,50001,10737,-68.0,50001,4,17,2,50001,10762,392,18Jan19 034247_CS_PS_NKVE HIGHWAY_BUKIT JELUTONG-SUBANG JAYA_OPEN MODE_LC_SC_DL_UL_01
5391,CELLMEAS,03:47:00.540,5,0,2,3,10762,-64.0,50001,10737,-67.0,50001,3,17,2,50001,10762,392,18Jan19 034247_CS_PS_NKVE HIGHWAY_BUKIT JELUTONG-SUBANG JAYA_OPEN MODE_LC_SC_DL_UL_01
5410,CELLMEAS,03:47:01.542,5,0,1,3,10737,-67.0,50001,1,17,2,50001,10737,392,-3.0,,-70.0,18Jan19 034247_CS_PS_NKVE HIGHWAY_BUKIT JELUTONG-SUBANG JAYA_OPEN MODE_LC_SC_DL_UL_01
5496,CELLMEAS,03:47:06.460,5,0,1,3,10737,-60.0,50001,1,17,2,50001,10737,392,-3.0,,-63.0,18Jan19 034247_CS_PS_NKVE HIGHWAY_BUKIT JELUTONG-SUBANG JAYA_OPEN MODE_LC_SC_DL_UL_01
5512,CELLMEAS,03:47:07.458,5,0,2,3,10737,-56.0,50001,10762,-56.0,50001,2,17,2,50001,10737,392,18Jan19 034247_CS_PS_NKVE HIGHWAY_BUKIT JELUTONG-SUBANG JAYA_OPEN MODE_LC_SC_DL_UL_01
5530,CELLMEAS,03:47:08.460,5,0,2,3,10737,-52.0,50001,10762,-55.0,50001,2,17,2,50001,10737,392,18Jan19 034247_CS_PS_NKVE HIGHWAY_BUKIT JELUTONG-SUBANG JAYA_OPEN MODE_LC_SC_DL_UL_01
5547,CELLMEAS,03:47:09.461,5,0,2,3,10737,-56.0,50001,10762,-56.0,50001,2,17,2,50001,10737,392,18Jan19 034247_CS_PS_NKVE HIGHWAY_BUKIT JELUTONG-SUBANG JAYA_OPEN MODE_LC_SC_DL_UL_01
5564,CELLMEAS,03:47:10.466,5,0,2,3,10737,-53.0,50001,10762,-55.0,50001,2,17,2,50001,10737,392,18Jan19 034247_CS_PS_NKVE HIGHWAY_BUKIT JELUTONG-SUBANG JAYA_OPEN MODE_LC_SC_DL_UL_01
5583,CELLMEAS,03:47:11.462,5,0,1,3,10762,-55.0,50001,1,17,2,50001,10762,392,-3.0,,-59.0,18Jan19 034247_CS_PS_NKVE HIGHWAY_BUKIT JELUTONG-SUBANG JAYA_OPEN MODE_LC_SC_DL_UL_01
5669,CELLMEAS,03:47:16.470,5,0,1,3,10737,-57.0,50001,1,17,2,50001,10737,392,-2.0,,-60.0,18Jan19 034247_CS_PS_NKVE HIGHWAY_BUKIT JELUTONG-SUBANG JAYA_OPEN MODE_LC_SC_DL_UL_01
5685,CELLMEAS,03:47:17.473,5,0,2,3,10737,-51.0,50001,10762,-52.0,50001,2,17,2,50001,10737,392,18Jan19 034247_CS_PS_NKVE HIGHWAY_BUKIT JELUTONG-SUBANG JAYA_OPEN MODE_LC_SC_DL_UL_01
5703,CELLMEAS,03:47:18.474,5,0,2,3,10737,-53.0,50001,10762,-47.0,50001,2,17,2,50001,10737,392,18Jan19 034247_CS_PS_NKVE HIGHWAY_BUKIT JELUTONG-SUBANG JAYA_OPEN MODE_LC_SC_DL_UL_01
5720,CELLMEAS,03:47:19.477,5,0,2,3,10737,-57.0,50001,10762,-61.0,50001,2,17,2,50001,10737,392,18Jan19 034247_CS_PS_NKVE HIGHWAY_BUKIT JELUTONG-SUBANG JAYA_OPEN MODE_LC_SC_DL_UL_01
5737,CELLMEAS,03:47:20.478,5,0,2,3,10737,-63.0,50001,10762,-61.0,50001,2,17,2,50001,10737,392,18Jan19 034247_CS_PS_NKVE HIGHWAY_BUKIT JELUTONG-SUBANG JAYA_OPEN MODE_LC_SC_DL_UL_01
5756,CELLMEAS,03:47:21.481,5,0,1,3,10762,-62.0,50001,1,17,2,50001,10762,392,-2.0,,-65.0,18Jan19 034247_CS_PS_NKVE HIGHWAY_BUKIT JELUTONG-SUBANG JAYA_OPEN MODE_LC_SC_DL_UL_01
5851,CELLMEAS,03:47:26.480,5,0,2,3,10762,-59.0,50001,10737,-62.0,50001,2,17,2,50001,10762,392,18Jan19 034247_CS_PS_NKVE HIGHWAY_BUKIT JELUTONG-SUBANG JAYA_OPEN MODE_LC_SC_DL_UL_01
5868,CELLMEAS,03:47:27.482,5,0,2,3,10762,-64.0,50001,10737,-68.0,50001,2,17,2,50001,10762,392,18Jan19 034247_CS_PS_NKVE HIGHWAY_BUKIT JELUTONG-SUBANG JAYA_OPEN MODE_LC_SC_DL_UL_01
5885,CELLMEAS,03:47:28.483,5,0,2,3,10762,-66.0,50001,10737,-65.0,50001,2,17,2,50001,10762,392,18Jan19 034247_CS_PS_NKVE HIGHWAY_BUKIT JELUTONG-SUBANG JAYA_OPEN MODE_LC_SC_DL_UL_01
5902,CELLMEAS,03:47:29.489,5,0,2,3,10762,-67.0,50001,10737,-69.0,50001,2,17,2,50001,10762,392,18Jan19 034247_CS_PS_NKVE HIGHWAY_BUKIT JELUTONG-SUBANG JAYA_OPEN MODE_LC_SC_DL_UL_01
5922,CELLMEAS,03:47:30.485,5,0,2,3,10762,-66.0,50001,10737,-64.0,50001,2,17,2,50001,10762,392,18Jan19 034247_CS_PS_NKVE HIGHWAY_BUKIT JELUTONG-SUBANG JAYA_OPEN MODE_LC_SC_DL_UL_01
5941,CELLMEAS,03:47:31.484,5,0,1,3,10737,-66.0,50001,1,17,2,50001,10737,392,-6.0,,-72.0,18Jan19 034247_CS_PS_NKVE HIGHWAY_BUKIT JELUTONG-SUBANG JAYA_OPEN MODE_LC_SC_DL_UL_01
5969,CELLMEAS,03:47:32.294,5,0,0,3,0,17,,,,,,,,,,,18Jan19 034247_CS_PS_NKVE HIGHWAY_BUKIT JELUTONG-SUBANG JAYA_OPEN MODE_LC_SC_DL_UL_01
6120,CELLMEAS,03:47:33.493,5,0,2,3,10762,-60.0,50001,10737,-67.0,50001,2,17,2,50001,10762,392,18Jan19 034247_CS_PS_NKVE HIGHWAY_BUKIT JELUTONG-SUBANG JAYA_OPEN MODE_LC_SC_DL_UL_01
6141,CELLMEAS,03:47:34.492,5,0,2,3,10762,-66.0,50001,10737,-70.0,50001,2,17,2,50001,10762,392,18Jan19 034247_CS_PS_NKVE HIGHWAY_BUKIT JELUTONG-SUBANG JAYA_OPEN MODE_LC_SC_DL_UL_01
6158,CELLMEAS,03:47:35.092,5,0,2,3,10762,-66.0,50001,10737,-73.0,50001,2,17,2,50001,10762,392,18Jan19 034247_CS_PS_NKVE HIGHWAY_BUKIT JELUTONG-SUBANG JAYA_OPEN MODE_LC_SC_DL_UL_01
6191,CELLMEAS,03:47:35.493,5,0,2,3,10762,-66.0,50001,10737,-74.0,50001,2,17,2,50001,10762,392,18Jan19 034247_CS_PS_NKVE HIGHWAY_BUKIT JELUTONG-SUBANG JAYA_OPEN MODE_LC_SC_DL_UL_01
6218,CELLMEAS,03:47:35.993,5,0,0,3,0,17,,,,,,,,,,,18Jan19 034247_CS_PS_NKVE HIGHWAY_BUKIT JELUTONG-SUBANG JAYA_OPEN MODE_LC_SC_DL_UL_01
