,column,time,tech,header_params,cells,params_cell,cell_type,band,ch,pci,rssi,rsrp,rsrq,timing,pathloss,scr_file
47,CELLMEAS,03:42:47.403,7,0,5,9,0,70007,3150,93,-91.0,-107.0,-9.0,,126.0,18Jan19 034247_CS_PS_NKVE HIGHWAY_BUKIT JELUTONG-SUBANG JAYA_OPEN MODE_LC_SC_DL_UL_01
65,CELLMEAS,03:42:48.407,7,0,6,9,0,70007,3150,93,-95.0,-111.0,-9.0,,130.0,18Jan19 034247_CS_PS_NKVE HIGHWAY_BUKIT JELUTONG-SUBANG JAYA_OPEN MODE_LC_SC_DL_UL_01
90,CELLMEAS,03:42:49.391,7,0,6,9,0,70007,3150,93,-94.0,-111.0,-10.0,,130.0,18Jan19 034247_CS_PS_NKVE HIGHWAY_BUKIT JELUTONG-SUBANG JAYA_OPEN MODE_LC_SC_DL_UL_01
112,CELLMEAS,03:42:50.391,7,0,6,9,0,70007,3150,93,-96.0,-114.0,-11.0,,132.0,18Jan19 034247_CS_PS_NKVE HIGHWAY_BUKIT JELUTONG-SUBANG JAYA_OPEN MODE_LC_SC_DL_UL_01
134,CELLMEAS,03:42:50.588,7,0,6,9,0,70007,3150,160,-94.0,-109.0,-11.0,,131.0,18Jan19 034247_CS_PS_NKVE HIGHWAY_BUKIT JELUTONG-SUBANG JAYA_OPEN MODE_LC_SC_DL_UL_01
190,CELLMEAS,03:42:51.390,7,0,3,9,0,70007,3150,160,-85.0,-110.0,-11.0,,128.0,18Jan19 034247_CS_PS_NKVE HIGHWAY_BUKIT JELUTONG-SUBANG JAYA_OPEN MODE_LC_SC_DL_UL_01
229,CELLMEAS,03:42:52.392,7,0,5,9,0,70007,3150,160,-89.0,-102.0,-11.0,,130.0,18Jan19 034247_CS_PS_NKVE HIGHWAY_BUKIT JELUTONG-SUBANG JAYA_OPEN MODE_LC_SC_DL_UL_01
269,CELLMEAS,03:42:53.393,7,0,5,9,0,70007,3150,160,-92.0,-110.0,-11.0,,132.0,18Jan19 034247_CS_PS_NKVE HIGHWAY_BUKIT JELUTONG-SUBANG JAYA_OPEN MODE_LC_SC_DL_UL_01
311,CELLMEAS,03:42:54.393,7,0,5,9,0,70007,3150,160,-97.0,-115.0,-12.0,,134.0,18Jan19 034247_CS_PS_NKVE HIGHWAY_BUKIT JELUTONG-SUBANG JAYA_OPEN MODE_LC_SC_DL_UL_01
345,CELLMEAS,03:42:55.390,7,0,6,9,0,70007,3150,160,-93.0,-110.0,-11.0,,138.0,18Jan19 034247_CS_PS_NKVE HIGHWAY_BUKIT JELUTONG-SUBANG JAYA_OPEN MODE_LC_SC_DL_UL_01
379,CELLMEAS,03:42:56.393,7,0,5,9,0,70007,3150,160,-97.0,-118.0,-15.0,,140.0,18Jan19 034247_CS_PS_NKVE HIGHWAY_BUKIT JELUTONG-SUBANG JAYA_OPEN MODE_LC_SC_DL_UL_01
409,CELLMEAS,03:42:56.895,7,0,2,9,0,70007,3150,161,-99.0,-116.0,-12.0,,136.0,18Jan19 034247_CS_PS_NKVE HIGHWAY_BUKIT JELUTONG-SUBANG JAYA_OPEN MODE_LC_SC_DL_UL_01
455,CELLMEAS,03:42:57.392,7,0,5,9,0,70007,3150,161,-95.0,-116.0,-12.0,,135.0,18Jan19 034247_CS_PS_NKVE HIGHWAY_BUKIT JELUTONG-SUBANG JAYA_OPEN MODE_LC_SC_DL_UL_01
493,CELLMEAS,03:42:58.393,7,0,7,9,0,70007,3150,161,-98.0,-116.0,-13.0,,135.0,18Jan19 034247_CS_PS_NKVE HIGHWAY_BUKIT JELUTONG-SUBANG JAYA_OPEN MODE_LC_SC_DL_UL_01
525,CELLMEAS,03:42:59.392,7,0,4,9,0,70007,3150,161,-98.0,-116.0,-13.0,,135.0,18Jan19 034247_CS_PS_NKVE HIGHWAY_BUKIT JELUTONG-SUBANG JAYA_OPEN MODE_LC_SC_DL_UL_01
557,CELLMEAS,03:43:00.004,7,0,7,9,0,70007,3150,95,-94.0,-109.0,-12.0,,131.0,18Jan19 034247_CS_PS_NKVE HIGHWAY_BUKIT JELUTONG-SUBANG JAYA_OPEN MODE_LC_SC_DL_UL_01
603,CELLMEAS,03:43:00.406,7,0,3,9,0,70007,3150,95,-89.0,-110.0,-12.0,,132.0,18Jan19 034247_CS_PS_NKVE HIGHWAY_BUKIT JELUTONG-SUBANG JAYA_OPEN MODE_LC_SC_DL_UL_01
627,CELLMEAS,03:43:00.703,7,0,3,9,0,70007,3150,493,-93.0,-105.0,-10.0,,130.0,18Jan19 034247_CS_PS_NKVE HIGHWAY_BUKIT JELUTONG-SUBANG JAYA_OPEN MODE_LC_SC_DL_UL_01
681,CELLMEAS,03:43:01.403,7,0,3,9,0,70007,3150,493,-87.0,-105.0,-10.0,,119.0,18Jan19 034247_CS_PS_NKVE HIGHWAY_BUKIT JELUTONG-SUBANG JAYA_OPEN MODE_LC_SC_DL_UL_01
706,CELLMEAS,03:43:02.406,7,0,3,9,0,70007,3150,493,-85.0,-98.0,-10.0,,125.0,18Jan19 034247_CS_PS_NKVE HIGHWAY_BUKIT JELUTONG-SUBANG JAYA_OPEN MODE_LC_SC_DL_UL_01
739,CELLMEAS,03:43:03.403,7,0,5,9,0,70007,3150,493,-89.0,-101.0,-11.0,,122.0,18Jan19 034247_CS_PS_NKVE HIGHWAY_BUKIT JELUTONG-SUBANG JAYA_OPEN MODE_LC_SC_DL_UL_01
769,CELLMEAS,03:43:04.405,7,0,6,9,0,70007,3150,493,-86.0,-100.0,-10.0,,126.0,18Jan19 034247_CS_PS_NKVE HIGHWAY_BUKIT JELUTONG-SUBANG JAYA_OPEN MODE_LC_SC_DL_UL_01
798,CELLMEAS,03:43:05.406,7,0,6,9,0,70007,3150,493,-91.0,-102.0,-11.0,,129.0,18Jan19 034247_CS_PS_NKVE HIGHWAY_BUKIT JELUTONG-SUBANG JAYA_OPEN MODE_LC_SC_DL_UL_01
826,CELLMEAS,03:43:06.406,7,0,5,9,0,70007,3150,493,-90.0,-103.0,-12.0,,128.0,18Jan19 034247_CS_PS_NKVE HIGHWAY_BUKIT JELUTONG-SUBANG JAYA_OPEN MODE_LC_SC_DL_UL_01
852,CELLMEAS,03:43:06.604,7,0,2,9,0,70007,3150,95,-88.0,-99.0,-8.0,,120.0,18Jan19 034247_CS_PS_NKVE HIGHWAY_BUKIT JELUTONG-SUBANG JAYA_OPEN MODE_LC_SC_DL_UL_01
892,CELLMEAS,03:43:07.406,7,0,3,9,0,70007,3150,95,-88.0,-99.0,-8.0,,118.0,18Jan19 034247_CS_PS_NKVE HIGHWAY_BUKIT JELUTONG-SUBANG JAYA_OPEN MODE_LC_SC_DL_UL_01
910,CELLMEAS,03:43:08.405,7,0,3,9,0,70007,3150,95,-84.0,-96.0,-10.0,,117.0,18Jan19 034247_CS_PS_NKVE HIGHWAY_BUKIT JELUTONG-SUBANG JAYA_OPEN MODE_LC_SC_DL_UL_01
926,CELLMEAS,03:43:09.406,7,0,3,9,0,70007,3150,95,-81.0,-93.0,-9.0,,117.0,18Jan19 034247_CS_PS_NKVE HIGHWAY_BUKIT JELUTONG-SUBANG JAYA_OPEN MODE_LC_SC_DL_UL_01
943,CELLMEAS,03:43:10.411,7,0,3,9,0,70007,3150,95,-81.0,-93.0,-10.0,,116.0,18Jan19 034247_CS_PS_NKVE HIGHWAY_BUKIT JELUTONG-SUBANG JAYA_OPEN MODE_LC_SC_DL_UL_01
959,CELLMEAS,03:43:11.408,7,0,3,9,0,70007,3150,95,-81.0,-92.0,-10.0,,116.0,18Jan19 034247_CS_PS_NKVE HIGHWAY_BUKIT JELUTONG-SUBANG JAYA_OPEN MODE_LC_SC_DL_UL_01
975,CELLMEAS,03:43:12.406,7,0,3,9,0,70007,3150,95,-81.0,-93.0,-10.0,,114.0,18Jan19 034247_CS_PS_NKVE HIGHWAY_BUKIT JELUTONG-SUBANG JAYA_OPEN MODE_LC_SC_DL_UL_01
993,CELLMEAS,03:43:13.406,7,0,3,9,0,70007,3150,95,-79.0,-94.0,-10.0,,114.0,18Jan19 034247_CS_PS_NKVE HIGHWAY_BUKIT JELUTONG-SUBANG JAYA_OPEN MODE_LC_SC_DL_UL_01
1009,CELLMEAS,03:43:14.410,7,0,3,9,0,70007,3150,95,-78.0,-93.0,-10.0,,113.0,18Jan19 034247_CS_PS_NKVE HIGHWAY_BUKIT JELUTONG-SUBANG JAYA_OPEN MODE_LC_SC_DL_UL_01
1025,CELLMEAS,03:43:15.409,7,0,3,9,0,70007,3150,95,-78.0,-92.0,-10.0,,112.0,18Jan19 034247_CS_PS_NKVE HIGHWAY_BUKIT JELUTONG-SUBANG JAYA_OPEN MODE_LC_SC_DL_UL_01
1042,CELLMEAS,03:43:16.410,7,0,3,9,0,70007,3150,95,-76.0,-91.0,-10.0,,111.0,18Jan19 034247_CS_PS_NKVE HIGHWAY_BUKIT JELUTONG-SUBANG JAYA_OPEN MODE_LC_SC_DL_UL_01
1057,CELLMEAS,03:43:17.409,7,0,3,9,0,70007,3150,95,-76.0,-90.0,-9.0,,111.0,18Jan19 034247_CS_PS_NKVE HIGHWAY_BUKIT JELUTONG-SUBANG JAYA_OPEN MODE_LC_SC_DL_UL_01
1074,CELLMEAS,03:43:18.408,7,0,3,9,0,70007,3150,95,-75.0,-89.0,-9.0,,109.0,18Jan19 034247_CS_PS_NKVE HIGHWAY_BUKIT JELUTONG-SUBANG JAYA_OPEN MODE_LC_SC_DL_UL_01
1090,CELLMEAS,03:43:19.409,7,0,3,9,0,70007,3150,95,-75.0,-89.0,-10.0,,107.0,18Jan19 034247_CS_PS_NKVE HIGHWAY_BUKIT JELUTONG-SUBANG JAYA_OPEN MODE_LC_SC_DL_UL_01
1107,CELLMEAS,03:43:20.407,7,0,3,9,0,70007,3150,95,-72.0,-86.0,-10.0,,105.0,18Jan19 034247_CS_PS_NKVE HIGHWAY_BUKIT JELUTONG-SUBANG JAYA_OPEN MODE_LC_SC_DL_UL_01
1124,CELLMEAS,03:43:21.412,7,0,3,9,0,70007,3150,95,-70.0,-85.0,-10.0,,103.0,18Jan19 034247_CS_PS_NKVE HIGHWAY_BUKIT JELUTONG-SUBANG JAYA_OPEN MODE_LC_SC_DL_UL_01
1139,CELLMEAS,03:43:22.410,7,0,3,9,0,70007,3150,95,-70.0,-84.0,-9.0,,102.0,18Jan19 034247_CS_PS_NKVE HIGHWAY_BUKIT JELUTONG-SUBANG JAYA_OPEN MODE_LC_SC_DL_UL_01
1156,CELLMEAS,03:43:23.413,7,0,3,9,0,70007,3150,95,-67.0,-82.0,-9.0,,102.0,18Jan19 034247_CS_PS_NKVE HIGHWAY_BUKIT JELUTONG-SUBANG JAYA_OPEN MODE_LC_SC_DL_UL_01
1173,CELLMEAS,03:43:24.413,7,0,2,9,0,70007,3150,95,-66.0,-78.0,-9.0,,97.0,18Jan19 034247_CS_PS_NKVE HIGHWAY_BUKIT JELUTONG-SUBANG JAYA_OPEN MODE_LC_SC_DL_UL_01
1189,CELLMEAS,03:43:25.411,7,0,2,9,0,70007,3150,95,-60.0,-75.0,-9.0,,92.0,18Jan19 034247_CS_PS_NKVE HIGHWAY_BUKIT JELUTONG-SUBANG JAYA_OPEN MODE_LC_SC_DL_UL_01
1205,CELLMEAS,03:43:26.414,7,0,2,9,0,70007,3150,95,-58.0,-68.0,-8.0,,92.0,18Jan19 034247_CS_PS_NKVE HIGHWAY_BUKIT JELUTONG-SUBANG JAYA_OPEN MODE_LC_SC_DL_UL_01
1220,CELLMEAS,03:43:27.416,7,0,2,9,0,70007,3150,95,-58.0,-67.0,-9.0,,89.0,18Jan19 034247_CS_PS_NKVE HIGHWAY_BUKIT JELUTONG-SUBANG JAYA_OPEN MODE_LC_SC_DL_UL_01
1238,CELLMEAS,03:43:28.421,7,0,2,9,0,70007,3150,95,-55.0,-67.0,-9.0,,92.0,18Jan19 034247_CS_PS_NKVE HIGHWAY_BUKIT JELUTONG-SUBANG JAYA_OPEN MODE_LC_SC_DL_UL_01
1254,CELLMEAS,03:43:29.420,7,0,2,9,0,70007,3150,95,-57.0,-69.0,-9.0,,92.0,18Jan19 034247_CS_PS_NKVE HIGHWAY_BUKIT JELUTONG-SUBANG JAYA_OPEN MODE_LC_SC_DL_UL_01
1271,CELLMEAS,03:43:30.423,7,0,2,9,0,70007,3150,95,-60.0,-68.0,-9.0,,93.0,18Jan19 034247_CS_PS_NKVE HIGHWAY_BUKIT JELUTONG-SUBANG JAYA_OPEN MODE_LC_SC_DL_UL_01
1288,CELLMEAS,03:43:31.426,7,0,2,9,0,70007,3150,95,-58.0,-71.0,-9.0,,92.0,18Jan19 034247_CS_PS_NKVE HIGHWAY_BUKIT JELUTONG-SUBANG JAYA_OPEN MODE_LC_SC_DL_UL_01
1303,CELLMEAS,03:43:32.429,7,0,2,9,0,70007,3150,95,-55.0,-68.0,-9.0,,88.0,18Jan19 034247_CS_PS_NKVE HIGHWAY_BUKIT JELUTONG-SUBANG JAYA_OPEN MODE_LC_SC_DL_UL_01
1320,CELLMEAS,03:43:33.429,7,0,2,9,0,70007,3150,95,-55.0,-68.0,-9.0,,87.0,18Jan19 034247_CS_PS_NKVE HIGHWAY_BUKIT JELUTONG-SUBANG JAYA_OPEN MODE_LC_SC_DL_UL_01
1336,CELLMEAS,03:43:34.436,7,0,2,9,0,70007,3150,95,-54.0,-61.0,-8.0,,90.0,18Jan19 034247_CS_PS_NKVE HIGHWAY_BUKIT JELUTONG-SUBANG JAYA_OPEN MODE_LC_SC_DL_UL_01
1353,CELLMEAS,03:43:35.439,7,0,2,9,0,70007,3150,95,-59.0,-62.0,-7.0,,90.0,18Jan19 034247_CS_PS_NKVE HIGHWAY_BUKIT JELUTONG-SUBANG JAYA_OPEN MODE_LC_SC_DL_UL_01
1369,CELLMEAS,03:43:36.440,7,0,2,9,0,70007,3150,95,-58.0,-64.0,-9.0,,90.0,18Jan19 034247_CS_PS_NKVE HIGHWAY_BUKIT JELUTONG-SUBANG JAYA_OPEN MODE_LC_SC_DL_UL_01
1384,CELLMEAS,03:43:37.444,7,0,2,9,0,70007,3150,95,-55.0,-63.0,-8.0,,92.0,18Jan19 034247_CS_PS_NKVE HIGHWAY_BUKIT JELUTONG-SUBANG JAYA_OPEN MODE_LC_SC_DL_UL_01
1403,CELLMEAS,03:43:38.445,7,0,2,9,0,70007,3150,95,-63.0,-69.0,-9.0,,88.0,18Jan19 034247_CS_PS_NKVE HIGHWAY_BUKIT JELUTONG-SUBANG JAYA_OPEN MODE_LC_SC_DL_UL_01
1420,CELLMEAS,03:43:39.448,7,0,2,9,0,70007,3150,95,-55.0,-64.0,-9.0,,91.0,18Jan19 034247_CS_PS_NKVE HIGHWAY_BUKIT JELUTONG-SUBANG JAYA_OPEN MODE_LC_SC_DL_UL_01
1436,CELLMEAS,03:43:40.446,7,0,2,9,0,70007,3150,95,-56.0,-66.0,-9.0,,90.0,18Jan19 034247_CS_PS_NKVE HIGHWAY_BUKIT JELUTONG-SUBANG JAYA_OPEN MODE_LC_SC_DL_UL_01
1452,CELLMEAS,03:43:41.448,7,0,4,9,0,70007,3150,95,-57.0,-67.0,-9.0,,100.0,18Jan19 034247_CS_PS_NKVE HIGHWAY_BUKIT JELUTONG-SUBANG JAYA_OPEN MODE_LC_SC_DL_UL_01
1467,CELLMEAS,03:43:42.448,7,0,3,9,0,70007,3150,95,-64.0,-77.0,-11.0,,95.0,18Jan19 034247_CS_PS_NKVE HIGHWAY_BUKIT JELUTONG-SUBANG JAYA_OPEN MODE_LC_SC_DL_UL_01
1484,CELLMEAS,03:43:43.449,7,0,2,9,0,70007,3150,95,-64.0,-74.0,-9.0,,97.0,18Jan19 034247_CS_PS_NKVE HIGHWAY_BUKIT JELUTONG-SUBANG JAYA_OPEN MODE_LC_SC_DL_UL_01
1500,CELLMEAS,03:43:44.450,7,0,3,9,0,70007,3150,95,-64.0,-77.0,-10.0,,97.0,18Jan19 034247_CS_PS_NKVE HIGHWAY_BUKIT JELUTONG-SUBANG JAYA_OPEN MODE_LC_SC_DL_UL_01
1516,CELLMEAS,03:43:45.452,7,0,3,9,0,70007,3150,95,-59.0,-78.0,-10.0,,93.0,18Jan19 034247_CS_PS_NKVE HIGHWAY_BUKIT JELUTONG-SUBANG JAYA_OPEN MODE_LC_SC_DL_UL_01
1532,CELLMEAS,03:43:46.449,7,0,4,9,0,70007,3150,95,-57.0,-73.0,-9.0,,101.0,18Jan19 034247_CS_PS_NKVE HIGHWAY_BUKIT JELUTONG-SUBANG JAYA_OPEN MODE_LC_SC_DL_UL_01
1548,CELLMEAS,03:43:47.448,7,0,4,9,0,70007,3150,95,-66.0,-84.0,-10.0,,106.0,18Jan19 034247_CS_PS_NKVE HIGHWAY_BUKIT JELUTONG-SUBANG JAYA_OPEN MODE_LC_SC_DL_UL_01
1570,CELLMEAS,03:43:48.149,7,0,3,9,0,70007,3150,94,-68.0,-74.0,-9.0,,102.0,18Jan19 034247_CS_PS_NKVE HIGHWAY_BUKIT JELUTONG-SUBANG JAYA_OPEN MODE_LC_SC_DL_UL_01
1609,CELLMEAS,03:43:48.449,7,0,2,9,0,70007,3150,94,-68.0,-74.0,-9.0,,105.0,18Jan19 034247_CS_PS_NKVE HIGHWAY_BUKIT JELUTONG-SUBANG JAYA_OPEN MODE_LC_SC_DL_UL_01
1628,CELLMEAS,03:43:49.454,7,0,4,9,0,70007,3150,94,-69.0,-82.0,-10.0,,102.0,18Jan19 034247_CS_PS_NKVE HIGHWAY_BUKIT JELUTONG-SUBANG JAYA_OPEN MODE_LC_SC_DL_UL_01
1644,CELLMEAS,03:43:50.453,7,0,4,9,0,70007,3150,94,-56.0,-70.0,-10.0,,87.0,18Jan19 034247_CS_PS_NKVE HIGHWAY_BUKIT JELUTONG-SUBANG JAYA_OPEN MODE_LC_SC_DL_UL_01
1660,CELLMEAS,03:43:51.453,7,0,4,9,0,70007,3150,94,-65.0,-79.0,-10.0,,98.0,18Jan19 034247_CS_PS_NKVE HIGHWAY_BUKIT JELUTONG-SUBANG JAYA_OPEN MODE_LC_SC_DL_UL_01
1676,CELLMEAS,03:43:52.454,7,0,4,9,0,70007,3150,94,-69.0,-85.0,-10.0,,108.0,18Jan19 034247_CS_PS_NKVE HIGHWAY_BUKIT JELUTONG-SUBANG JAYA_OPEN MODE_LC_SC_DL_UL_01
1694,CELLMEAS,03:43:53.451,7,0,3,9,0,70007,3150,94,-71.0,-87.0,-10.0,,105.0,18Jan19 034247_CS_PS_NKVE HIGHWAY_BUKIT JELUTONG-SUBANG JAYA_OPEN MODE_LC_SC_DL_UL_01
1711,CELLMEAS,03:43:54.452,7,0,3,9,0,70007,3150,94,-71.0,-87.0,-10.0,,106.0,18Jan19 034247_CS_PS_NKVE HIGHWAY_BUKIT JELUTONG-SUBANG JAYA_OPEN MODE_LC_SC_DL_UL_01
1727,CELLMEAS,03:43:55.455,7,0,3,9,0,70007,3150,94,-71.0,-88.0,-10.0,,106.0,18Jan19 034247_CS_PS_NKVE HIGHWAY_BUKIT JELUTONG-SUBANG JAYA_OPEN MODE_LC_SC_DL_UL_01
1744,CELLMEAS,03:43:56.456,7,0,3,9,0,70007,3150,94,-72.0,-88.0,-10.0,,103.0,18Jan19 034247_CS_PS_NKVE HIGHWAY_BUKIT JELUTONG-SUBANG JAYA_OPEN MODE_LC_SC_DL_UL_01
1759,CELLMEAS,03:43:57.456,7,0,3,9,0,70007,3150,94,-75.0,-90.0,-10.0,,109.0,18Jan19 034247_CS_PS_NKVE HIGHWAY_BUKIT JELUTONG-SUBANG JAYA_OPEN MODE_LC_SC_DL_UL_01
1776,CELLMEAS,03:43:58.456,7,0,3,9,0,70007,3150,94,-76.0,-93.0,-10.0,,113.0,18Jan19 034247_CS_PS_NKVE HIGHWAY_BUKIT JELUTONG-SUBANG JAYA_OPEN MODE_LC_SC_DL_UL_01
1792,CELLMEAS,03:43:59.457,7,0,5,9,0,70007,3150,94,-77.0,-95.0,-10.0,,113.0,18Jan19 034247_CS_PS_NKVE HIGHWAY_BUKIT JELUTONG-SUBANG JAYA_OPEN MODE_LC_SC_DL_UL_01
1809,CELLMEAS,03:44:00.458,7,0,5,9,0,70007,3150,94,-76.0,-94.0,-10.0,,114.0,18Jan19 034247_CS_PS_NKVE HIGHWAY_BUKIT JELUTONG-SUBANG JAYA_OPEN MODE_LC_SC_DL_UL_01
1825,CELLMEAS,03:44:01.459,7,0,4,9,0,70007,3150,94,-77.0,-95.0,-10.0,,113.0,18Jan19 034247_CS_PS_NKVE HIGHWAY_BUKIT JELUTONG-SUBANG JAYA_OPEN MODE_LC_SC_DL_UL_01
1841,CELLMEAS,03:44:02.460,7,0,3,9,0,70007,3150,94,-77.0,-95.0,-10.0,,115.0,18Jan19 034247_CS_PS_NKVE HIGHWAY_BUKIT JELUTONG-SUBANG JAYA_OPEN MODE_LC_SC_DL_UL_01
1859,CELLMEAS,03:44:03.459,7,0,3,9,0,70007,3150,94,-82.0,-98.0,-10.0,,117.0,18Jan19 034247_CS_PS_NKVE HIGHWAY_BUKIT JELUTONG-SUBANG JAYA_OPEN MODE_LC_SC_DL_UL_01
1875,CELLMEAS,03:44:04.458,7,0,4,9,0,70007,3150,94,-81.0,-99.0,-10.0,,118.0,18Jan19 034247_CS_PS_NKVE HIGHWAY_BUKIT JELUTONG-SUBANG JAYA_OPEN MODE_LC_SC_DL_UL_01
1892,CELLMEAS,03:44:05.459,7,0,5,9,0,70007,3150,94,-83.0,-102.0,-11.0,,122.0,18Jan19 034247_CS_PS_NKVE HIGHWAY_BUKIT JELUTONG-SUBANG JAYA_OPEN MODE_LC_SC_DL_UL_01
1908,CELLMEAS,03:44:06.460,7,0,5,9,0,70007,3150,94,-86.0,-102.0,-11.0,,123.0,18Jan19 034247_CS_PS_NKVE HIGHWAY_BUKIT JELUTONG-SUBANG JAYA_OPEN MODE_LC_SC_DL_UL_01
1923,CELLMEAS,03:44:07.461,7,0,4,9,0,70007,3150,94,-89.0,-106.0,-12.0,,125.0,18Jan19 034247_CS_PS_NKVE HIGHWAY_BUKIT JELUTONG-SUBANG JAYA_OPEN MODE_LC_SC_DL_UL_01
1940,CELLMEAS,03:44:08.463,7,0,4,9,0,70007,3150,94,-88.0,-103.0,-12.0,,124.0,18Jan19 034247_CS_PS_NKVE HIGHWAY_BUKIT JELUTONG-SUBANG JAYA_OPEN MODE_LC_SC_DL_UL_01
1957,CELLMEAS,03:44:09.459,7,0,5,9,0,70007,3150,94,-88.0,-105.0,-11.0,,125.0,18Jan19 034247_CS_PS_NKVE HIGHWAY_BUKIT JELUTONG-SUBANG JAYA_OPEN MODE_LC_SC_DL_UL_01
1973,CELLMEAS,03:44:10.460,7,0,5,9,0,70007,3150,94,-91.0,-108.0,-11.0,,126.0,18Jan19 034247_CS_PS_NKVE HIGHWAY_BUKIT JELUTONG-SUBANG JAYA_OPEN MODE_LC_SC_DL_UL_01
1989,CELLMEAS,03:44:11.462,7,0,4,9,0,70007,3150,94,-87.0,-105.0,-11.0,,125.0,18Jan19 034247_CS_PS_NKVE HIGHWAY_BUKIT JELUTONG-SUBANG JAYA_OPEN MODE_LC_SC_DL_UL_01
2004,CELLMEAS,03:44:12.461,7,0,3,9,0,70007,3150,94,-90.0,-105.0,-11.0,,128.0,18Jan19 034247_CS_PS_NKVE HIGHWAY_BUKIT JELUTONG-SUBANG JAYA_OPEN MODE_LC_SC_DL_UL_01
2021,CELLMEAS,03:44:13.461,7,0,5,9,0,70007,3150,94,-89.0,-106.0,-11.0,,126.0,18Jan19 034247_CS_PS_NKVE HIGHWAY_BUKIT JELUTONG-SUBANG JAYA_OPEN MODE_LC_SC_DL_UL_01
2037,CELLMEAS,03:44:14.466,7,0,4,9,0,70007,3150,94,-92.0,-105.0,-11.0,,125.0,18Jan19 034247_CS_PS_NKVE HIGHWAY_BUKIT JELUTONG-SUBANG JAYA_OPEN MODE_LC_SC_DL_UL_01
2053,CELLMEAS,03:44:15.462,7,0,5,9,0,70007,3150,94,-90.0,-105.0,-10.0,,123.0,18Jan19 034247_CS_PS_NKVE HIGHWAY_BUKIT JELUTONG-SUBANG JAYA_OPEN MODE_LC_SC_DL_UL_01
2070,CELLMEAS,03:44:16.461,7,0,5,9,0,70007,3150,94,-90.0,-104.0,-10.0,,126.0,18Jan19 034247_CS_PS_NKVE HIGHWAY_BUKIT JELUTONG-SUBANG JAYA_OPEN MODE_LC_SC_DL_UL_01
2085,CELLMEAS,03:44:17.463,7,0,2,9,0,70007,3150,94,-86.0,-100.0,-9.0,,116.0,18Jan19 034247_CS_PS_NKVE HIGHWAY_BUKIT JELUTONG-SUBANG JAYA_OPEN MODE_LC_SC_DL_UL_01
2102,CELLMEAS,03:44:18.462,7,0,2,9,0,70007,3150,94,-89.0,-107.0,-10.0,,121.0,18Jan19 034247_CS_PS_NKVE HIGHWAY_BUKIT JELUTONG-SUBANG JAYA_OPEN MODE_LC_SC_DL_UL_01
2120,CELLMEAS,03:44:19.461,7,0,4,9,0,70007,3150,94,-87.0,-103.0,-10.0,,127.0,18Jan19 034247_CS_PS_NKVE HIGHWAY_BUKIT JELUTONG-SUBANG JAYA_OPEN MODE_LC_SC_DL_UL_01
2137,CELLMEAS,03:44:20.460,7,0,4,9,0,70007,3150,94,-91.0,-107.0,-11.0,,125.0,18Jan19 034247_CS_PS_NKVE HIGHWAY_BUKIT JELUTONG-SUBANG JAYA_OPEN MODE_LC_SC_DL_UL_01
2153,CELLMEAS,03:44:21.461,7,0,6,9,0,70007,3150,94,-92.0,-108.0,-11.0,,128.0,18Jan19 034247_CS_PS_NKVE HIGHWAY_BUKIT JELUTONG-SUBANG JAYA_OPEN MODE_LC_SC_DL_UL_01
2169,CELLMEAS,03:44:22.463,7,0,6,9,0,70007,3150,94,-90.0,-107.0,-11.0,,128.0,18Jan19 034247_CS_PS_NKVE HIGHWAY_BUKIT JELUTONG-SUBANG JAYA_OPEN MODE_LC_SC_DL_UL_01
2188,CELLMEAS,03:44:23.461,7,0,4,9,0,70007,3150,94,-89.0,-105.0,-10.0,,123.0,18Jan19 034247_CS_PS_NKVE HIGHWAY_BUKIT JELUTONG-SUBANG JAYA_OPEN MODE_LC_SC_DL_UL_01
2211,CELLMEAS,03:44:24.462,7,0,4,9,0,70007,3150,94,-80.0,-93.0,-9.0,,119.0,18Jan19 034247_CS_PS_NKVE HIGHWAY_BUKIT JELUTONG-SUBANG JAYA_OPEN MODE_LC_SC_DL_UL_01
2228,CELLMEAS,03:44:25.464,7,0,5,9,0,70007,3150,94,-88.0,-105.0,-10.0,,128.0,18Jan19 034247_CS_PS_NKVE HIGHWAY_BUKIT JELUTONG-SUBANG JAYA_OPEN MODE_LC_SC_DL_UL_01
2246,CELLMEAS,03:44:26.464,7,0,6,9,0,70007,3150,94,-94.0,-114.0,-13.0,,133.0,18Jan19 034247_CS_PS_NKVE HIGHWAY_BUKIT JELUTONG-SUBANG JAYA_OPEN MODE_LC_SC_DL_UL_01
2271,CELLMEAS,03:44:27.364,7,0,2,9,0,70007,3150,332,-97.0,-111.0,-10.0,,132.0,18Jan19 034247_CS_PS_NKVE HIGHWAY_BUKIT JELUTONG-SUBANG JAYA_OPEN MODE_LC_SC_DL_UL_01
2304,CELLMEAS,03:44:27.463,7,0,2,9,0,70007,3150,332,-97.0,-111.0,-10.0,,133.0,18Jan19 034247_CS_PS_NKVE HIGHWAY_BUKIT JELUTONG-SUBANG JAYA_OPEN MODE_LC_SC_DL_UL_01
2330,CELLMEAS,03:44:28.464,7,0,3,9,0,70007,3150,332,-90.0,-112.0,-10.0,,127.0,18Jan19 034247_CS_PS_NKVE HIGHWAY_BUKIT JELUTONG-SUBANG JAYA_OPEN MODE_LC_SC_DL_UL_01
2347,CELLMEAS,03:44:29.463,7,0,5,9,0,70007,3150,332,-95.0,-106.0,-10.0,,127.0,18Jan19 034247_CS_PS_NKVE HIGHWAY_BUKIT JELUTONG-SUBANG JAYA_OPEN MODE_LC_SC_DL_UL_01
2363,CELLMEAS,03:44:30.461,7,0,5,9,0,70007,3150,332,-94.0,-110.0,-11.0,,126.0,18Jan19 034247_CS_PS_NKVE HIGHWAY_BUKIT JELUTONG-SUBANG JAYA_OPEN MODE_LC_SC_DL_UL_01
2379,CELLMEAS,03:44:31.462,7,0,5,9,0,70007,3150,332,-93.0,-107.0,-11.0,,124.0,18Jan19 034247_CS_PS_NKVE HIGHWAY_BUKIT JELUTONG-SUBANG JAYA_OPEN MODE_LC_SC_DL_UL_01
2396,CELLMEAS,03:44:32.464,7,0,5,9,0,70007,3150,332,-90.0,-106.0,-11.0,,125.0,18Jan19 034247_CS_PS_NKVE HIGHWAY_BUKIT JELUTONG-SUBANG JAYA_OPEN MODE_LC_SC_DL_UL_01
2413,CELLMEAS,03:44:33.465,7,0,3,9,0,70007,3150,332,-92.0,-105.0,-11.0,,122.0,18Jan19 034247_CS_PS_NKVE HIGHWAY_BUKIT JELUTONG-SUBANG JAYA_OPEN MODE_LC_SC_DL_UL_01
2429,CELLMEAS,03:44:34.462,7,0,4,9,0,70007,3150,332,-89.0,-100.0,-10.0,,122.0,18Jan19 034247_CS_PS_NKVE HIGHWAY_BUKIT JELUTONG-SUBANG JAYA_OPEN MODE_LC_SC_DL_UL_01
2445,CELLMEAS,03:44:35.462,7,0,4,9,0,70007,3150,332,-91.0,-101.0,-10.0,,121.0,18Jan19 034247_CS_PS_NKVE HIGHWAY_BUKIT JELUTONG-SUBANG JAYA_OPEN MODE_LC_SC_DL_UL_01
2461,CELLMEAS,03:44:36.463,7,0,3,9,0,70007,3150,332,-90.0,-104.0,-10.0,,126.0,18Jan19 034247_CS_PS_NKVE HIGHWAY_BUKIT JELUTONG-SUBANG JAYA_OPEN MODE_LC_SC_DL_UL_01
2476,CELLMEAS,03:44:37.464,7,0,3,9,0,70007,3150,332,-93.0,-107.0,-10.0,,125.0,18Jan19 034247_CS_PS_NKVE HIGHWAY_BUKIT JELUTONG-SUBANG JAYA_OPEN MODE_LC_SC_DL_UL_01
2493,CELLMEAS,03:44:38.466,7,0,3,9,0,70007,3150,332,-92.0,-107.0,-10.0,,123.0,18Jan19 034247_CS_PS_NKVE HIGHWAY_BUKIT JELUTONG-SUBANG JAYA_OPEN MODE_LC_SC_DL_UL_01
2511,CELLMEAS,03:44:39.463,7,0,3,9,0,70007,3150,332,-90.0,-106.0,-10.0,,124.0,18Jan19 034247_CS_PS_NKVE HIGHWAY_BUKIT JELUTONG-SUBANG JAYA_OPEN MODE_LC_SC_DL_UL_01
2528,CELLMEAS,03:44:40.463,7,0,4,9,0,70007,3150,332,-90.0,-109.0,-11.0,,123.0,18Jan19 034247_CS_PS_NKVE HIGHWAY_BUKIT JELUTONG-SUBANG JAYA_OPEN MODE_LC_SC_DL_UL_01
2545,CELLMEAS,03:44:41.466,7,0,4,9,0,70007,3150,332,-91.0,-106.0,-10.0,,123.0,18Jan19 034247_CS_PS_NKVE HIGHWAY_BUKIT JELUTONG-SUBANG JAYA_OPEN MODE_LC_SC_DL_UL_01
2560,CELLMEAS,03:44:42.467,7,0,5,9,0,70007,3150,332,-90.0,-104.0,-10.0,,124.0,18Jan19 034247_CS_PS_NKVE HIGHWAY_BUKIT JELUTONG-SUBANG JAYA_OPEN MODE_LC_SC_DL_UL_01
2577,CELLMEAS,03:44:43.468,7,0,4,9,0,70007,3150,332,-89.0,-103.0,-10.0,,122.0,18Jan19 034247_CS_PS_NKVE HIGHWAY_BUKIT JELUTONG-SUBANG JAYA_OPEN MODE_LC_SC_DL_UL_01
2594,CELLMEAS,03:44:44.469,7,0,4,9,0,70007,3150,332,-88.0,-104.0,-10.0,,121.0,18Jan19 034247_CS_PS_NKVE HIGHWAY_BUKIT JELUTONG-SUBANG JAYA_OPEN MODE_LC_SC_DL_UL_01
2610,CELLMEAS,03:44:45.468,7,0,5,9,0,70007,3150,332,-86.0,-99.0,-11.0,,121.0,18Jan19 034247_CS_PS_NKVE HIGHWAY_BUKIT JELUTONG-SUBANG JAYA_OPEN MODE_LC_SC_DL_UL_01
2626,CELLMEAS,03:44:46.471,7,0,3,9,0,70007,3150,332,-89.0,-105.0,-11.0,,123.0,18Jan19 034247_CS_PS_NKVE HIGHWAY_BUKIT JELUTONG-SUBANG JAYA_OPEN MODE_LC_SC_DL_UL_01
2642,CELLMEAS,03:44:47.468,7,0,4,9,0,70007,3150,332,-89.0,-105.0,-11.0,,121.0,18Jan19 034247_CS_PS_NKVE HIGHWAY_BUKIT JELUTONG-SUBANG JAYA_OPEN MODE_LC_SC_DL_UL_01
2658,CELLMEAS,03:44:48.467,7,0,4,9,0,70007,3150,332,-87.0,-104.0,-10.0,,120.0,18Jan19 034247_CS_PS_NKVE HIGHWAY_BUKIT JELUTONG-SUBANG JAYA_OPEN MODE_LC_SC_DL_UL_01
2675,CELLMEAS,03:44:49.466,7,0,5,9,0,70007,3150,332,-87.0,-105.0,-12.0,,118.0,18Jan19 034247_CS_PS_NKVE HIGHWAY_BUKIT JELUTONG-SUBANG JAYA_OPEN MODE_LC_SC_DL_UL_01
2691,CELLMEAS,03:44:50.466,7,0,4,9,0,70007,3150,332,-87.0,-103.0,-9.0,,115.0,18Jan19 034247_CS_PS_NKVE HIGHWAY_BUKIT JELUTONG-SUBANG JAYA_OPEN MODE_LC_SC_DL_UL_01
2707,CELLMEAS,03:44:51.465,7,0,4,9,0,70007,3150,332,-83.0,-100.0,-10.0,,117.0,18Jan19 034247_CS_PS_NKVE HIGHWAY_BUKIT JELUTONG-SUBANG JAYA_OPEN MODE_LC_SC_DL_UL_01
2722,CELLMEAS,03:44:52.468,7,0,4,9,0,70007,3150,332,-86.0,-103.0,-10.0,,118.0,18Jan19 034247_CS_PS_NKVE HIGHWAY_BUKIT JELUTONG-SUBANG JAYA_OPEN MODE_LC_SC_DL_UL_01
2740,CELLMEAS,03:44:53.466,7,0,6,9,0,70007,3150,332,-86.0,-102.0,-10.0,,120.0,18Jan19 034247_CS_PS_NKVE HIGHWAY_BUKIT JELUTONG-SUBANG JAYA_OPEN MODE_LC_SC_DL_UL_01
2759,CELLMEAS,03:44:54.468,7,0,6,9,0,70007,3150,332,-89.0,-106.0,-11.0,,125.0,18Jan19 034247_CS_PS_NKVE HIGHWAY_BUKIT JELUTONG-SUBANG JAYA_OPEN MODE_LC_SC_DL_UL_01
2777,CELLMEAS,03:44:55.468,7,0,7,9,0,70007,3150,332,-89.0,-105.0,-13.0,,123.0,18Jan19 034247_CS_PS_NKVE HIGHWAY_BUKIT JELUTONG-SUBANG JAYA_OPEN MODE_LC_SC_DL_UL_01
2795,CELLMEAS,03:44:56.469,7,0,2,9,0,70007,3150,332,-89.0,-107.0,-12.0,,119.0,18Jan19 034247_CS_PS_NKVE HIGHWAY_BUKIT JELUTONG-SUBANG JAYA_OPEN MODE_LC_SC_DL_UL_01
2811,CELLMEAS,03:44:57.468,7,0,2,9,0,70007,3150,332,-88.0,-105.0,-10.0,,115.0,18Jan19 034247_CS_PS_NKVE HIGHWAY_BUKIT JELUTONG-SUBANG JAYA_OPEN MODE_LC_SC_DL_UL_01
2828,CELLMEAS,03:44:58.467,7,0,2,9,0,70007,3150,332,-82.0,-100.0,-10.0,,118.0,18Jan19 034247_CS_PS_NKVE HIGHWAY_BUKIT JELUTONG-SUBANG JAYA_OPEN MODE_LC_SC_DL_UL_01
2845,CELLMEAS,03:44:59.472,7,0,2,9,0,70007,3150,332,-84.0,-101.0,-10.0,,116.0,18Jan19 034247_CS_PS_NKVE HIGHWAY_BUKIT JELUTONG-SUBANG JAYA_OPEN MODE_LC_SC_DL_UL_01
2861,CELLMEAS,03:45:00.471,7,0,2,9,0,70007,3150,332,-83.0,-100.0,-10.0,,115.0,18Jan19 034247_CS_PS_NKVE HIGHWAY_BUKIT JELUTONG-SUBANG JAYA_OPEN MODE_LC_SC_DL_UL_01
2878,CELLMEAS,03:45:01.469,7,0,3,9,0,70007,3150,332,-83.0,-99.0,-10.0,,117.0,18Jan19 034247_CS_PS_NKVE HIGHWAY_BUKIT JELUTONG-SUBANG JAYA_OPEN MODE_LC_SC_DL_UL_01
2894,CELLMEAS,03:45:02.472,7,0,2,9,0,70007,3150,332,-84.0,-101.0,-11.0,,118.0,18Jan19 034247_CS_PS_NKVE HIGHWAY_BUKIT JELUTONG-SUBANG JAYA_OPEN MODE_LC_SC_DL_UL_01
2910,CELLMEAS,03:45:03.470,7,0,2,9,0,70007,3150,332,-85.0,-98.0,-10.0,,114.0,18Jan19 034247_CS_PS_NKVE HIGHWAY_BUKIT JELUTONG-SUBANG JAYA_OPEN MODE_LC_SC_DL_UL_01
2927,CELLMEAS,03:45:04.469,7,0,2,9,0,70007,3150,332,-80.0,-97.0,-10.0,,118.0,18Jan19 034247_CS_PS_NKVE HIGHWAY_BUKIT JELUTONG-SUBANG JAYA_OPEN MODE_LC_SC_DL_UL_01
2943,CELLMEAS,03:45:05.469,7,0,2,9,0,70007,3150,332,-85.0,-100.0,-10.0,,117.0,18Jan19 034247_CS_PS_NKVE HIGHWAY_BUKIT JELUTONG-SUBANG JAYA_OPEN MODE_LC_SC_DL_UL_01
2959,CELLMEAS,03:45:06.470,7,0,3,9,0,70007,3150,332,-85.0,-102.0,-10.0,,119.0,18Jan19 034247_CS_PS_NKVE HIGHWAY_BUKIT JELUTONG-SUBANG JAYA_OPEN MODE_LC_SC_DL_UL_01
2978,CELLMEAS,03:45:07.469,7,0,4,9,0,70007,3150,332,-87.0,-105.0,-11.0,,122.0,18Jan19 034247_CS_PS_NKVE HIGHWAY_BUKIT JELUTONG-SUBANG JAYA_OPEN MODE_LC_SC_DL_UL_01
2997,CELLMEAS,03:45:08.470,7,0,6,9,0,70007,3150,332,-88.0,-107.0,-13.0,,123.0,18Jan19 034247_CS_PS_NKVE HIGHWAY_BUKIT JELUTONG-SUBANG JAYA_OPEN MODE_LC_SC_DL_UL_01
3016,CELLMEAS,03:45:09.470,7,0,5,9,0,70007,3150,332,-87.0,-107.0,-14.0,,122.0,18Jan19 034247_CS_PS_NKVE HIGHWAY_BUKIT JELUTONG-SUBANG JAYA_OPEN MODE_LC_SC_DL_UL_01
3034,CELLMEAS,03:45:10.472,7,0,5,9,0,70007,3150,332,-87.0,-107.0,-13.0,,121.0,18Jan19 034247_CS_PS_NKVE HIGHWAY_BUKIT JELUTONG-SUBANG JAYA_OPEN MODE_LC_SC_DL_UL_01
3052,CELLMEAS,03:45:11.469,7,0,4,9,0,70007,3150,332,-86.0,-106.0,-13.0,,124.0,18Jan19 034247_CS_PS_NKVE HIGHWAY_BUKIT JELUTONG-SUBANG JAYA_OPEN MODE_LC_SC_DL_UL_01
3070,CELLMEAS,03:45:12.469,7,0,5,9,0,70007,3150,332,-89.0,-110.0,-13.0,,122.0,18Jan19 034247_CS_PS_NKVE HIGHWAY_BUKIT JELUTONG-SUBANG JAYA_OPEN MODE_LC_SC_DL_UL_01
3094,CELLMEAS,03:45:12.971,7,0,4,9,0,70007,3150,330,-89.0,-102.0,-9.0,,125.0,18Jan19 034247_CS_PS_NKVE HIGHWAY_BUKIT JELUTONG-SUBANG JAYA_OPEN MODE_LC_SC_DL_UL_01
3139,CELLMEAS,03:45:13.470,7,0,3,9,0,70007,3150,330,-84.0,-102.0,-9.0,,122.0,18Jan19 034247_CS_PS_NKVE HIGHWAY_BUKIT JELUTONG-SUBANG JAYA_OPEN MODE_LC_SC_DL_UL_01
3159,CELLMEAS,03:45:14.471,7,0,3,9,0,70007,3150,330,-87.0,-99.0,-11.0,,119.0,18Jan19 034247_CS_PS_NKVE HIGHWAY_BUKIT JELUTONG-SUBANG JAYA_OPEN MODE_LC_SC_DL_UL_01
3175,CELLMEAS,03:45:15.476,7,0,3,9,0,70007,3150,330,-82.0,-96.0,-10.0,,112.0,18Jan19 034247_CS_PS_NKVE HIGHWAY_BUKIT JELUTONG-SUBANG JAYA_OPEN MODE_LC_SC_DL_UL_01
3191,CELLMEAS,03:45:16.475,7,0,3,9,0,70007,3150,330,-81.0,-97.0,-10.0,,117.0,18Jan19 034247_CS_PS_NKVE HIGHWAY_BUKIT JELUTONG-SUBANG JAYA_OPEN MODE_LC_SC_DL_UL_01
3206,CELLMEAS,03:45:17.477,7,0,3,9,0,70007,3150,330,-83.0,-99.0,-10.0,,113.0,18Jan19 034247_CS_PS_NKVE HIGHWAY_BUKIT JELUTONG-SUBANG JAYA_OPEN MODE_LC_SC_DL_UL_01
3224,CELLMEAS,03:45:18.474,7,0,4,9,0,70007,3150,330,-82.0,-100.0,-10.0,,118.0,18Jan19 034247_CS_PS_NKVE HIGHWAY_BUKIT JELUTONG-SUBANG JAYA_OPEN MODE_LC_SC_DL_UL_01
3241,CELLMEAS,03:45:19.475,7,0,5,9,0,70007,3150,330,-86.0,-105.0,-11.0,,122.0,18Jan19 034247_CS_PS_NKVE HIGHWAY_BUKIT JELUTONG-SUBANG JAYA_OPEN MODE_LC_SC_DL_UL_01
3262,CELLMEAS,03:45:20.474,7,0,6,9,0,70007,3150,330,-87.0,-108.0,-13.0,,126.0,18Jan19 034247_CS_PS_NKVE HIGHWAY_BUKIT JELUTONG-SUBANG JAYA_OPEN MODE_LC_SC_DL_UL_01
3281,CELLMEAS,03:45:20.575,7,0,2,9,0,70007,3150,332,-89.0,-107.0,-12.0,,121.0,18Jan19 034247_CS_PS_NKVE HIGHWAY_BUKIT JELUTONG-SUBANG JAYA_OPEN MODE_LC_SC_DL_UL_01
3323,CELLMEAS,03:45:21.477,7,0,5,9,0,70007,3150,332,-84.0,-107.0,-12.0,,121.0,18Jan19 034247_CS_PS_NKVE HIGHWAY_BUKIT JELUTONG-SUBANG JAYA_OPEN MODE_LC_SC_DL_UL_01
3340,CELLMEAS,03:45:22.476,7,0,6,9,0,70007,3150,332,-87.0,-106.0,-12.0,,118.0,18Jan19 034247_CS_PS_NKVE HIGHWAY_BUKIT JELUTONG-SUBANG JAYA_OPEN MODE_LC_SC_DL_UL_01
3356,CELLMEAS,03:45:23.475,7,0,5,9,0,70007,3150,332,-85.0,-104.0,-11.0,,116.0,18Jan19 034247_CS_PS_NKVE HIGHWAY_BUKIT JELUTONG-SUBANG JAYA_OPEN MODE_LC_SC_DL_UL_01
3373,CELLMEAS,03:45:24.475,7,0,5,9,0,70007,3150,332,-85.0,-102.0,-9.0,,121.0,18Jan19 034247_CS_PS_NKVE HIGHWAY_BUKIT JELUTONG-SUBANG JAYA_OPEN MODE_LC_SC_DL_UL_01
3389,CELLMEAS,03:45:25.476,7,0,6,9,0,70007,3150,332,-88.0,-106.0,-10.0,,124.0,18Jan19 034247_CS_PS_NKVE HIGHWAY_BUKIT JELUTONG-SUBANG JAYA_OPEN MODE_LC_SC_DL_UL_01
3411,CELLMEAS,03:45:26.476,7,0,6,9,0,70007,3150,332,-90.0,-110.0,-12.0,,127.0,18Jan19 034247_CS_PS_NKVE HIGHWAY_BUKIT JELUTONG-SUBANG JAYA_OPEN MODE_LC_SC_DL_UL_01
3428,CELLMEAS,03:45:27.475,7,0,11,9,0,70007,3150,332,-91.0,-112.0,-13.0,,126.0,18Jan19 034247_CS_PS_NKVE HIGHWAY_BUKIT JELUTONG-SUBANG JAYA_OPEN MODE_LC_SC_DL_UL_01
3447,CELLMEAS,03:45:28.475,7,0,10,9,0,70007,3150,332,-92.0,-113.0,-13.0,,126.0,18Jan19 034247_CS_PS_NKVE HIGHWAY_BUKIT JELUTONG-SUBANG JAYA_OPEN MODE_LC_SC_DL_UL_01
3465,CELLMEAS,03:45:29.474,7,0,6,9,0,70007,3150,332,-92.0,-112.0,-13.0,,124.0,18Jan19 034247_CS_PS_NKVE HIGHWAY_BUKIT JELUTONG-SUBANG JAYA_OPEN MODE_LC_SC_DL_UL_01
3484,CELLMEAS,03:45:30.474,7,0,6,9,0,70007,3150,332,-91.0,-111.0,-12.0,,126.0,18Jan19 034247_CS_PS_NKVE HIGHWAY_BUKIT JELUTONG-SUBANG JAYA_OPEN MODE_LC_SC_DL_UL_01
3503,CELLMEAS,03:45:31.483,7,0,5,9,0,70007,3150,332,-91.0,-111.0,-12.0,,126.0,18Jan19 034247_CS_PS_NKVE HIGHWAY_BUKIT JELUTONG-SUBANG JAYA_OPEN MODE_LC_SC_DL_UL_01
3533,CELLMEAS,03:45:31.585,7,0,4,9,0,70007,3150,128,-92.0,-106.0,-10.0,,129.0,18Jan19 034247_CS_PS_NKVE HIGHWAY_BUKIT JELUTONG-SUBANG JAYA_OPEN MODE_LC_SC_DL_UL_01
3592,CELLMEAS,03:45:32.483,7,0,5,9,0,70007,3150,128,-89.0,-106.0,-10.0,,132.0,18Jan19 034247_CS_PS_NKVE HIGHWAY_BUKIT JELUTONG-SUBANG JAYA_OPEN MODE_LC_SC_DL_UL_01
3612,CELLMEAS,03:45:33.484,7,0,5,9,0,70007,3150,128,-83.0,-113.0,-12.0,,130.0,18Jan19 034247_CS_PS_NKVE HIGHWAY_BUKIT JELUTONG-SUBANG JAYA_OPEN MODE_LC_SC_DL_UL_01
3634,CELLMEAS,03:45:34.487,7,0,3,9,0,70007,3150,128,-78.0,-105.0,-10.0,,126.0,18Jan19 034247_CS_PS_NKVE HIGHWAY_BUKIT JELUTONG-SUBANG JAYA_OPEN MODE_LC_SC_DL_UL_01
3654,CELLMEAS,03:45:35.484,7,0,5,9,0,70007,3150,128,-79.0,-104.0,-10.0,,127.0,18Jan19 034247_CS_PS_NKVE HIGHWAY_BUKIT JELUTONG-SUBANG JAYA_OPEN MODE_LC_SC_DL_UL_01
3677,CELLMEAS,03:45:36.486,7,0,4,9,0,70007,3150,128,-76.0,-103.0,-10.0,,119.0,18Jan19 034247_CS_PS_NKVE HIGHWAY_BUKIT JELUTONG-SUBANG JAYA_OPEN MODE_LC_SC_DL_UL_01
3697,CELLMEAS,03:45:37.486,7,0,4,9,0,70007,3150,128,-73.0,-99.0,-9.0,,124.0,18Jan19 034247_CS_PS_NKVE HIGHWAY_BUKIT JELUTONG-SUBANG JAYA_OPEN MODE_LC_SC_DL_UL_01
3715,CELLMEAS,03:45:38.484,7,0,4,9,0,70007,3150,128,-75.0,-102.0,-10.0,,124.0,18Jan19 034247_CS_PS_NKVE HIGHWAY_BUKIT JELUTONG-SUBANG JAYA_OPEN MODE_LC_SC_DL_UL_01
3740,CELLMEAS,03:45:39.286,7,0,4,9,0,70007,3150,170,-70.0,-95.0,-9.0,,117.0,18Jan19 034247_CS_PS_NKVE HIGHWAY_BUKIT JELUTONG-SUBANG JAYA_OPEN MODE_LC_SC_DL_UL_01
3781,CELLMEAS,03:45:39.483,7,0,3,9,0,70007,3150,170,-70.0,-95.0,-8.0,,116.0,18Jan19 034247_CS_PS_NKVE HIGHWAY_BUKIT JELUTONG-SUBANG JAYA_OPEN MODE_LC_SC_DL_UL_01
3821,CELLMEAS,03:45:40.484,7,0,5,9,0,70007,3150,170,-84.0,-96.0,-7.0,,118.0,18Jan19 034247_CS_PS_NKVE HIGHWAY_BUKIT JELUTONG-SUBANG JAYA_OPEN MODE_LC_SC_DL_UL_01
3841,CELLMEAS,03:45:41.484,7,0,4,9,0,70007,3150,170,-84.0,-99.0,-8.0,,117.0,18Jan19 034247_CS_PS_NKVE HIGHWAY_BUKIT JELUTONG-SUBANG JAYA_OPEN MODE_LC_SC_DL_UL_01
3857,CELLMEAS,03:45:42.484,7,0,4,9,0,70007,3150,170,-83.0,-99.0,-10.0,,120.0,18Jan19 034247_CS_PS_NKVE HIGHWAY_BUKIT JELUTONG-SUBANG JAYA_OPEN MODE_LC_SC_DL_UL_01
3878,CELLMEAS,03:45:43.483,7,0,4,9,0,70007,3150,170,-85.0,-100.0,-10.0,,123.0,18Jan19 034247_CS_PS_NKVE HIGHWAY_BUKIT JELUTONG-SUBANG JAYA_OPEN MODE_LC_SC_DL_UL_01
3896,CELLMEAS,03:45:44.483,7,0,4,9,0,70007,3150,170,-84.0,-100.0,-10.0,,123.0,18Jan19 034247_CS_PS_NKVE HIGHWAY_BUKIT JELUTONG-SUBANG JAYA_OPEN MODE_LC_SC_DL_UL_01
3912,CELLMEAS,03:45:45.483,7,0,4,9,0,70007,3150,170,-83.0,-98.0,-9.0,,116.0,18Jan19 034247_CS_PS_NKVE HIGHWAY_BUKIT JELUTONG-SUBANG JAYA_OPEN MODE_LC_SC_DL_UL_01
3928,CELLMEAS,03:45:46.487,7,0,4,9,0,70007,3150,170,-81.0,-98.0,-9.0,,116.0,18Jan19 034247_CS_PS_NKVE HIGHWAY_BUKIT JELUTONG-SUBANG JAYA_OPEN MODE_LC_SC_DL_UL_01
3958,CELLMEAS,03:45:46.887,7,0,1,9,0,70007,3150,128,-81.0,-92.0,-7.0,,114.0,18Jan19 034247_CS_PS_NKVE HIGHWAY_BUKIT JELUTONG-SUBANG JAYA_OPEN MODE_LC_SC_DL_UL_01
4005,CELLMEAS,03:45:47.484,7,0,3,9,0,70007,3150,128,-81.0,-92.0,-7.0,,119.0,18Jan19 034247_CS_PS_NKVE HIGHWAY_BUKIT JELUTONG-SUBANG JAYA_OPEN MODE_LC_SC_DL_UL_01
4021,CELLMEAS,03:45:48.485,7,0,3,9,0,70007,3150,128,-70.0,-91.0,-9.0,,111.0,18Jan19 034247_CS_PS_NKVE HIGHWAY_BUKIT JELUTONG-SUBANG JAYA_OPEN MODE_LC_SC_DL_UL_01
4040,CELLMEAS,03:45:49.485,7,0,3,9,0,70007,3150,128,-64.0,-87.0,-9.0,,112.0,18Jan19 034247_CS_PS_NKVE HIGHWAY_BUKIT JELUTONG-SUBANG JAYA_OPEN MODE_LC_SC_DL_UL_01
4058,CELLMEAS,03:45:50.488,7,0,3,9,0,70007,3150,128,-70.0,-90.0,-9.0,,116.0,18Jan19 034247_CS_PS_NKVE HIGHWAY_BUKIT JELUTONG-SUBANG JAYA_OPEN MODE_LC_SC_DL_UL_01
4077,CELLMEAS,03:45:51.490,7,0,3,9,0,70007,3150,128,-75.0,-96.0,-9.0,,120.0,18Jan19 034247_CS_PS_NKVE HIGHWAY_BUKIT JELUTONG-SUBANG JAYA_OPEN MODE_LC_SC_DL_UL_01
4093,CELLMEAS,03:45:52.489,7,0,3,9,0,70007,3150,128,-72.0,-94.0,-9.0,,118.0,18Jan19 034247_CS_PS_NKVE HIGHWAY_BUKIT JELUTONG-SUBANG JAYA_OPEN MODE_LC_SC_DL_UL_01
4110,CELLMEAS,03:45:53.489,7,0,3,9,0,70007,3150,128,-72.0,-96.0,-9.0,,119.0,18Jan19 034247_CS_PS_NKVE HIGHWAY_BUKIT JELUTONG-SUBANG JAYA_OPEN MODE_LC_SC_DL_UL_01
4128,CELLMEAS,03:45:54.490,7,0,3,9,0,70007,3150,128,-74.0,-99.0,-9.0,,120.0,18Jan19 034247_CS_PS_NKVE HIGHWAY_BUKIT JELUTONG-SUBANG JAYA_OPEN MODE_LC_SC_DL_UL_01
4146,CELLMEAS,03:45:55.488,7,0,3,9,0,70007,3150,128,-76.0,-99.0,-9.0,,119.0,18Jan19 034247_CS_PS_NKVE HIGHWAY_BUKIT JELUTONG-SUBANG JAYA_OPEN MODE_LC_SC_DL_UL_01
4163,CELLMEAS,03:45:56.487,7,0,3,9,0,70007,3150,128,-70.0,-96.0,-9.0,,123.0,18Jan19 034247_CS_PS_NKVE HIGHWAY_BUKIT JELUTONG-SUBANG JAYA_OPEN MODE_LC_SC_DL_UL_01
4181,CELLMEAS,03:45:57.488,7,0,4,9,0,70007,3150,128,-74.0,-101.0,-8.0,,123.0,18Jan19 034247_CS_PS_NKVE HIGHWAY_BUKIT JELUTONG-SUBANG JAYA_OPEN MODE_LC_SC_DL_UL_01
4201,CELLMEAS,03:45:58.491,7,0,4,9,0,70007,3150,128,-75.0,-104.0,-10.0,,121.0,18Jan19 034247_CS_PS_NKVE HIGHWAY_BUKIT JELUTONG-SUBANG JAYA_OPEN MODE_LC_SC_DL_UL_01
4219,CELLMEAS,03:45:59.488,7,0,4,9,0,70007,3150,128,-78.0,-104.0,-10.0,,122.0,18Jan19 034247_CS_PS_NKVE HIGHWAY_BUKIT JELUTONG-SUBANG JAYA_OPEN MODE_LC_SC_DL_UL_01
4235,CELLMEAS,03:46:00.490,7,0,5,9,0,70007,3150,128,-74.0,-103.0,-11.0,,124.0,18Jan19 034247_CS_PS_NKVE HIGHWAY_BUKIT JELUTONG-SUBANG JAYA_OPEN MODE_LC_SC_DL_UL_01
4253,CELLMEAS,03:46:01.490,7,0,5,9,0,70007,3150,128,-75.0,-103.0,-9.0,,122.0,18Jan19 034247_CS_PS_NKVE HIGHWAY_BUKIT JELUTONG-SUBANG JAYA_OPEN MODE_LC_SC_DL_UL_01
4270,CELLMEAS,03:46:02.488,7,0,5,9,0,70007,3150,128,-76.0,-105.0,-10.0,,122.0,18Jan19 034247_CS_PS_NKVE HIGHWAY_BUKIT JELUTONG-SUBANG JAYA_OPEN MODE_LC_SC_DL_UL_01
4289,CELLMEAS,03:46:03.488,7,0,5,9,0,70007,3150,128,-74.0,-100.0,-10.0,,122.0,18Jan19 034247_CS_PS_NKVE HIGHWAY_BUKIT JELUTONG-SUBANG JAYA_OPEN MODE_LC_SC_DL_UL_01
4306,CELLMEAS,03:46:04.488,7,0,5,9,0,70007,3150,128,-69.0,-102.0,-14.0,,118.0,18Jan19 034247_CS_PS_NKVE HIGHWAY_BUKIT JELUTONG-SUBANG JAYA_OPEN MODE_LC_SC_DL_UL_01
4323,CELLMEAS,03:46:05.491,7,0,5,9,0,70007,3150,128,-72.0,-102.0,-11.0,,120.0,18Jan19 034247_CS_PS_NKVE HIGHWAY_BUKIT JELUTONG-SUBANG JAYA_OPEN MODE_LC_SC_DL_UL_01
4339,CELLMEAS,03:46:06.489,7,0,5,9,0,70007,3150,128,-72.0,-100.0,-9.0,,120.0,18Jan19 034247_CS_PS_NKVE HIGHWAY_BUKIT JELUTONG-SUBANG JAYA_OPEN MODE_LC_SC_DL_UL_01
4360,CELLMEAS,03:46:07.489,7,0,5,9,0,70007,3150,128,-73.0,-101.0,-10.0,,118.0,18Jan19 034247_CS_PS_NKVE HIGHWAY_BUKIT JELUTONG-SUBANG JAYA_OPEN MODE_LC_SC_DL_UL_01
4379,CELLMEAS,03:46:08.489,7,0,5,9,0,70007,3150,128,-71.0,-99.0,-10.0,,116.0,18Jan19 034247_CS_PS_NKVE HIGHWAY_BUKIT JELUTONG-SUBANG JAYA_OPEN MODE_LC_SC_DL_UL_01
4397,CELLMEAS,03:46:09.489,7,0,5,9,0,70007,3150,128,-70.0,-97.0,-9.0,,121.0,18Jan19 034247_CS_PS_NKVE HIGHWAY_BUKIT JELUTONG-SUBANG JAYA_OPEN MODE_LC_SC_DL_UL_01
4414,CELLMEAS,03:46:10.489,7,0,5,9,0,70007,3150,128,-73.0,-98.0,-10.0,,119.0,18Jan19 034247_CS_PS_NKVE HIGHWAY_BUKIT JELUTONG-SUBANG JAYA_OPEN MODE_LC_SC_DL_UL_01
4434,CELLMEAS,03:46:11.489,7,0,5,9,0,70007,3150,128,-73.0,-99.0,-9.0,,121.0,18Jan19 034247_CS_PS_NKVE HIGHWAY_BUKIT JELUTONG-SUBANG JAYA_OPEN MODE_LC_SC_DL_UL_01
4451,CELLMEAS,03:46:12.491,7,0,5,9,0,70007,3150,128,-73.0,-100.0,-10.0,,119.0,18Jan19 034247_CS_PS_NKVE HIGHWAY_BUKIT JELUTONG-SUBANG JAYA_OPEN MODE_LC_SC_DL_UL_01
4469,CELLMEAS,03:46:13.490,7,0,5,9,0,70007,3150,128,-73.0,-99.0,-10.0,,120.0,18Jan19 034247_CS_PS_NKVE HIGHWAY_BUKIT JELUTONG-SUBANG JAYA_OPEN MODE_LC_SC_DL_UL_01
4489,CELLMEAS,03:46:14.490,7,0,5,9,0,70007,3150,128,-72.0,-99.0,-10.0,,116.0,18Jan19 034247_CS_PS_NKVE HIGHWAY_BUKIT JELUTONG-SUBANG JAYA_OPEN MODE_LC_SC_DL_UL_01
4504,CELLMEAS,03:46:15.492,7,0,3,9,0,70007,3150,128,-67.0,-93.0,-9.0,,110.0,18Jan19 034247_CS_PS_NKVE HIGHWAY_BUKIT JELUTONG-SUBANG JAYA_OPEN MODE_LC_SC_DL_UL_01
4520,CELLMEAS,03:46:16.492,7,0,3,9,0,70007,3150,128,-65.0,-91.0,-9.0,,105.0,18Jan19 034247_CS_PS_NKVE HIGHWAY_BUKIT JELUTONG-SUBANG JAYA_OPEN MODE_LC_SC_DL_UL_01
4536,CELLMEAS,03:46:17.508,7,0,2,9,0,70007,3150,128,-60.0,-85.0,-6.0,,103.0,18Jan19 034247_CS_PS_NKVE HIGHWAY_BUKIT JELUTONG-SUBANG JAYA_OPEN MODE_LC_SC_DL_UL_01
4553,CELLMEAS,03:46:18.492,7,0,2,9,0,70007,3150,128,-61.0,-86.0,-6.0,,104.0,18Jan19 034247_CS_PS_NKVE HIGHWAY_BUKIT JELUTONG-SUBANG JAYA_OPEN MODE_LC_SC_DL_UL_01
4570,CELLMEAS,03:46:19.509,7,0,2,9,0,70007,3150,128,-59.0,-85.0,-6.0,,107.0,18Jan19 034247_CS_PS_NKVE HIGHWAY_BUKIT JELUTONG-SUBANG JAYA_OPEN MODE_LC_SC_DL_UL_01
4595,CELLMEAS,03:46:20.495,7,0,2,9,0,70007,3150,128,-58.0,-84.0,-6.0,,103.0,18Jan19 034247_CS_PS_NKVE HIGHWAY_BUKIT JELUTONG-SUBANG JAYA_OPEN MODE_LC_SC_DL_UL_01
4612,CELLMEAS,03:46:21.498,7,0,2,9,0,70007,3150,128,-57.0,-86.0,-8.0,,102.0,18Jan19 034247_CS_PS_NKVE HIGHWAY_BUKIT JELUTONG-SUBANG JAYA_OPEN MODE_LC_SC_DL_UL_01
4630,CELLMEAS,03:46:22.499,7,0,2,9,0,70007,3150,128,-49.0,-76.0,-6.0,,92.0,18Jan19 034247_CS_PS_NKVE HIGHWAY_BUKIT JELUTONG-SUBANG JAYA_OPEN MODE_LC_SC_DL_UL_01
4646,CELLMEAS,03:46:23.497,7,0,2,9,0,70007,3150,128,-47.0,-76.0,-8.0,,93.0,18Jan19 034247_CS_PS_NKVE HIGHWAY_BUKIT JELUTONG-SUBANG JAYA_OPEN MODE_LC_SC_DL_UL_01
4662,CELLMEAS,03:46:24.511,7,0,2,9,0,70007,3150,128,-56.0,-85.0,-8.0,,104.0,18Jan19 034247_CS_PS_NKVE HIGHWAY_BUKIT JELUTONG-SUBANG JAYA_OPEN MODE_LC_SC_DL_UL_01
4678,CELLMEAS,03:46:25.513,7,0,2,9,0,70007,3150,128,-58.0,-87.0,-9.0,,107.0,18Jan19 034247_CS_PS_NKVE HIGHWAY_BUKIT JELUTONG-SUBANG JAYA_OPEN MODE_LC_SC_DL_UL_01
4694,CELLMEAS,03:46:26.512,7,0,2,9,0,70007,3150,128,-62.0,-90.0,-9.0,,111.0,18Jan19 034247_CS_PS_NKVE HIGHWAY_BUKIT JELUTONG-SUBANG JAYA_OPEN MODE_LC_SC_DL_UL_01
4712,CELLMEAS,03:46:27.514,7,0,2,9,0,70007,3150,128,-58.0,-88.0,-9.0,,106.0,18Jan19 034247_CS_PS_NKVE HIGHWAY_BUKIT JELUTONG-SUBANG JAYA_OPEN MODE_LC_SC_DL_UL_01
4729,CELLMEAS,03:46:28.514,7,0,2,9,0,70007,3150,128,-65.0,-94.0,-9.0,,112.0,18Jan19 034247_CS_PS_NKVE HIGHWAY_BUKIT JELUTONG-SUBANG JAYA_OPEN MODE_LC_SC_DL_UL_01
4747,CELLMEAS,03:46:29.512,7,0,2,9,0,70007,3150,128,-67.0,-96.0,-10.0,,110.0,18Jan19 034247_CS_PS_NKVE HIGHWAY_BUKIT JELUTONG-SUBANG JAYA_OPEN MODE_LC_SC_DL_UL_01
4765,CELLMEAS,03:46:30.513,7,0,2,9,0,70007,3150,128,-66.0,-94.0,-10.0,,115.0,18Jan19 034247_CS_PS_NKVE HIGHWAY_BUKIT JELUTONG-SUBANG JAYA_OPEN MODE_LC_SC_DL_UL_01
4783,CELLMEAS,03:46:31.515,7,0,2,9,0,70007,3150,128,-68.0,-96.0,-10.0,,115.0,18Jan19 034247_CS_PS_NKVE HIGHWAY_BUKIT JELUTONG-SUBANG JAYA_OPEN MODE_LC_SC_DL_UL_01
4799,CELLMEAS,03:46:32.514,7,0,2,9,0,70007,3150,128,-68.0,-95.0,-9.0,,113.0,18Jan19 034247_CS_PS_NKVE HIGHWAY_BUKIT JELUTONG-SUBANG JAYA_OPEN MODE_LC_SC_DL_UL_01
4816,CELLMEAS,03:46:33.514,7,0,2,9,0,70007,3150,128,-68.0,-93.0,-9.0,,114.0,18Jan19 034247_CS_PS_NKVE HIGHWAY_BUKIT JELUTONG-SUBANG JAYA_OPEN MODE_LC_SC_DL_UL_01
4832,CELLMEAS,03:46:34.515,7,0,2,9,0,70007,3150,128,-66.0,-92.0,-9.0,,114.0,18Jan19 034247_CS_PS_NKVE HIGHWAY_BUKIT JELUTONG-SUBANG JAYA_OPEN MODE_LC_SC_DL_UL_01
4849,CELLMEAS,03:46:35.517,7,0,2,9,0,70007,3150,128,-65.0,-92.0,-9.0,,110.0,18Jan19 034247_CS_PS_NKVE HIGHWAY_BUKIT JELUTONG-SUBANG JAYA_OPEN MODE_LC_SC_DL_UL_01
4867,CELLMEAS,03:46:36.518,7,0,2,9,0,70007,3150,128,-64.0,-91.0,-9.0,,108.0,18Jan19 034247_CS_PS_NKVE HIGHWAY_BUKIT JELUTONG-SUBANG JAYA_OPEN MODE_LC_SC_DL_UL_01
4883,CELLMEAS,03:46:37.525,7,0,2,9,0,70007,3150,128,-64.0,-91.0,-9.0,,106.0,18Jan19 034247_CS_PS_NKVE HIGHWAY_BUKIT JELUTONG-SUBANG JAYA_OPEN MODE_LC_SC_DL_UL_01
4902,CELLMEAS,03:46:38.529,7,0,2,9,0,70007,3150,128,-54.0,-83.0,-8.0,,99.0,18Jan19 034247_CS_PS_NKVE HIGHWAY_BUKIT JELUTONG-SUBANG JAYA_OPEN MODE_LC_SC_DL_UL_01
4918,CELLMEAS,03:46:39.530,7,0,2,9,0,70007,3150,128,-51.0,-79.0,-8.0,,97.0,18Jan19 034247_CS_PS_NKVE HIGHWAY_BUKIT JELUTONG-SUBANG JAYA_OPEN MODE_LC_SC_DL_UL_01
4934,CELLMEAS,03:46:40.532,7,0,2,9,0,70007,3150,128,-48.0,-77.0,-8.0,,99.0,18Jan19 034247_CS_PS_NKVE HIGHWAY_BUKIT JELUTONG-SUBANG JAYA_OPEN MODE_LC_SC_DL_UL_01
4951,CELLMEAS,03:46:41.528,7,0,2,9,0,70007,3150,128,-59.0,-89.0,-9.0,,107.0,18Jan19 034247_CS_PS_NKVE HIGHWAY_BUKIT JELUTONG-SUBANG JAYA_OPEN MODE_LC_SC_DL_UL_01
4967,CELLMEAS,03:46:42.530,7,0,2,9,0,70007,3150,128,-58.0,-87.0,-9.0,,107.0,18Jan19 034247_CS_PS_NKVE HIGHWAY_BUKIT JELUTONG-SUBANG JAYA_OPEN MODE_LC_SC_DL_UL_01
4987,CELLMEAS,03:46:43.530,7,0,2,9,0,70007,3150,128,-61.0,-90.0,-9.0,,110.0,18Jan19 034247_CS_PS_NKVE HIGHWAY_BUKIT JELUTONG-SUBANG JAYA_OPEN MODE_LC_SC_DL_UL_01
5005,CELLMEAS,03:46:44.530,7,0,2,9,0,70007,3150,128,-63.0,-92.0,-9.0,,111.0,18Jan19 034247_CS_PS_NKVE HIGHWAY_BUKIT JELUTONG-SUBANG JAYA_OPEN MODE_LC_SC_DL_UL_01
5024,CELLMEAS,03:46:45.532,7,0,2,9,0,70007,3150,128,-63.0,-92.0,-9.0,,110.0,18Jan19 034247_CS_PS_NKVE HIGHWAY_BUKIT JELUTONG-SUBANG JAYA_OPEN MODE_LC_SC_DL_UL_01
5040,CELLMEAS,03:46:46.536,7,0,2,9,0,70007,3150,128,-65.0,-95.0,-9.0,,112.0,18Jan19 034247_CS_PS_NKVE HIGHWAY_BUKIT JELUTONG-SUBANG JAYA_OPEN MODE_LC_SC_DL_UL_01
5056,CELLMEAS,03:46:47.535,7,0,2,9,0,70007,3150,128,-69.0,-97.0,-9.0,,115.0,18Jan19 034247_CS_PS_NKVE HIGHWAY_BUKIT JELUTONG-SUBANG JAYA_OPEN MODE_LC_SC_DL_UL_01
5073,CELLMEAS,03:46:48.536,7,0,2,9,0,70007,3150,128,-70.0,-99.0,-9.0,,117.0,18Jan19 034247_CS_PS_NKVE HIGHWAY_BUKIT JELUTONG-SUBANG JAYA_OPEN MODE_LC_SC_DL_UL_01
5091,CELLMEAS,03:46:49.537,7,0,2,9,0,70007,3150,128,-70.0,-99.0,-10.0,,119.0,18Jan19 034247_CS_PS_NKVE HIGHWAY_BUKIT JELUTONG-SUBANG JAYA_OPEN MODE_LC_SC_DL_UL_01
5108,CELLMEAS,03:46:50.537,7,0,2,9,0,70007,3150,128,-71.0,-100.0,-10.0,,116.0,18Jan19 034247_CS_PS_NKVE HIGHWAY_BUKIT JELUTONG-SUBANG JAYA_OPEN MODE_LC_SC_DL_UL_01
5125,CELLMEAS,03:46:51.537,7,0,2,9,0,70007,3150,128,-66.0,-96.0,-8.0,,118.0,18Jan19 034247_CS_PS_NKVE HIGHWAY_BUKIT JELUTONG-SUBANG JAYA_OPEN MODE_LC_SC_DL_UL_01
5143,CELLMEAS,03:46:52.536,7,0,2,9,0,70007,3150,128,-72.0,-102.0,-10.0,,120.0,18Jan19 034247_CS_PS_NKVE HIGHWAY_BUKIT JELUTONG-SUBANG JAYA_OPEN MODE_LC_SC_DL_UL_01
5163,CELLMEAS,03:46:53.536,7,0,3,9,0,70007,3150,128,-71.0,-101.0,-10.0,,122.0,18Jan19 034247_CS_PS_NKVE HIGHWAY_BUKIT JELUTONG-SUBANG JAYA_OPEN MODE_LC_SC_DL_UL_01
5180,CELLMEAS,03:46:54.536,7,0,6,9,0,70007,3150,128,-74.0,-104.0,-11.0,,124.0,18Jan19 034247_CS_PS_NKVE HIGHWAY_BUKIT JELUTONG-SUBANG JAYA_OPEN MODE_LC_SC_DL_UL_01
5196,CELLMEAS,03:46:55.535,7,0,5,9,0,70007,3150,128,-73.0,-104.0,-12.0,,124.0,18Jan19 034247_CS_PS_NKVE HIGHWAY_BUKIT JELUTONG-SUBANG JAYA_OPEN MODE_LC_SC_DL_UL_01
5221,CELLMEAS,03:46:55.637,7,0,2,9,0,70007,3150,126,-73.0,-102.0,-10.0,,122.0,18Jan19 034247_CS_PS_NKVE HIGHWAY_BUKIT JELUTONG-SUBANG JAYA_OPEN MODE_LC_SC_DL_UL_01
5252,CELLMEAS,03:46:55.637,7,0,2,9,0,70007,3150,126,-74.0,-103.0,-11.0,,123.0,18Jan19 034247_CS_PS_NKVE HIGHWAY_BUKIT JELUTONG-SUBANG JAYA_OPEN MODE_LC_SC_DL_UL_01
5315,CELLMEAS,03:46:56.538,7,0,5,9,0,70007,3150,126,-74.0,-102.0,-11.0,,121.0,18Jan19 034247_CS_PS_NKVE HIGHWAY_BUKIT JELUTONG-SUBANG JAYA_OPEN MODE_LC_SC_DL_UL_01
5332,CELLMEAS,03:46:57.536,7,0,6,9,0,70007,3150,126,-74.0,-101.0,-11.0,,121.0,18Jan19 034247_CS_PS_NKVE HIGHWAY_BUKIT JELUTONG-SUBANG JAYA_OPEN MODE_LC_SC_DL_UL_01
5355,CELLMEAS,03:46:58.540,7,0,4,9,0,70007,3150,126,-72.0,-100.0,-11.0,,121.0,18Jan19 034247_CS_PS_NKVE HIGHWAY_BUKIT JELUTONG-SUBANG JAYA_OPEN MODE_LC_SC_DL_UL_01
5375,CELLMEAS,03:46:59.538,7,0,3,9,0,70007,3150,126,-72.0,-98.0,-10.0,,118.0,18Jan19 034247_CS_PS_NKVE HIGHWAY_BUKIT JELUTONG-SUBANG JAYA_OPEN MODE_LC_SC_DL_UL_01
5392,CELLMEAS,03:47:00.540,7,0,2,9,0,70007,3150,126,-70.0,-97.0,-10.0,,117.0,18Jan19 034247_CS_PS_NKVE HIGHWAY_BUKIT JELUTONG-SUBANG JAYA_OPEN MODE_LC_SC_DL_UL_01
5411,CELLMEAS,03:47:01.542,7,0,2,9,0,70007,3150,126,-70.0,-94.0,-10.0,,118.0,18Jan19 034247_CS_PS_NKVE HIGHWAY_BUKIT JELUTONG-SUBANG JAYA_OPEN MODE_LC_SC_DL_UL_01
5427,CELLMEAS,03:47:02.539,7,0,2,9,0,70007,3150,126,-69.0,-94.0,-10.0,,116.0,18Jan19 034247_CS_PS_NKVE HIGHWAY_BUKIT JELUTONG-SUBANG JAYA_OPEN MODE_LC_SC_DL_UL_01
5443,CELLMEAS,03:47:03.544,7,0,2,9,0,70007,3150,126,-67.0,-92.0,-10.0,,113.0,18Jan19 034247_CS_PS_NKVE HIGHWAY_BUKIT JELUTONG-SUBANG JAYA_OPEN MODE_LC_SC_DL_UL_01
5459,CELLMEAS,03:47:04.545,7,0,2,9,0,70007,3150,126,-66.0,-91.0,-10.0,,110.0,18Jan19 034247_CS_PS_NKVE HIGHWAY_BUKIT JELUTONG-SUBANG JAYA_OPEN MODE_LC_SC_DL_UL_01
5475,CELLMEAS,03:47:05.460,7,0,2,9,0,70007,3150,126,-64.0,-89.0,-10.0,,112.0,18Jan19 034247_CS_PS_NKVE HIGHWAY_BUKIT JELUTONG-SUBANG JAYA_OPEN MODE_LC_SC_DL_UL_01
5497,CELLMEAS,03:47:06.460,7,0,2,9,0,70007,3150,126,-63.0,-88.0,-9.0,,110.0,18Jan19 034247_CS_PS_NKVE HIGHWAY_BUKIT JELUTONG-SUBANG JAYA_OPEN MODE_LC_SC_DL_UL_01
5513,CELLMEAS,03:47:07.458,7,0,2,9,0,70007,3150,126,-62.0,-88.0,-9.0,,109.0,18Jan19 034247_CS_PS_NKVE HIGHWAY_BUKIT JELUTONG-SUBANG JAYA_OPEN MODE_LC_SC_DL_UL_01
5531,CELLMEAS,03:47:08.460,7,0,2,9,0,70007,3150,126,-60.0,-87.0,-9.0,,108.0,18Jan19 034247_CS_PS_NKVE HIGHWAY_BUKIT JELUTONG-SUBANG JAYA_OPEN MODE_LC_SC_DL_UL_01
5548,CELLMEAS,03:47:09.461,7,0,2,9,0,70007,3150,126,-62.0,-87.0,-9.0,,106.0,18Jan19 034247_CS_PS_NKVE HIGHWAY_BUKIT JELUTONG-SUBANG JAYA_OPEN MODE_LC_SC_DL_UL_01
5565,CELLMEAS,03:47:10.466,7,0,2,9,0,70007,3150,126,-59.0,-86.0,-9.0,,99.0,18Jan19 034247_CS_PS_NKVE HIGHWAY_BUKIT JELUTONG-SUBANG JAYA_OPEN MODE_LC_SC_DL_UL_01
5584,CELLMEAS,03:47:11.462,7,0,2,9,0,70007,3150,126,-57.0,-82.0,-9.0,,100.0,18Jan19 034247_CS_PS_NKVE HIGHWAY_BUKIT JELUTONG-SUBANG JAYA_OPEN MODE_LC_SC_DL_UL_01
5599,CELLMEAS,03:47:12.463,7,0,2,9,0,70007,3150,126,-49.0,-79.0,-9.0,,97.0,18Jan19 034247_CS_PS_NKVE HIGHWAY_BUKIT JELUTONG-SUBANG JAYA_OPEN MODE_LC_SC_DL_UL_01
5616,CELLMEAS,03:47:13.464,7,0,2,9,0,70007,3150,126,-50.0,-80.0,-10.0,,100.0,18Jan19 034247_CS_PS_NKVE HIGHWAY_BUKIT JELUTONG-SUBANG JAYA_OPEN MODE_LC_SC_DL_UL_01
5632,CELLMEAS,03:47:14.466,7,0,2,9,0,70007,3150,126,-53.0,-82.0,-9.0,,99.0,18Jan19 034247_CS_PS_NKVE HIGHWAY_BUKIT JELUTONG-SUBANG JAYA_OPEN MODE_LC_SC_DL_UL_01
5648,CELLMEAS,03:47:15.471,7,0,2,9,0,70007,3150,126,-55.0,-82.0,-9.0,,104.0,18Jan19 034247_CS_PS_NKVE HIGHWAY_BUKIT JELUTONG-SUBANG JAYA_OPEN MODE_LC_SC_DL_UL_01
5670,CELLMEAS,03:47:16.470,7,0,2,9,0,70007,3150,126,-58.0,-84.0,-9.0,,104.0,18Jan19 034247_CS_PS_NKVE HIGHWAY_BUKIT JELUTONG-SUBANG JAYA_OPEN MODE_LC_SC_DL_UL_01
5686,CELLMEAS,03:47:17.473,7,0,2,9,0,70007,3150,126,-59.0,-85.0,-9.0,,107.0,18Jan19 034247_CS_PS_NKVE HIGHWAY_BUKIT JELUTONG-SUBANG JAYA_OPEN MODE_LC_SC_DL_UL_01
5704,CELLMEAS,03:47:18.474,7,0,2,9,0,70007,3150,126,-61.0,-86.0,-9.0,,106.0,18Jan19 034247_CS_PS_NKVE HIGHWAY_BUKIT JELUTONG-SUBANG JAYA_OPEN MODE_LC_SC_DL_UL_01
5721,CELLMEAS,03:47:19.477,7,0,2,9,0,70007,3150,126,-59.0,-85.0,-9.0,,107.0,18Jan19 034247_CS_PS_NKVE HIGHWAY_BUKIT JELUTONG-SUBANG JAYA_OPEN MODE_LC_SC_DL_UL_01
5738,CELLMEAS,03:47:20.478,7,0,2,9,0,70007,3150,126,-62.0,-88.0,-9.0,,109.0,18Jan19 034247_CS_PS_NKVE HIGHWAY_BUKIT JELUTONG-SUBANG JAYA_OPEN MODE_LC_SC_DL_UL_01
5757,CELLMEAS,03:47:21.481,7,0,2,9,0,70007,3150,126,-62.0,-88.0,-9.0,,107.0,18Jan19 034247_CS_PS_NKVE HIGHWAY_BUKIT JELUTONG-SUBANG JAYA_OPEN MODE_LC_SC_DL_UL_01
5772,CELLMEAS,03:47:22.481,7,0,2,9,0,70007,3150,126,-61.0,-88.0,-9.0,,108.0,18Jan19 034247_CS_PS_NKVE HIGHWAY_BUKIT JELUTONG-SUBANG JAYA_OPEN MODE_LC_SC_DL_UL_01
5789,CELLMEAS,03:47:23.481,7,0,2,9,0,70007,3150,126,-62.0,-89.0,-9.0,,111.0,18Jan19 034247_CS_PS_NKVE HIGHWAY_BUKIT JELUTONG-SUBANG JAYA_OPEN MODE_LC_SC_DL_UL_01
5809,CELLMEAS,03:47:24.483,7,0,2,9,0,70007,3150,126,-64.0,-90.0,-9.0,,111.0,18Jan19 034247_CS_PS_NKVE HIGHWAY_BUKIT JELUTONG-SUBANG JAYA_OPEN MODE_LC_SC_DL_UL_01
5826,CELLMEAS,03:47:25.483,7,0,2,9,0,70007,3150,126,-66.0,-91.0,-6.0,,111.0,18Jan19 034247_CS_PS_NKVE HIGHWAY_BUKIT JELUTONG-SUBANG JAYA_OPEN MODE_LC_SC_DL_UL_01
5852,CELLMEAS,03:47:26.480,7,0,2,9,0,70007,3150,126,-66.0,-93.0,-8.0,,111.0,18Jan19 034247_CS_PS_NKVE HIGHWAY_BUKIT JELUTONG-SUBANG JAYA_OPEN MODE_LC_SC_DL_UL_01
5869,CELLMEAS,03:47:27.482,7,0,2,9,0,70007,3150,126,-66.0,-95.0,-10.0,,112.0,18Jan19 034247_CS_PS_NKVE HIGHWAY_BUKIT JELUTONG-SUBANG JAYA_OPEN MODE_LC_SC_DL_UL_01
5886,CELLMEAS,03:47:28.483,7,0,2,9,0,70007,3150,126,-65.0,-94.0,-9.0,,109.0,18Jan19 034247_CS_PS_NKVE HIGHWAY_BUKIT JELUTONG-SUBANG JAYA_OPEN MODE_LC_SC_DL_UL_01
5903,CELLMEAS,03:47:29.489,7,0,3,9,0,70007,3150,126,-67.0,-95.0,-9.0,,115.0,18Jan19 034247_CS_PS_NKVE HIGHWAY_BUKIT JELUTONG-SUBANG JAYA_OPEN MODE_LC_SC_DL_UL_01
5923,CELLMEAS,03:47:30.485,7,0,2,9,0,70007,3150,126,-67.0,-95.0,-10.0,,113.0,18Jan19 034247_CS_PS_NKVE HIGHWAY_BUKIT JELUTONG-SUBANG JAYA_OPEN MODE_LC_SC_DL_UL_01
5942,CELLMEAS,03:47:31.484,7,0,3,9,0,70007,3150,126,-66.0,-93.0,-9.0,,112.0,18Jan19 034247_CS_PS_NKVE HIGHWAY_BUKIT JELUTONG-SUBANG JAYA_OPEN MODE_LC_SC_DL_UL_01
5970,CELLMEAS,03:47:32.294,7,0,2,9,0,70007,3150,200,-65.0,-94.0,-11.0,,117.0,18Jan19 034247_CS_PS_NKVE HIGHWAY_BUKIT JELUTONG-SUBANG JAYA_OPEN MODE_LC_SC_DL_UL_01
6017,CELLMEAS,03:47:32.491,7,0,5,9,0,70007,3150,200,-65.0,-95.0,-11.0,,119.0,18Jan19 034247_CS_PS_NKVE HIGHWAY_BUKIT JELUTONG-SUBANG JAYA_OPEN MODE_LC_SC_DL_UL_01
6053,CELLMEAS,03:47:32.893,7,0,2,9,0,70007,3150,126,-64.0,-90.0,-10.0,,112.0,18Jan19 034247_CS_PS_NKVE HIGHWAY_BUKIT JELUTONG-SUBANG JAYA_OPEN MODE_LC_SC_DL_UL_01
6084,CELLMEAS,03:47:32.893,7,0,2,9,0,70007,3150,126,-65.0,-90.0,-10.0,,112.0,18Jan19 034247_CS_PS_NKVE HIGHWAY_BUKIT JELUTONG-SUBANG JAYA_OPEN MODE_LC_SC_DL_UL_01
6121,CELLMEAS,03:47:33.493,7,0,2,9,0,70007,3150,126,-65.0,-90.0,-10.0,,112.0,18Jan19 034247_CS_PS_NKVE HIGHWAY_BUKIT JELUTONG-SUBANG JAYA_OPEN MODE_LC_SC_DL_UL_01
6142,CELLMEAS,03:47:34.492,7,0,3,9,0,70007,3150,126,-64.0,-94.0,-9.0,,112.0,18Jan19 034247_CS_PS_NKVE HIGHWAY_BUKIT JELUTONG-SUBANG JAYA_OPEN MODE_LC_SC_DL_UL_01
6159,CELLMEAS,03:47:35.092,7,0,3,9,0,70007,3150,126,-67.0,-96.0,-11.0,,114.0,18Jan19 034247_CS_PS_NKVE HIGHWAY_BUKIT JELUTONG-SUBANG JAYA_OPEN MODE_LC_SC_DL_UL_01
6192,CELLMEAS,03:47:35.493,7,0,3,9,0,70007,3150,126,-67.0,-96.0,-11.0,,112.0,18Jan19 034247_CS_PS_NKVE HIGHWAY_BUKIT JELUTONG-SUBANG JAYA_OPEN MODE_LC_SC_DL_UL_01
6219,CELLMEAS,03:47:35.993,7,0,2,9,0,70007,3150,200,-61.0,-86.0,-6.0,,104.0,18Jan19 034247_CS_PS_NKVE HIGHWAY_BUKIT JELUTONG-SUBANG JAYA_OPEN MODE_LC_SC_DL_UL_01
6256,CELLMEAS,03:47:36.493,7,0,4,9,0,70007,3150,200,-61.0,-86.0,-6.0,,100.0,18Jan19 034247_CS_PS_NKVE HIGHWAY_BUKIT JELUTONG-SUBANG JAYA_OPEN MODE_LC_SC_DL_UL_01
6273,CELLMEAS,03:47:37.495,7,0,4,9,0,70007,3150,200,-56.0,-82.0,-8.0,,105.0,18Jan19 034247_CS_PS_NKVE HIGHWAY_BUKIT JELUTONG-SUBANG JAYA_OPEN MODE_LC_SC_DL_UL_01
6292,CELLMEAS,03:47:38.494,7,0,2,9,0,70007,3150,200,-60.0,-85.0,-9.0,,104.0,18Jan19 034247_CS_PS_NKVE HIGHWAY_BUKIT JELUTONG-SUBANG JAYA_OPEN MODE_LC_SC_DL_UL_01
6309,CELLMEAS,03:47:39.496,7,0,2,9,0,70007,3150,200,-58.0,-82.0,-8.0,,104.0,18Jan19 034247_CS_PS_NKVE HIGHWAY_BUKIT JELUTONG-SUBANG JAYA_OPEN MODE_LC_SC_DL_UL_01
6326,CELLMEAS,03:47:40.497,7,0,2,9,0,70007,3150,200,-59.0,-80.0,-9.0,,101.0,18Jan19 034247_CS_PS_NKVE HIGHWAY_BUKIT JELUTONG-SUBANG JAYA_OPEN MODE_LC_SC_DL_UL_01
6344,CELLMEAS,03:47:41.500,7,0,2,9,0,70007,3150,200,-54.0,-77.0,-9.0,,99.0,18Jan19 034247_CS_PS_NKVE HIGHWAY_BUKIT JELUTONG-SUBANG JAYA_OPEN MODE_LC_SC_DL_UL_01
6360,CELLMEAS,03:47:42.495,7,0,2,9,0,70007,3150,200,-54.0,-76.0,-9.0,,100.0,18Jan19 034247_CS_PS_NKVE HIGHWAY_BUKIT JELUTONG-SUBANG JAYA_OPEN MODE_LC_SC_DL_UL_01
6378,CELLMEAS,03:47:43.497,7,0,2,9,0,70007,3150,200,-52.0,-75.0,-9.0,,100.0,18Jan19 034247_CS_PS_NKVE HIGHWAY_BUKIT JELUTONG-SUBANG JAYA_OPEN MODE_LC_SC_DL_UL_01
6395,CELLMEAS,03:47:44.499,7,0,2,9,0,70007,3150,200,-57.0,-76.0,-8.0,,103.0,18Jan19 034247_CS_PS_NKVE HIGHWAY_BUKIT JELUTONG-SUBANG JAYA_OPEN MODE_LC_SC_DL_UL_01
6412,CELLMEAS,03:47:45.504,7,0,2,9,0,70007,3150,200,-58.0,-79.0,-9.0,,106.0,18Jan19 034247_CS_PS_NKVE HIGHWAY_BUKIT JELUTONG-SUBANG JAYA_OPEN MODE_LC_SC_DL_UL_01
6429,CELLMEAS,03:47:46.504,7,0,2,9,0,70007,3150,200,-61.0,-80.0,-9.0,,109.0,18Jan19 034247_CS_PS_NKVE HIGHWAY_BUKIT JELUTONG-SUBANG JAYA_OPEN MODE_LC_SC_DL_UL_01
6447,CELLMEAS,03:47:47.509,7,0,2,9,0,70007,3150,200,-59.0,-79.0,-9.0,,108.0,18Jan19 034247_CS_PS_NKVE HIGHWAY_BUKIT JELUTONG-SUBANG JAYA_OPEN MODE_LC_SC_DL_UL_01
6465,CELLMEAS,03:47:48.505,7,0,2,9,0,70007,3150,200,-59.0,-81.0,-9.0,,108.0,18Jan19 034247_CS_PS_NKVE HIGHWAY_BUKIT JELUTONG-SUBANG JAYA_OPEN MODE_LC_SC_DL_UL_01
6481,CELLMEAS,03:47:49.506,7,0,2,9,0,70007,3150,200,-59.0,-80.0,-9.0,,105.0,18Jan19 034247_CS_PS_NKVE HIGHWAY_BUKIT JELUTONG-SUBANG JAYA_OPEN MODE_LC_SC_DL_UL_01
6499,CELLMEAS,03:47:50.507,7,0,3,9,0,70007,3150,200,-58.0,-80.0,-9.0,,107.0,18Jan19 034247_CS_PS_NKVE HIGHWAY_BUKIT JELUTONG-SUBANG JAYA_OPEN MODE_LC_SC_DL_UL_01
6519,CELLMEAS,03:47:51.506,7,0,4,9,0,70007,3150,200,-60.0,-82.0,-9.0,,106.0,18Jan19 034247_CS_PS_NKVE HIGHWAY_BUKIT JELUTONG-SUBANG JAYA_OPEN MODE_LC_SC_DL_UL_01
6537,CELLMEAS,03:47:52.509,7,0,2,9,0,70007,3150,200,-55.0,-80.0,-9.0,,103.0,18Jan19 034247_CS_PS_NKVE HIGHWAY_BUKIT JELUTONG-SUBANG JAYA_OPEN MODE_LC_SC_DL_UL_01
6553,CELLMEAS,03:47:53.508,7,0,2,9,0,70007,3150,200,-56.0,-82.0,-9.0,,99.0,18Jan19 034247_CS_PS_NKVE HIGHWAY_BUKIT JELUTONG-SUBANG JAYA_OPEN MODE_LC_SC_DL_UL_01
6569,CELLMEAS,03:47:54.510,7,0,2,9,0,70007,3150,200,-49.0,-75.0,-10.0,,93.0,18Jan19 034247_CS_PS_NKVE HIGHWAY_BUKIT JELUTONG-SUBANG JAYA_OPEN MODE_LC_SC_DL_UL_01
6587,CELLMEAS,03:47:55.509,7,0,2,9,0,70007,3150,200,-47.0,-69.0,-9.0,,90.0,18Jan19 034247_CS_PS_NKVE HIGHWAY_BUKIT JELUTONG-SUBANG JAYA_OPEN MODE_LC_SC_DL_UL_01
6605,CELLMEAS,03:47:56.513,7,0,2,9,0,70007,3150,200,-45.0,-68.0,-9.0,,89.0,18Jan19 034247_CS_PS_NKVE HIGHWAY_BUKIT JELUTONG-SUBANG JAYA_OPEN MODE_LC_SC_DL_UL_01
6621,CELLMEAS,03:47:57.515,7,0,3,9,0,70007,3150,200,-43.0,-68.0,-9.0,,88.0,18Jan19 034247_CS_PS_NKVE HIGHWAY_BUKIT JELUTONG-SUBANG JAYA_OPEN MODE_LC_SC_DL_UL_01
6638,CELLMEAS,03:47:58.525,7,0,2,9,0,70007,3150,200,-41.0,-66.0,-9.0,,87.0,18Jan19 034247_CS_PS_NKVE HIGHWAY_BUKIT JELUTONG-SUBANG JAYA_OPEN MODE_LC_SC_DL_UL_01
6655,CELLMEAS,03:47:59.521,7,0,2,9,0,70007,3150,200,-41.0,-65.0,-9.0,,87.0,18Jan19 034247_CS_PS_NKVE HIGHWAY_BUKIT JELUTONG-SUBANG JAYA_OPEN MODE_LC_SC_DL_UL_01
6672,CELLMEAS,03:48:00.523,7,0,2,9,0,70007,3150,200,-45.0,-65.0,-5.0,,88.0,18Jan19 034247_CS_PS_NKVE HIGHWAY_BUKIT JELUTONG-SUBANG JAYA_OPEN MODE_LC_SC_DL_UL_01
6688,CELLMEAS,03:48:01.525,7,0,2,9,0,70007,3150,200,-41.0,-67.0,-9.0,,88.0,18Jan19 034247_CS_PS_NKVE HIGHWAY_BUKIT JELUTONG-SUBANG JAYA_OPEN MODE_LC_SC_DL_UL_01
6704,CELLMEAS,03:48:02.526,7,0,2,9,0,70007,3150,200,-40.0,-67.0,-9.0,,88.0,18Jan19 034247_CS_PS_NKVE HIGHWAY_BUKIT JELUTONG-SUBANG JAYA_OPEN MODE_LC_SC_DL_UL_01
6720,CELLMEAS,03:48:03.528,7,0,2,9,0,70007,3150,200,-43.0,-67.0,-9.0,,90.0,18Jan19 034247_CS_PS_NKVE HIGHWAY_BUKIT JELUTONG-SUBANG JAYA_OPEN MODE_LC_SC_DL_UL_01
6737,CELLMEAS,03:48:04.529,7,0,2,9,0,70007,3150,200,-44.0,-68.0,-9.0,,93.0,18Jan19 034247_CS_PS_NKVE HIGHWAY_BUKIT JELUTONG-SUBANG JAYA_OPEN MODE_LC_SC_DL_UL_01
6753,CELLMEAS,03:48:05.531,7,0,2,9,0,70007,3150,200,-46.0,-73.0,-10.0,,95.0,18Jan19 034247_CS_PS_NKVE HIGHWAY_BUKIT JELUTONG-SUBANG JAYA_OPEN MODE_LC_SC_DL_UL_01
6769,CELLMEAS,03:48:06.533,7,0,2,9,0,70007,3150,200,-49.0,-77.0,-10.0,,94.0,18Jan19 034247_CS_PS_NKVE HIGHWAY_BUKIT JELUTONG-SUBANG JAYA_OPEN MODE_LC_SC_DL_UL_01
6787,CELLMEAS,03:48:07.534,7,0,2,9,0,70007,3150,200,-45.0,-75.0,-10.0,,94.0,18Jan19 034247_CS_PS_NKVE HIGHWAY_BUKIT JELUTONG-SUBANG JAYA_OPEN MODE_LC_SC_DL_UL_01
6806,CELLMEAS,03:48:08.535,7,0,2,9,0,70007,3150,200,-49.0,-79.0,-10.0,,92.0,18Jan19 034247_CS_PS_NKVE HIGHWAY_BUKIT JELUTONG-SUBANG JAYA_OPEN MODE_LC_SC_DL_UL_01
6822,CELLMEAS,03:48:09.542,7,0,2,9,0,70007,3150,200,-40.0,-70.0,-10.0,,89.0,18Jan19 034247_CS_PS_NKVE HIGHWAY_BUKIT JELUTONG-SUBANG JAYA_OPEN MODE_LC_SC_DL_UL_01
6839,CELLMEAS,03:48:10.541,7,0,2,9,0,70007,3150,200,-45.0,-75.0,-9.0,,99.0,18Jan19 034247_CS_PS_NKVE HIGHWAY_BUKIT JELUTONG-SUBANG JAYA_OPEN MODE_LC_SC_DL_UL_01
6860,CELLMEAS,03:48:11.545,7,0,7,9,0,70007,3150,200,-57.0,-88.0,-12.0,,106.0,18Jan19 034247_CS_PS_NKVE HIGHWAY_BUKIT JELUTONG-SUBANG JAYA_OPEN MODE_LC_SC_DL_UL_01
6885,CELLMEAS,03:48:12.540,7,0,10,9,0,70007,3150,200,-52.0,-80.0,-9.0,,104.0,18Jan19 034247_CS_PS_NKVE HIGHWAY_BUKIT JELUTONG-SUBANG JAYA_OPEN MODE_LC_SC_DL_UL_01
6904,CELLMEAS,03:48:13.542,7,0,9,9,0,70007,3150,200,-56.0,-86.0,-14.0,,107.0,18Jan19 034247_CS_PS_NKVE HIGHWAY_BUKIT JELUTONG-SUBANG JAYA_OPEN MODE_LC_SC_DL_UL_01
6932,CELLMEAS,03:48:13.741,7,0,2,9,0,70007,3150,198,-55.0,-82.0,-10.0,,102.0,18Jan19 034247_CS_PS_NKVE HIGHWAY_BUKIT JELUTONG-SUBANG JAYA_OPEN MODE_LC_SC_DL_UL_01
6966,CELLMEAS,03:48:13.839,7,0,2,9,0,70007,3150,198,-55.0,-82.0,-10.0,,102.0,18Jan19 034247_CS_PS_NKVE HIGHWAY_BUKIT JELUTONG-SUBANG JAYA_OPEN MODE_LC_SC_DL_UL_01
7019,CELLMEAS,03:48:14.541,7,0,3,9,0,70007,3150,198,-55.0,-82.0,-10.0,,100.0,18Jan19 034247_CS_PS_NKVE HIGHWAY_BUKIT JELUTONG-SUBANG JAYA_OPEN MODE_LC_SC_DL_UL_01
7044,CELLMEAS,03:48:15.543,7,0,3,9,0,70007,3150,198,-54.0,-82.0,-11.0,,103.0,18Jan19 034247_CS_PS_NKVE HIGHWAY_BUKIT JELUTONG-SUBANG JAYA_OPEN MODE_LC_SC_DL_UL_01
7063,CELLMEAS,03:48:16.543,7,0,2,9,0,70007,3150,198,-55.0,-84.0,-11.0,,102.0,18Jan19 034247_CS_PS_NKVE HIGHWAY_BUKIT JELUTONG-SUBANG JAYA_OPEN MODE_LC_SC_DL_UL_01
7084,CELLMEAS,03:48:17.540,7,0,2,9,0,70007,3150,198,-52.0,-81.0,-10.0,,98.0,18Jan19 034247_CS_PS_NKVE HIGHWAY_BUKIT JELUTONG-SUBANG JAYA_OPEN MODE_LC_SC_DL_UL_01
7100,CELLMEAS,03:48:18.543,7,0,2,9,0,70007,3150,198,-50.0,-79.0,-9.0,,97.0,18Jan19 034247_CS_PS_NKVE HIGHWAY_BUKIT JELUTONG-SUBANG JAYA_OPEN MODE_LC_SC_DL_UL_01
7117,CELLMEAS,03:48:19.543,7,0,2,9,0,70007,3150,198,-48.0,-77.0,-10.0,,91.0,18Jan19 034247_CS_PS_NKVE HIGHWAY_BUKIT JELUTONG-SUBANG JAYA_OPEN MODE_LC_SC_DL_UL_01
7135,CELLMEAS,03:48:20.542,7,0,2,9,0,70007,3150,198,-48.0,-77.0,-9.0,,93.0,18Jan19 034247_CS_PS_NKVE HIGHWAY_BUKIT JELUTONG-SUBANG JAYA_OPEN MODE_LC_SC_DL_UL_01
7151,CELLMEAS,03:48:21.543,7,0,2,9,0,70007,3150,198,-46.0,-76.0,-10.0,,96.0,18Jan19 034247_CS_PS_NKVE HIGHWAY_BUKIT JELUTONG-SUBANG JAYA_OPEN MODE_LC_SC_DL_UL_01
7169,CELLMEAS,03:48:22.547,7,0,2,9,0,70007,3150,198,-47.0,-76.0,-9.0,,91.0,18Jan19 034247_CS_PS_NKVE HIGHWAY_BUKIT JELUTONG-SUBANG JAYA_OPEN MODE_LC_SC_DL_UL_01
7185,CELLMEAS,03:48:23.542,7,0,2,9,0,70007,3150,198,-48.0,-75.0,-9.0,,94.0,18Jan19 034247_CS_PS_NKVE HIGHWAY_BUKIT JELUTONG-SUBANG JAYA_OPEN MODE_LC_SC_DL_UL_01
7204,CELLMEAS,03:48:24.541,7,0,2,9,0,70007,3150,198,-48.0,-78.0,-9.0,,94.0,18Jan19 034247_CS_PS_NKVE HIGHWAY_BUKIT JELUTONG-SUBANG JAYA_OPEN MODE_LC_SC_DL_UL_01
7221,CELLMEAS,03:48:25.542,7,0,2,9,0,70007,3150,198,-52.0,-78.0,-9.0,,98.0,18Jan19 034247_CS_PS_NKVE HIGHWAY_BUKIT JELUTONG-SUBANG JAYA_OPEN MODE_LC_SC_DL_UL_01
7239,CELLMEAS,03:48:26.544,7,0,2,9,0,70007,3150,198,-49.0,-78.0,-8.0,,105.0,18Jan19 034247_CS_PS_NKVE HIGHWAY_BUKIT JELUTONG-SUBANG JAYA_OPEN MODE_LC_SC_DL_UL_01
7255,CELLMEAS,03:48:27.544,7,0,2,9,0,70007,3150,198,-58.0,-85.0,-9.0,,98.0,18Jan19 034247_CS_PS_NKVE HIGHWAY_BUKIT JELUTONG-SUBANG JAYA_OPEN MODE_LC_SC_DL_UL_01
7272,CELLMEAS,03:48:28.543,7,0,3,9,0,70007,3150,198,-52.0,-76.0,-8.0,,106.0,18Jan19 034247_CS_PS_NKVE HIGHWAY_BUKIT JELUTONG-SUBANG JAYA_OPEN MODE_LC_SC_DL_UL_01
7294,CELLMEAS,03:48:29.544,7,0,6,9,0,70007,3150,198,-61.0,-91.0,-10.0,,110.0,18Jan19 034247_CS_PS_NKVE HIGHWAY_BUKIT JELUTONG-SUBANG JAYA_OPEN MODE_LC_SC_DL_UL_01
7313,CELLMEAS,03:48:30.545,7,0,5,9,0,70007,3150,198,-59.0,-92.0,-13.0,,110.0,18Jan19 034247_CS_PS_NKVE HIGHWAY_BUKIT JELUTONG-SUBANG JAYA_OPEN MODE_LC_SC_DL_UL_01
7340,CELLMEAS,03:48:30.745,7,0,2,9,0,70007,3150,407,-61.0,-89.0,-9.0,,109.0,18Jan19 034247_CS_PS_NKVE HIGHWAY_BUKIT JELUTONG-SUBANG JAYA_OPEN MODE_LC_SC_DL_UL_01
7373,CELLMEAS,03:48:30.745,7,0,2,9,0,70007,3150,407,-62.0,-89.0,-9.0,,109.0,18Jan19 034247_CS_PS_NKVE HIGHWAY_BUKIT JELUTONG-SUBANG JAYA_OPEN MODE_LC_SC_DL_UL_01
7420,CELLMEAS,03:48:31.546,7,0,5,9,0,70007,3150,407,-62.0,-89.0,-9.0,,109.0,18Jan19 034247_CS_PS_NKVE HIGHWAY_BUKIT JELUTONG-SUBANG JAYA_OPEN MODE_LC_SC_DL_UL_01
7445,CELLMEAS,03:48:32.545,7,0,5,9,0,70007,3150,407,-60.0,-89.0,-9.0,,108.0,18Jan19 034247_CS_PS_NKVE HIGHWAY_BUKIT JELUTONG-SUBANG JAYA_OPEN MODE_LC_SC_DL_UL_01
7471,CELLMEAS,03:48:33.546,7,0,3,9,0,70007,3150,407,-58.0,-87.0,-8.0,,103.0,18Jan19 034247_CS_PS_NKVE HIGHWAY_BUKIT JELUTONG-SUBANG JAYA_OPEN MODE_LC_SC_DL_UL_01
7497,CELLMEAS,03:48:34.545,7,0,4,9,0,70007,3150,407,-62.0,-89.0,-8.0,,109.0,18Jan19 034247_CS_PS_NKVE HIGHWAY_BUKIT JELUTONG-SUBANG JAYA_OPEN MODE_LC_SC_DL_UL_01
7525,CELLMEAS,03:48:35.547,7,0,2,9,0,70007,3150,407,-64.0,-90.0,-8.0,,105.0,18Jan19 034247_CS_PS_NKVE HIGHWAY_BUKIT JELUTONG-SUBANG JAYA_OPEN MODE_LC_SC_DL_UL_01
7554,CELLMEAS,03:48:36.547,7,0,2,9,0,70007,3150,407,-56.0,-83.0,-7.0,,102.0,18Jan19 034247_CS_PS_NKVE HIGHWAY_BUKIT JELUTONG-SUBANG JAYA_OPEN MODE_LC_SC_DL_UL_01
7576,CELLMEAS,03:48:37.546,7,0,2,9,0,70007,3150,407,-57.0,-80.0,-7.0,,98.0,18Jan19 034247_CS_PS_NKVE HIGHWAY_BUKIT JELUTONG-SUBANG JAYA_OPEN MODE_LC_SC_DL_UL_01
7600,CELLMEAS,03:48:38.547,7,0,2,9,0,70007,3150,407,-48.0,-75.0,-8.0,,93.0,18Jan19 034247_CS_PS_NKVE HIGHWAY_BUKIT JELUTONG-SUBANG JAYA_OPEN MODE_LC_SC_DL_UL_01
7623,CELLMEAS,03:48:39.545,7,0,2,9,0,70007,3150,407,-44.0,-75.0,-9.0,,94.0,18Jan19 034247_CS_PS_NKVE HIGHWAY_BUKIT JELUTONG-SUBANG JAYA_OPEN MODE_LC_SC_DL_UL_01
7647,CELLMEAS,03:48:40.545,7,0,2,9,0,70007,3150,407,-48.0,-77.0,-9.0,,91.0,18Jan19 034247_CS_PS_NKVE HIGHWAY_BUKIT JELUTONG-SUBANG JAYA_OPEN MODE_LC_SC_DL_UL_01
7677,CELLMEAS,03:48:41.548,7,0,2,9,0,70007,3150,407,-44.0,-73.0,-9.0,,91.0,18Jan19 034247_CS_PS_NKVE HIGHWAY_BUKIT JELUTONG-SUBANG JAYA_OPEN MODE_LC_SC_DL_UL_01
7701,CELLMEAS,03:48:42.547,7,0,2,9,0,70007,3150,407,-46.0,-73.0,-9.0,,97.0,18Jan19 034247_CS_PS_NKVE HIGHWAY_BUKIT JELUTONG-SUBANG JAYA_OPEN MODE_LC_SC_DL_UL_01
7726,CELLMEAS,03:48:43.549,7,0,3,9,0,70007,3150,407,-47.0,-75.0,-11.0,,96.0,18Jan19 034247_CS_PS_NKVE HIGHWAY_BUKIT JELUTONG-SUBANG JAYA_OPEN MODE_LC_SC_DL_UL_01
7751,CELLMEAS,03:48:44.549,7,0,3,9,0,70007,3150,407,-53.0,-73.0,-10.0,,103.0,18Jan19 034247_CS_PS_NKVE HIGHWAY_BUKIT JELUTONG-SUBANG JAYA_OPEN MODE_LC_SC_DL_UL_01
7772,CELLMEAS,03:48:45.550,7,0,2,9,0,70007,3150,407,-51.0,-74.0,-10.0,,96.0,18Jan19 034247_CS_PS_NKVE HIGHWAY_BUKIT JELUTONG-SUBANG JAYA_OPEN MODE_LC_SC_DL_UL_01
7797,CELLMEAS,03:48:46.550,7,0,5,9,0,70007,3150,407,-50.0,-75.0,-9.0,,91.0,18Jan19 034247_CS_PS_NKVE HIGHWAY_BUKIT JELUTONG-SUBANG JAYA_OPEN MODE_LC_SC_DL_UL_01
7816,CELLMEAS,03:48:47.549,7,0,4,9,0,70007,3150,407,-46.0,-72.0,-8.0,,95.0,18Jan19 034247_CS_PS_NKVE HIGHWAY_BUKIT JELUTONG-SUBANG JAYA_OPEN MODE_LC_SC_DL_UL_01
7841,CELLMEAS,03:48:48.551,7,0,3,9,0,70007,3150,407,-50.0,-76.0,-8.0,,103.0,18Jan19 034247_CS_PS_NKVE HIGHWAY_BUKIT JELUTONG-SUBANG JAYA_OPEN MODE_LC_SC_DL_UL_01
7865,CELLMEAS,03:48:49.550,7,0,4,9,0,70007,3150,407,-56.0,-82.0,-10.0,,111.0,18Jan19 034247_CS_PS_NKVE HIGHWAY_BUKIT JELUTONG-SUBANG JAYA_OPEN MODE_LC_SC_DL_UL_01
7891,CELLMEAS,03:48:49.652,7,0,2,9,0,70007,3150,333,-51.0,-78.0,-9.0,,96.0,18Jan19 034247_CS_PS_NKVE HIGHWAY_BUKIT JELUTONG-SUBANG JAYA_OPEN MODE_LC_SC_DL_UL_01
7970,CELLMEAS,03:48:50.552,7,0,3,9,0,70007,3150,333,-51.0,-78.0,-9.0,,97.0,18Jan19 034247_CS_PS_NKVE HIGHWAY_BUKIT JELUTONG-SUBANG JAYA_OPEN MODE_LC_SC_DL_UL_01
7992,CELLMEAS,03:48:51.556,7,0,2,9,0,70007,3150,333,-51.0,-76.0,-8.0,,101.0,18Jan19 034247_CS_PS_NKVE HIGHWAY_BUKIT JELUTONG-SUBANG JAYA_OPEN MODE_LC_SC_DL_UL_01
8012,CELLMEAS,03:48:52.553,7,0,6,9,0,70007,3150,333,-54.0,-78.0,-7.0,,107.0,18Jan19 034247_CS_PS_NKVE HIGHWAY_BUKIT JELUTONG-SUBANG JAYA_OPEN MODE_LC_SC_DL_UL_01
8051,CELLMEAS,03:48:53.556,7,0,6,9,0,70007,3150,407,-59.0,-82.0,-11.0,,110.0,18Jan19 034247_CS_PS_NKVE HIGHWAY_BUKIT JELUTONG-SUBANG JAYA_OPEN MODE_LC_SC_DL_UL_01
8083,CELLMEAS,03:48:53.556,7,0,2,9,0,70007,3150,407,-59.0,-82.0,-11.0,,109.0,18Jan19 034247_CS_PS_NKVE HIGHWAY_BUKIT JELUTONG-SUBANG JAYA_OPEN MODE_LC_SC_DL_UL_01
8111,CELLMEAS,03:48:53.556,7,0,2,9,0,70007,3150,407,-59.0,-82.0,-11.0,,109.0,18Jan19 034247_CS_PS_NKVE HIGHWAY_BUKIT JELUTONG-SUBANG JAYA_OPEN MODE_LC_SC_DL_UL_01
8139,CELLMEAS,03:48:54.556,7,0,6,9,0,70007,3150,407,-57.0,-84.0,-11.0,,106.0,18Jan19 034247_CS_PS_NKVE HIGHWAY_BUKIT JELUTONG-SUBANG JAYA_OPEN MODE_LC_SC_DL_UL_01
8163,CELLMEAS,03:48:55.554,7,0,6,9,0,70007,3150,407,-56.0,-82.0,-10.0,,103.0,18Jan19 034247_CS_PS_NKVE HIGHWAY_BUKIT JELUTONG-SUBANG JAYA_OPEN MODE_LC_SC_DL_UL_01
8181,CELLMEAS,03:48:56.553,7,0,6,9,0,70007,3150,407,-54.0,-81.0,-10.0,,101.0,18Jan19 034247_CS_PS_NKVE HIGHWAY_BUKIT JELUTONG-SUBANG JAYA_OPEN MODE_LC_SC_DL_UL_01
8205,CELLMEAS,03:48:57.556,7,0,7,9,0,70007,3150,407,-57.0,-80.0,-10.0,,105.0,18Jan19 034247_CS_PS_NKVE HIGHWAY_BUKIT JELUTONG-SUBANG JAYA_OPEN MODE_LC_SC_DL_UL_01
8227,CELLMEAS,03:48:58.554,7,0,5,9,0,70007,3150,407,-59.0,-80.0,-11.0,,109.0,18Jan19 034247_CS_PS_NKVE HIGHWAY_BUKIT JELUTONG-SUBANG JAYA_OPEN MODE_LC_SC_DL_UL_01
8251,CELLMEAS,03:48:59.554,7,0,4,9,0,70007,3150,407,-56.0,-79.0,-10.0,,104.0,18Jan19 034247_CS_PS_NKVE HIGHWAY_BUKIT JELUTONG-SUBANG JAYA_OPEN MODE_LC_SC_DL_UL_01
8277,CELLMEAS,03:49:00.557,7,0,4,9,0,70007,3150,407,-56.0,-84.0,-12.0,,105.0,18Jan19 034247_CS_PS_NKVE HIGHWAY_BUKIT JELUTONG-SUBANG JAYA_OPEN MODE_LC_SC_DL_UL_01
8300,CELLMEAS,03:49:00.657,7,0,2,9,0,70007,3150,333,-54.0,-82.0,-8.0,,98.0,18Jan19 034247_CS_PS_NKVE HIGHWAY_BUKIT JELUTONG-SUBANG JAYA_OPEN MODE_LC_SC_DL_UL_01
8331,CELLMEAS,03:49:00.657,7,0,2,9,0,70007,3150,333,-54.0,-82.0,-8.0,,98.0,18Jan19 034247_CS_PS_NKVE HIGHWAY_BUKIT JELUTONG-SUBANG JAYA_OPEN MODE_LC_SC_DL_UL_01
8381,CELLMEAS,03:49:01.256,7,0,2,9,0,70007,3150,406,-57.0,-86.0,-9.0,,103.0,18Jan19 034247_CS_PS_NKVE HIGHWAY_BUKIT JELUTONG-SUBANG JAYA_OPEN MODE_LC_SC_DL_UL_01
8453,CELLMEAS,03:49:01.554,7,0,2,9,0,70007,3150,406,-57.0,-86.0,-9.0,,106.0,18Jan19 034247_CS_PS_NKVE HIGHWAY_BUKIT JELUTONG-SUBANG JAYA_OPEN MODE_LC_SC_DL_UL_01
8489,CELLMEAS,03:49:02.554,7,0,3,9,0,70007,3150,406,-60.0,-88.0,-11.0,,109.0,18Jan19 034247_CS_PS_NKVE HIGHWAY_BUKIT JELUTONG-SUBANG JAYA_OPEN MODE_LC_SC_DL_UL_01
8510,CELLMEAS,03:49:03.558,7,0,5,9,0,70007,3150,406,-60.0,-90.0,-13.0,,110.0,18Jan19 034247_CS_PS_NKVE HIGHWAY_BUKIT JELUTONG-SUBANG JAYA_OPEN MODE_LC_SC_DL_UL_01
8538,CELLMEAS,03:49:03.761,7,0,2,9,0,70007,3150,333,-61.0,-84.0,-7.0,,106.0,18Jan19 034247_CS_PS_NKVE HIGHWAY_BUKIT JELUTONG-SUBANG JAYA_OPEN MODE_LC_SC_DL_UL_01
8606,CELLMEAS,03:49:04.557,7,0,5,9,0,70007,3150,333,-61.0,-84.0,-7.0,,110.0,18Jan19 034247_CS_PS_NKVE HIGHWAY_BUKIT JELUTONG-SUBANG JAYA_OPEN MODE_LC_SC_DL_UL_01
8631,CELLMEAS,03:49:05.559,7,0,5,9,0,70007,3150,333,-66.0,-92.0,-8.0,,112.0,18Jan19 034247_CS_PS_NKVE HIGHWAY_BUKIT JELUTONG-SUBANG JAYA_OPEN MODE_LC_SC_DL_UL_01
8663,CELLMEAS,03:49:06.269,7,0,2,9,0,70007,3150,406,-63.0,-85.0,-7.0,,108.0,18Jan19 034247_CS_PS_NKVE HIGHWAY_BUKIT JELUTONG-SUBANG JAYA_OPEN MODE_LC_SC_DL_UL_01
8696,CELLMEAS,03:49:06.269,7,0,2,9,0,70007,3150,406,-63.0,-85.0,-7.0,,108.0,18Jan19 034247_CS_PS_NKVE HIGHWAY_BUKIT JELUTONG-SUBANG JAYA_OPEN MODE_LC_SC_DL_UL_01
8735,CELLMEAS,03:49:06.569,7,0,4,9,0,70007,3150,406,-63.0,-85.0,-7.0,,109.0,18Jan19 034247_CS_PS_NKVE HIGHWAY_BUKIT JELUTONG-SUBANG JAYA_OPEN MODE_LC_SC_DL_UL_01
8767,CELLMEAS,03:49:07.566,7,0,5,9,0,70007,3150,406,-64.0,-91.0,-10.0,,111.0,18Jan19 034247_CS_PS_NKVE HIGHWAY_BUKIT JELUTONG-SUBANG JAYA_OPEN MODE_LC_SC_DL_UL_01
8788,CELLMEAS,03:49:08.566,7,0,5,9,0,70007,3150,406,-64.0,-89.0,-10.0,,109.0,18Jan19 034247_CS_PS_NKVE HIGHWAY_BUKIT JELUTONG-SUBANG JAYA_OPEN MODE_LC_SC_DL_UL_01
8818,CELLMEAS,03:49:09.565,7,0,2,9,0,70007,3150,406,-63.0,-88.0,-10.0,,109.0,18Jan19 034247_CS_PS_NKVE HIGHWAY_BUKIT JELUTONG-SUBANG JAYA_OPEN MODE_LC_SC_DL_UL_01
8839,CELLMEAS,03:49:10.565,7,0,3,9,0,70007,3150,406,-62.0,-91.0,-10.0,,106.0,18Jan19 034247_CS_PS_NKVE HIGHWAY_BUKIT JELUTONG-SUBANG JAYA_OPEN MODE_LC_SC_DL_UL_01
8867,CELLMEAS,03:49:11.565,7,0,2,9,0,70007,3150,406,-57.0,-84.0,-9.0,,101.0,18Jan19 034247_CS_PS_NKVE HIGHWAY_BUKIT JELUTONG-SUBANG JAYA_OPEN MODE_LC_SC_DL_UL_01
8892,CELLMEAS,03:49:12.567,7,0,4,9,0,70007,3150,406,-56.0,-82.0,-9.0,,101.0,18Jan19 034247_CS_PS_NKVE HIGHWAY_BUKIT JELUTONG-SUBANG JAYA_OPEN MODE_LC_SC_DL_UL_01
8914,CELLMEAS,03:49:13.566,7,0,3,9,0,70007,3150,406,-61.0,-80.0,-10.0,,106.0,18Jan19 034247_CS_PS_NKVE HIGHWAY_BUKIT JELUTONG-SUBANG JAYA_OPEN MODE_LC_SC_DL_UL_01
8932,CELLMEAS,03:49:14.567,7,0,2,9,0,70007,3150,406,-59.0,-78.0,-10.0,,105.0,18Jan19 034247_CS_PS_NKVE HIGHWAY_BUKIT JELUTONG-SUBANG JAYA_OPEN MODE_LC_SC_DL_UL_01
8954,CELLMEAS,03:49:15.568,7,0,2,9,0,70007,3150,406,-52.0,-78.0,-10.0,,98.0,18Jan19 034247_CS_PS_NKVE HIGHWAY_BUKIT JELUTONG-SUBANG JAYA_OPEN MODE_LC_SC_DL_UL_01
8976,CELLMEAS,03:49:16.569,7,0,2,9,0,70007,3150,406,-52.0,-77.0,-9.0,,98.0,18Jan19 034247_CS_PS_NKVE HIGHWAY_BUKIT JELUTONG-SUBANG JAYA_OPEN MODE_LC_SC_DL_UL_01
8998,CELLMEAS,03:49:17.570,7,0,2,9,0,70007,3150,406,-51.0,-78.0,-9.0,,99.0,18Jan19 034247_CS_PS_NKVE HIGHWAY_BUKIT JELUTONG-SUBANG JAYA_OPEN MODE_LC_SC_DL_UL_01
9026,CELLMEAS,03:49:18.571,7,0,4,9,0,70007,3150,406,-49.0,-76.0,-6.0,,92.0,18Jan19 034247_CS_PS_NKVE HIGHWAY_BUKIT JELUTONG-SUBANG JAYA_OPEN MODE_LC_SC_DL_UL_01
9041,CELLMEAS,03:49:19.603,7,0,2,9,0,70007,3150,406,-54.0,-80.0,-6.0,,96.0,18Jan19 034247_CS_PS_NKVE HIGHWAY_BUKIT JELUTONG-SUBANG JAYA_OPEN MODE_LC_SC_DL_UL_01
