,scr_file,column,time,tech,cell_type,band,ch,pci,rssi,rsrp,rsrq,timing,pathloss,lon,lat
0,18Jan19 034247_CS_PS_NKVE HIGHWAY_BUKIT JELUTONG-SUBANG JAYA_OPEN MODE_LC_SC_DL_UL_01,CELLMEAS,19/1/2018 03:42:47.403,7.0,Serving,LTE FDD 2600 band 7,3150.0,93.0,-91.0,-107.0,-9.0,,126.0,,
1,18Jan19 034247_CS_PS_NKVE HIGHWAY_BUKIT JELUTONG-SUBANG JAYA_OPEN MODE_LC_SC_DL_UL_01,CELLMEAS,19/1/2018 03:42:48.407,7.0,Serving,LTE FDD 2600 band 7,3150.0,93.0,-95.0,-111.0,-9.0,,130.0,101.54729499999999,3.100175
2,18Jan19 034247_CS_PS_NKVE HIGHWAY_BUKIT JELUTONG-SUBANG JAYA_OPEN MODE_LC_SC_DL_UL_01,CELLMEAS,19/1/2018 03:42:49.391,7.0,Serving,LTE FDD 2600 band 7,3150.0,93.0,-94.0,-111.0,-10.0,,130.0,101.547127,3.100427
3,18Jan19 034247_CS_PS_NKVE HIGHWAY_BUKIT JELUTONG-SUBANG JAYA_OPEN MODE_LC_SC_DL_UL_01,CELLMEAS,19/1/2018 03:42:50.391,7.0,Serving,LTE FDD 2600 band 7,3150.0,126.5,-95.0,-111.5,-11.0,,131.5,101.547035,3.100542
4,18Jan19 034247_CS_PS_NKVE HIGHWAY_BUKIT JELUTONG-SUBANG JAYA_OPEN MODE_LC_SC_DL_UL_01,CELLMEAS,19/1/2018 03:42:51.390,7.0,Serving,LTE FDD 2600 band 7,3150.0,160.0,-87.0,-106.0,-11.0,,129.0,101.546944,3.100643
5,18Jan19 034247_CS_PS_NKVE HIGHWAY_BUKIT JELUTONG-SUBANG JAYA_OPEN MODE_LC_SC_DL_UL_01,CELLMEAS,19/1/2018 03:42:53.393,7.0,Serving,LTE FDD 2600 band 7,3150.0,160.0,-92.0,-110.0,-11.0,,132.0,101.546829,3.10073
6,18Jan19 034247_CS_PS_NKVE HIGHWAY_BUKIT JELUTONG-SUBANG JAYA_OPEN MODE_LC_SC_DL_UL_01,CELLMEAS,19/1/2018 03:42:54.393,7.0,Serving,LTE FDD 2600 band 7,3150.0,160.0,-97.0,-115.0,-12.0,,134.0,101.546585,3.100855
7,18Jan19 034247_CS_PS_NKVE HIGHWAY_BUKIT JELUTONG-SUBANG JAYA_OPEN MODE_LC_SC_DL_UL_01,CELLMEAS,19/1/2018 03:42:55.390,7.0,Serving,LTE FDD 2600 band 7,3150.0,160.0,-93.0,-110.0,-11.0,,138.0,101.546448,3.1008970000000002
8,18Jan19 034247_CS_PS_NKVE HIGHWAY_BUKIT JELUTONG-SUBANG JAYA_OPEN MODE_LC_SC_DL_UL_01,CELLMEAS,19/1/2018 03:42:56.393,7.0,Serving,LTE FDD 2600 band 7,3150.0,160.5,-98.0,-117.0,-13.5,,138.0,101.546318,3.100925
9,18Jan19 034247_CS_PS_NKVE HIGHWAY_BUKIT JELUTONG-SUBANG JAYA_OPEN MODE_LC_SC_DL_UL_01,CELLMEAS,19/1/2018 03:42:58.393,7.0,Serving,LTE FDD 2600 band 7,3150.0,161.0,-98.0,-116.0,-13.0,,135.0,101.546181,3.100938
10,18Jan19 034247_CS_PS_NKVE HIGHWAY_BUKIT JELUTONG-SUBANG JAYA_OPEN MODE_LC_SC_DL_UL_01,CELLMEAS,19/1/2018 03:42:59.392,7.0,Serving,LTE FDD 2600 band 7,3150.0,161.0,-98.0,-116.0,-13.0,,135.0,101.545914,3.100905
11,18Jan19 034247_CS_PS_NKVE HIGHWAY_BUKIT JELUTONG-SUBANG JAYA_OPEN MODE_LC_SC_DL_UL_01,CELLMEAS,19/1/2018 03:43:00.004,7.0,Serving,LTE FDD 2600 band 7,3150.0,95.0,-91.5,-109.5,-12.0,,131.5,101.545776,3.100858
12,18Jan19 034247_CS_PS_NKVE HIGHWAY_BUKIT JELUTONG-SUBANG JAYA_OPEN MODE_LC_SC_DL_UL_01,CELLMEAS,19/1/2018 03:43:01.403,7.0,Serving,LTE FDD 2600 band 7,3150.0,493.0,-86.0,-101.5,-10.0,,122.0,101.545654,3.100793
13,18Jan19 034247_CS_PS_NKVE HIGHWAY_BUKIT JELUTONG-SUBANG JAYA_OPEN MODE_LC_SC_DL_UL_01,CELLMEAS,19/1/2018 03:43:03.403,7.0,Serving,LTE FDD 2600 band 7,3150.0,493.0,-89.0,-101.0,-11.0,,122.0,101.54554,3.100705
14,18Jan19 034247_CS_PS_NKVE HIGHWAY_BUKIT JELUTONG-SUBANG JAYA_OPEN MODE_LC_SC_DL_UL_01,CELLMEAS,19/1/2018 03:43:04.405,7.0,Serving,LTE FDD 2600 band 7,3150.0,493.0,-86.0,-100.0,-10.0,,126.0,101.545326,3.100495
15,18Jan19 034247_CS_PS_NKVE HIGHWAY_BUKIT JELUTONG-SUBANG JAYA_OPEN MODE_LC_SC_DL_UL_01,CELLMEAS,19/1/2018 03:43:05.406,7.0,Serving,LTE FDD 2600 band 7,3150.0,493.0,-91.0,-102.0,-11.0,,129.0,101.545227,3.1003700000000003
16,18Jan19 034247_CS_PS_NKVE HIGHWAY_BUKIT JELUTONG-SUBANG JAYA_OPEN MODE_LC_SC_DL_UL_01,CELLMEAS,19/1/2018 03:43:06.406,7.0,Serving,LTE FDD 2600 band 7,3150.0,294.0,-89.0,-101.0,-10.0,,124.0,101.54514300000001,3.1002330000000002
17,18Jan19 034247_CS_PS_NKVE HIGHWAY_BUKIT JELUTONG-SUBANG JAYA_OPEN MODE_LC_SC_DL_UL_01,CELLMEAS,19/1/2018 03:43:08.405,7.0,Serving,LTE FDD 2600 band 7,3150.0,95.0,-84.0,-96.0,-10.0,,117.0,101.545074,3.100078
18,18Jan19 034247_CS_PS_NKVE HIGHWAY_BUKIT JELUTONG-SUBANG JAYA_OPEN MODE_LC_SC_DL_UL_01,CELLMEAS,19/1/2018 03:43:09.406,7.0,Serving,LTE FDD 2600 band 7,3150.0,95.0,-81.0,-93.0,-9.0,,117.0,101.544983,3.09978
19,18Jan19 034247_CS_PS_NKVE HIGHWAY_BUKIT JELUTONG-SUBANG JAYA_OPEN MODE_LC_SC_DL_UL_01,CELLMEAS,19/1/2018 03:43:10.411,7.0,Serving,LTE FDD 2600 band 7,3150.0,95.0,-81.0,-93.0,-10.0,,116.0,101.54496800000001,3.0996200000000003
20,18Jan19 034247_CS_PS_NKVE HIGHWAY_BUKIT JELUTONG-SUBANG JAYA_OPEN MODE_LC_SC_DL_UL_01,CELLMEAS,19/1/2018 03:43:11.408,7.0,Serving,LTE FDD 2600 band 7,3150.0,95.0,-81.0,-92.5,-10.0,,115.0,101.544952,3.099463
21,18Jan19 034247_CS_PS_NKVE HIGHWAY_BUKIT JELUTONG-SUBANG JAYA_OPEN MODE_LC_SC_DL_UL_01,CELLMEAS,19/1/2018 03:43:13.406,7.0,Serving,LTE FDD 2600 band 7,3150.0,95.0,-79.0,-94.0,-10.0,,114.0,101.544945,3.09931
22,18Jan19 034247_CS_PS_NKVE HIGHWAY_BUKIT JELUTONG-SUBANG JAYA_OPEN MODE_LC_SC_DL_UL_01,CELLMEAS,19/1/2018 03:43:14.410,7.0,Serving,LTE FDD 2600 band 7,3150.0,95.0,-78.0,-93.0,-10.0,,113.0,101.54496800000001,3.099012
23,18Jan19 034247_CS_PS_NKVE HIGHWAY_BUKIT JELUTONG-SUBANG JAYA_OPEN MODE_LC_SC_DL_UL_01,CELLMEAS,19/1/2018 03:43:15.409,7.0,Serving,LTE FDD 2600 band 7,3150.0,95.0,-78.0,-92.0,-10.0,,112.0,101.54499100000001,3.098868
24,18Jan19 034247_CS_PS_NKVE HIGHWAY_BUKIT JELUTONG-SUBANG JAYA_OPEN MODE_LC_SC_DL_UL_01,CELLMEAS,19/1/2018 03:43:16.410,7.0,Serving,LTE FDD 2600 band 7,3150.0,95.0,-76.0,-90.5,-9.5,,111.0,101.54502099999999,3.098733
25,18Jan19 034247_CS_PS_NKVE HIGHWAY_BUKIT JELUTONG-SUBANG JAYA_OPEN MODE_LC_SC_DL_UL_01,CELLMEAS,19/1/2018 03:43:18.408,7.0,Serving,LTE FDD 2600 band 7,3150.0,95.0,-75.0,-89.0,-9.0,,109.0,101.545052,3.098607
26,18Jan19 034247_CS_PS_NKVE HIGHWAY_BUKIT JELUTONG-SUBANG JAYA_OPEN MODE_LC_SC_DL_UL_01,CELLMEAS,19/1/2018 03:43:19.409,7.0,Serving,LTE FDD 2600 band 7,3150.0,95.0,-75.0,-89.0,-10.0,,107.0,101.545128,3.098375
27,18Jan19 034247_CS_PS_NKVE HIGHWAY_BUKIT JELUTONG-SUBANG JAYA_OPEN MODE_LC_SC_DL_UL_01,CELLMEAS,19/1/2018 03:43:20.407,7.0,Serving,LTE FDD 2600 band 7,3150.0,95.0,-72.0,-86.0,-10.0,,105.0,101.54516600000001,3.098275
28,18Jan19 034247_CS_PS_NKVE HIGHWAY_BUKIT JELUTONG-SUBANG JAYA_OPEN MODE_LC_SC_DL_UL_01,CELLMEAS,19/1/2018 03:43:21.412,7.0,Serving,LTE FDD 2600 band 7,3150.0,95.0,-70.0,-84.5,-9.5,,102.5,101.545204,3.09819
29,18Jan19 034247_CS_PS_NKVE HIGHWAY_BUKIT JELUTONG-SUBANG JAYA_OPEN MODE_LC_SC_DL_UL_01,CELLMEAS,19/1/2018 03:43:23.413,7.0,Serving,LTE FDD 2600 band 7,3150.0,95.0,-67.0,-82.0,-9.0,,102.0,101.54523499999999,3.098118
30,18Jan19 034247_CS_PS_NKVE HIGHWAY_BUKIT JELUTONG-SUBANG JAYA_OPEN MODE_LC_SC_DL_UL_01,CELLMEAS,19/1/2018 03:43:24.413,7.0,Serving,LTE FDD 2600 band 7,3150.0,95.0,-66.0,-78.0,-9.0,,97.0,101.545296,3.098003
31,18Jan19 034247_CS_PS_NKVE HIGHWAY_BUKIT JELUTONG-SUBANG JAYA_OPEN MODE_LC_SC_DL_UL_01,CELLMEAS,19/1/2018 03:43:25.411,7.0,Serving,LTE FDD 2600 band 7,3150.0,95.0,-60.0,-75.0,-9.0,,92.0,101.545326,3.097957
32,18Jan19 034247_CS_PS_NKVE HIGHWAY_BUKIT JELUTONG-SUBANG JAYA_OPEN MODE_LC_SC_DL_UL_01,CELLMEAS,19/1/2018 03:43:26.414,7.0,Serving,LTE FDD 2600 band 7,3150.0,95.0,-58.0,-67.5,-8.5,,90.5,101.545349,3.097915
33,18Jan19 034247_CS_PS_NKVE HIGHWAY_BUKIT JELUTONG-SUBANG JAYA_OPEN MODE_LC_SC_DL_UL_01,CELLMEAS,19/1/2018 03:43:28.421,7.0,Serving,LTE FDD 2600 band 7,3150.0,95.0,-55.0,-67.0,-9.0,,92.0,101.545372,3.0978779999999997
34,18Jan19 034247_CS_PS_NKVE HIGHWAY_BUKIT JELUTONG-SUBANG JAYA_OPEN MODE_LC_SC_DL_UL_01,CELLMEAS,19/1/2018 03:43:29.420,7.0,Serving,LTE FDD 2600 band 7,3150.0,95.0,-57.0,-69.0,-9.0,,92.0,101.545387,3.0978369999999997
35,18Jan19 034247_CS_PS_NKVE HIGHWAY_BUKIT JELUTONG-SUBANG JAYA_OPEN MODE_LC_SC_DL_UL_01,CELLMEAS,19/1/2018 03:43:30.423,7.0,Serving,LTE FDD 2600 band 7,3150.0,95.0,-60.0,-68.0,-9.0,,93.0,101.545395,3.09783
36,18Jan19 034247_CS_PS_NKVE HIGHWAY_BUKIT JELUTONG-SUBANG JAYA_OPEN MODE_LC_SC_DL_UL_01,CELLMEAS,19/1/2018 03:43:31.426,7.0,Serving,LTE FDD 2600 band 7,3150.0,95.0,-56.5,-69.5,-9.0,,90.0,101.545395,3.097828
37,18Jan19 034247_CS_PS_NKVE HIGHWAY_BUKIT JELUTONG-SUBANG JAYA_OPEN MODE_LC_SC_DL_UL_01,CELLMEAS,19/1/2018 03:43:33.429,7.0,Serving,LTE FDD 2600 band 7,3150.0,95.0,-55.0,-68.0,-9.0,,87.0,101.545395,3.097827
38,18Jan19 034247_CS_PS_NKVE HIGHWAY_BUKIT JELUTONG-SUBANG JAYA_OPEN MODE_LC_SC_DL_UL_01,CELLMEAS,19/1/2018 03:43:34.436,7.0,Serving,LTE FDD 2600 band 7,3150.0,95.0,-54.0,-61.0,-8.0,,90.0,101.54541800000001,3.0977900000000003
39,18Jan19 034247_CS_PS_NKVE HIGHWAY_BUKIT JELUTONG-SUBANG JAYA_OPEN MODE_LC_SC_DL_UL_01,CELLMEAS,19/1/2018 03:43:35.439,7.0,Serving,LTE FDD 2600 band 7,3150.0,95.0,-59.0,-62.0,-7.0,,90.0,101.545441,3.097748
40,18Jan19 034247_CS_PS_NKVE HIGHWAY_BUKIT JELUTONG-SUBANG JAYA_OPEN MODE_LC_SC_DL_UL_01,CELLMEAS,19/1/2018 03:43:36.440,7.0,Serving,LTE FDD 2600 band 7,3150.0,95.0,-56.5,-63.5,-8.5,,91.0,101.545479,3.097692
41,18Jan19 034247_CS_PS_NKVE HIGHWAY_BUKIT JELUTONG-SUBANG JAYA_OPEN MODE_LC_SC_DL_UL_01,CELLMEAS,19/1/2018 03:43:38.445,7.0,Serving,LTE FDD 2600 band 7,3150.0,95.0,-63.0,-69.0,-9.0,,88.0,101.545517,3.097623
42,18Jan19 034247_CS_PS_NKVE HIGHWAY_BUKIT JELUTONG-SUBANG JAYA_OPEN MODE_LC_SC_DL_UL_01,CELLMEAS,19/1/2018 03:43:39.448,7.0,Serving,LTE FDD 2600 band 7,3150.0,95.0,-55.0,-64.0,-9.0,,91.0,101.545601,3.097457
43,18Jan19 034247_CS_PS_NKVE HIGHWAY_BUKIT JELUTONG-SUBANG JAYA_OPEN MODE_LC_SC_DL_UL_01,CELLMEAS,19/1/2018 03:43:40.446,7.0,Serving,LTE FDD 2600 band 7,3150.0,95.0,-56.0,-66.0,-9.0,,90.0,101.545647,3.0973669999999998
44,18Jan19 034247_CS_PS_NKVE HIGHWAY_BUKIT JELUTONG-SUBANG JAYA_OPEN MODE_LC_SC_DL_UL_01,CELLMEAS,19/1/2018 03:43:41.448,7.0,Serving,LTE FDD 2600 band 7,3150.0,95.0,-60.5,-72.0,-10.0,,97.5,101.5457,3.0972630000000003
45,18Jan19 034247_CS_PS_NKVE HIGHWAY_BUKIT JELUTONG-SUBANG JAYA_OPEN MODE_LC_SC_DL_UL_01,CELLMEAS,19/1/2018 03:43:43.449,7.0,Serving,LTE FDD 2600 band 7,3150.0,95.0,-64.0,-74.0,-9.0,,97.0,101.545753,3.097143
46,18Jan19 034247_CS_PS_NKVE HIGHWAY_BUKIT JELUTONG-SUBANG JAYA_OPEN MODE_LC_SC_DL_UL_01,CELLMEAS,19/1/2018 03:43:44.450,7.0,Serving,LTE FDD 2600 band 7,3150.0,95.0,-64.0,-77.0,-10.0,,97.0,101.545868,3.096892
47,18Jan19 034247_CS_PS_NKVE HIGHWAY_BUKIT JELUTONG-SUBANG JAYA_OPEN MODE_LC_SC_DL_UL_01,CELLMEAS,19/1/2018 03:43:45.452,7.0,Serving,LTE FDD 2600 band 7,3150.0,95.0,-59.0,-78.0,-10.0,,93.0,101.54592099999999,3.096765
48,18Jan19 034247_CS_PS_NKVE HIGHWAY_BUKIT JELUTONG-SUBANG JAYA_OPEN MODE_LC_SC_DL_UL_01,CELLMEAS,19/1/2018 03:43:46.449,7.0,Serving,LTE FDD 2600 band 7,3150.0,95.0,-61.5,-78.5,-9.5,,103.5,101.545975,3.096628
49,18Jan19 034247_CS_PS_NKVE HIGHWAY_BUKIT JELUTONG-SUBANG JAYA_OPEN MODE_LC_SC_DL_UL_01,CELLMEAS,19/1/2018 03:43:48.149,7.0,Serving,LTE FDD 2600 band 7,3150.0,94.0,-68.0,-74.0,-9.0,,103.5,101.546028,3.096488
50,18Jan19 034247_CS_PS_NKVE HIGHWAY_BUKIT JELUTONG-SUBANG JAYA_OPEN MODE_LC_SC_DL_UL_01,CELLMEAS,19/1/2018 03:43:49.454,7.0,Serving,LTE FDD 2600 band 7,3150.0,94.0,-69.0,-82.0,-10.0,,102.0,101.546127,3.096202
51,18Jan19 034247_CS_PS_NKVE HIGHWAY_BUKIT JELUTONG-SUBANG JAYA_OPEN MODE_LC_SC_DL_UL_01,CELLMEAS,19/1/2018 03:43:50.453,7.0,Serving,LTE FDD 2600 band 7,3150.0,94.0,-56.0,-70.0,-10.0,,87.0,101.546181,3.096055
52,18Jan19 034247_CS_PS_NKVE HIGHWAY_BUKIT JELUTONG-SUBANG JAYA_OPEN MODE_LC_SC_DL_UL_01,CELLMEAS,19/1/2018 03:43:51.453,7.0,Serving,LTE FDD 2600 band 7,3150.0,94.0,-67.0,-82.0,-10.0,,103.0,101.546227,3.095905
53,18Jan19 034247_CS_PS_NKVE HIGHWAY_BUKIT JELUTONG-SUBANG JAYA_OPEN MODE_LC_SC_DL_UL_01,CELLMEAS,19/1/2018 03:43:53.451,7.0,Serving,LTE FDD 2600 band 7,3150.0,94.0,-71.0,-87.0,-10.0,,105.0,101.546272,3.0957529999999998
54,18Jan19 034247_CS_PS_NKVE HIGHWAY_BUKIT JELUTONG-SUBANG JAYA_OPEN MODE_LC_SC_DL_UL_01,CELLMEAS,19/1/2018 03:43:54.452,7.0,Serving,LTE FDD 2600 band 7,3150.0,94.0,-71.0,-87.0,-10.0,,106.0,101.546371,3.0954450000000002
55,18Jan19 034247_CS_PS_NKVE HIGHWAY_BUKIT JELUTONG-SUBANG JAYA_OPEN MODE_LC_SC_DL_UL_01,CELLMEAS,19/1/2018 03:43:55.455,7.0,Serving,LTE FDD 2600 band 7,3150.0,94.0,-71.0,-88.0,-10.0,,106.0,101.546417,3.095288
56,18Jan19 034247_CS_PS_NKVE HIGHWAY_BUKIT JELUTONG-SUBANG JAYA_OPEN MODE_LC_SC_DL_UL_01,CELLMEAS,19/1/2018 03:43:56.456,7.0,Serving,LTE FDD 2600 band 7,3150.0,94.0,-73.5,-89.0,-10.0,,106.0,101.546463,3.0951299999999997
57,18Jan19 034247_CS_PS_NKVE HIGHWAY_BUKIT JELUTONG-SUBANG JAYA_OPEN MODE_LC_SC_DL_UL_01,CELLMEAS,19/1/2018 03:43:58.456,7.0,Serving,LTE FDD 2600 band 7,3150.0,94.0,-76.0,-93.0,-10.0,,113.0,101.546509,3.09497
58,18Jan19 034247_CS_PS_NKVE HIGHWAY_BUKIT JELUTONG-SUBANG JAYA_OPEN MODE_LC_SC_DL_UL_01,CELLMEAS,19/1/2018 03:43:59.457,7.0,Serving,LTE FDD 2600 band 7,3150.0,94.0,-77.0,-95.0,-10.0,,113.0,101.546593,3.094648
59,18Jan19 034247_CS_PS_NKVE HIGHWAY_BUKIT JELUTONG-SUBANG JAYA_OPEN MODE_LC_SC_DL_UL_01,CELLMEAS,19/1/2018 03:44:00.458,7.0,Serving,LTE FDD 2600 band 7,3150.0,94.0,-76.0,-94.0,-10.0,,114.0,101.546638,3.094487
60,18Jan19 034247_CS_PS_NKVE HIGHWAY_BUKIT JELUTONG-SUBANG JAYA_OPEN MODE_LC_SC_DL_UL_01,CELLMEAS,19/1/2018 03:44:01.459,7.0,Serving,LTE FDD 2600 band 7,3150.0,94.0,-77.0,-95.0,-10.0,,114.0,101.546684,3.094323
61,18Jan19 034247_CS_PS_NKVE HIGHWAY_BUKIT JELUTONG-SUBANG JAYA_OPEN MODE_LC_SC_DL_UL_01,CELLMEAS,19/1/2018 03:44:03.459,7.0,Serving,LTE FDD 2600 band 7,3150.0,94.0,-82.0,-98.0,-10.0,,117.0,101.546722,3.094162
62,18Jan19 034247_CS_PS_NKVE HIGHWAY_BUKIT JELUTONG-SUBANG JAYA_OPEN MODE_LC_SC_DL_UL_01,CELLMEAS,19/1/2018 03:44:04.458,7.0,Serving,LTE FDD 2600 band 7,3150.0,94.0,-81.0,-99.0,-10.0,,118.0,101.546806,3.09384
63,18Jan19 034247_CS_PS_NKVE HIGHWAY_BUKIT JELUTONG-SUBANG JAYA_OPEN MODE_LC_SC_DL_UL_01,CELLMEAS,19/1/2018 03:44:05.459,7.0,Serving,LTE FDD 2600 band 7,3150.0,94.0,-83.0,-102.0,-11.0,,122.0,101.54686,3.093683
64,18Jan19 034247_CS_PS_NKVE HIGHWAY_BUKIT JELUTONG-SUBANG JAYA_OPEN MODE_LC_SC_DL_UL_01,CELLMEAS,19/1/2018 03:44:06.460,7.0,Serving,LTE FDD 2600 band 7,3150.0,94.0,-86.0,-102.0,-11.0,,123.0,101.546913,3.0935349999999997
65,18Jan19 034247_CS_PS_NKVE HIGHWAY_BUKIT JELUTONG-SUBANG JAYA_OPEN MODE_LC_SC_DL_UL_01,CELLMEAS,19/1/2018 03:44:07.461,7.0,Serving,LTE FDD 2600 band 7,3150.0,94.0,-89.0,-106.0,-12.0,,125.0,101.546989,3.093395
66,18Jan19 034247_CS_PS_NKVE HIGHWAY_BUKIT JELUTONG-SUBANG JAYA_OPEN MODE_LC_SC_DL_UL_01,CELLMEAS,19/1/2018 03:44:08.463,7.0,Serving,LTE FDD 2600 band 7,3150.0,94.0,-88.0,-103.0,-12.0,,124.0,101.547081,3.09327
67,18Jan19 034247_CS_PS_NKVE HIGHWAY_BUKIT JELUTONG-SUBANG JAYA_OPEN MODE_LC_SC_DL_UL_01,CELLMEAS,19/1/2018 03:44:09.459,7.0,Serving,LTE FDD 2600 band 7,3150.0,94.0,-88.0,-105.0,-11.0,,125.0,101.547188,3.093162
68,18Jan19 034247_CS_PS_NKVE HIGHWAY_BUKIT JELUTONG-SUBANG JAYA_OPEN MODE_LC_SC_DL_UL_01,CELLMEAS,19/1/2018 03:44:10.460,7.0,Serving,LTE FDD 2600 band 7,3150.0,94.0,-91.0,-108.0,-11.0,,126.0,101.54731,3.093068
69,18Jan19 034247_CS_PS_NKVE HIGHWAY_BUKIT JELUTONG-SUBANG JAYA_OPEN MODE_LC_SC_DL_UL_01,CELLMEAS,19/1/2018 03:44:11.462,7.0,Serving,LTE FDD 2600 band 7,3150.0,94.0,-88.5,-105.0,-11.0,,126.5,101.54744000000001,3.0929900000000004
70,18Jan19 034247_CS_PS_NKVE HIGHWAY_BUKIT JELUTONG-SUBANG JAYA_OPEN MODE_LC_SC_DL_UL_01,CELLMEAS,19/1/2018 03:44:13.461,7.0,Serving,LTE FDD 2600 band 7,3150.0,94.0,-89.0,-106.0,-11.0,,126.0,101.547569,3.092932
71,18Jan19 034247_CS_PS_NKVE HIGHWAY_BUKIT JELUTONG-SUBANG JAYA_OPEN MODE_LC_SC_DL_UL_01,CELLMEAS,19/1/2018 03:44:14.466,7.0,Serving,LTE FDD 2600 band 7,3150.0,94.0,-92.0,-105.0,-11.0,,125.0,101.547859,3.092868
72,18Jan19 034247_CS_PS_NKVE HIGHWAY_BUKIT JELUTONG-SUBANG JAYA_OPEN MODE_LC_SC_DL_UL_01,CELLMEAS,19/1/2018 03:44:15.462,7.0,Serving,LTE FDD 2600 band 7,3150.0,94.0,-90.0,-105.0,-10.0,,123.0,101.548004,3.092865
73,18Jan19 034247_CS_PS_NKVE HIGHWAY_BUKIT JELUTONG-SUBANG JAYA_OPEN MODE_LC_SC_DL_UL_01,CELLMEAS,19/1/2018 03:44:16.461,7.0,Serving,LTE FDD 2600 band 7,3150.0,94.0,-90.0,-104.0,-10.0,,126.0,101.548141,3.092868
74,18Jan19 034247_CS_PS_NKVE HIGHWAY_BUKIT JELUTONG-SUBANG JAYA_OPEN MODE_LC_SC_DL_UL_01,CELLMEAS,19/1/2018 03:44:17.463,7.0,Serving,LTE FDD 2600 band 7,3150.0,94.0,-86.0,-100.0,-9.0,,116.0,101.548286,3.092877
75,18Jan19 034247_CS_PS_NKVE HIGHWAY_BUKIT JELUTONG-SUBANG JAYA_OPEN MODE_LC_SC_DL_UL_01,CELLMEAS,19/1/2018 03:44:18.462,7.0,Serving,LTE FDD 2600 band 7,3150.0,94.0,-89.0,-107.0,-10.0,,121.0,101.548424,3.0928880000000003
76,18Jan19 034247_CS_PS_NKVE HIGHWAY_BUKIT JELUTONG-SUBANG JAYA_OPEN MODE_LC_SC_DL_UL_01,CELLMEAS,19/1/2018 03:44:19.461,7.0,Serving,LTE FDD 2600 band 7,3150.0,94.0,-87.0,-103.0,-10.0,,127.0,101.548553,3.092895
77,18Jan19 034247_CS_PS_NKVE HIGHWAY_BUKIT JELUTONG-SUBANG JAYA_OPEN MODE_LC_SC_DL_UL_01,CELLMEAS,19/1/2018 03:44:20.460,7.0,Serving,LTE FDD 2600 band 7,3150.0,94.0,-91.0,-107.0,-11.0,,125.0,101.548698,3.0929029999999997
78,18Jan19 034247_CS_PS_NKVE HIGHWAY_BUKIT JELUTONG-SUBANG JAYA_OPEN MODE_LC_SC_DL_UL_01,CELLMEAS,19/1/2018 03:44:21.461,7.0,Serving,LTE FDD 2600 band 7,3150.0,94.0,-92.0,-108.0,-11.0,,128.0,101.548843,3.0929130000000002
79,18Jan19 034247_CS_PS_NKVE HIGHWAY_BUKIT JELUTONG-SUBANG JAYA_OPEN MODE_LC_SC_DL_UL_01,CELLMEAS,19/1/2018 03:44:22.463,7.0,Serving,LTE FDD 2600 band 7,3150.0,94.0,-90.0,-107.0,-11.0,,128.0,101.548988,3.09292
80,18Jan19 034247_CS_PS_NKVE HIGHWAY_BUKIT JELUTONG-SUBANG JAYA_OPEN MODE_LC_SC_DL_UL_01,CELLMEAS,19/1/2018 03:44:23.461,7.0,Serving,LTE FDD 2600 band 7,3150.0,94.0,-89.0,-105.0,-10.0,,123.0,101.549133,3.092927
81,18Jan19 034247_CS_PS_NKVE HIGHWAY_BUKIT JELUTONG-SUBANG JAYA_OPEN MODE_LC_SC_DL_UL_01,CELLMEAS,19/1/2018 03:44:24.462,7.0,Serving,LTE FDD 2600 band 7,3150.0,94.0,-80.0,-93.0,-9.0,,119.0,101.54929399999999,3.092937
82,18Jan19 034247_CS_PS_NKVE HIGHWAY_BUKIT JELUTONG-SUBANG JAYA_OPEN MODE_LC_SC_DL_UL_01,CELLMEAS,19/1/2018 03:44:25.464,7.0,Serving,LTE FDD 2600 band 7,3150.0,94.0,-88.0,-105.0,-10.0,,128.0,101.549446,3.09295
83,18Jan19 034247_CS_PS_NKVE HIGHWAY_BUKIT JELUTONG-SUBANG JAYA_OPEN MODE_LC_SC_DL_UL_01,CELLMEAS,19/1/2018 03:44:26.464,7.0,Serving,LTE FDD 2600 band 7,3150.0,213.0,-95.5,-112.5,-11.5,,132.5,101.549614,3.092967
84,18Jan19 034247_CS_PS_NKVE HIGHWAY_BUKIT JELUTONG-SUBANG JAYA_OPEN MODE_LC_SC_DL_UL_01,CELLMEAS,19/1/2018 03:44:27.463,7.0,Serving,LTE FDD 2600 band 7,3150.0,332.0,-97.0,-111.0,-10.0,,133.0,101.549782,3.0929830000000003
85,18Jan19 034247_CS_PS_NKVE HIGHWAY_BUKIT JELUTONG-SUBANG JAYA_OPEN MODE_LC_SC_DL_UL_01,CELLMEAS,19/1/2018 03:44:28.464,7.0,Serving,LTE FDD 2600 band 7,3150.0,332.0,-90.0,-112.0,-10.0,,127.0,101.54995,3.093003
86,18Jan19 034247_CS_PS_NKVE HIGHWAY_BUKIT JELUTONG-SUBANG JAYA_OPEN MODE_LC_SC_DL_UL_01,CELLMEAS,19/1/2018 03:44:29.463,7.0,Serving,LTE FDD 2600 band 7,3150.0,332.0,-95.0,-106.0,-10.0,,127.0,101.550125,3.093022
87,18Jan19 034247_CS_PS_NKVE HIGHWAY_BUKIT JELUTONG-SUBANG JAYA_OPEN MODE_LC_SC_DL_UL_01,CELLMEAS,19/1/2018 03:44:30.461,7.0,Serving,LTE FDD 2600 band 7,3150.0,332.0,-94.0,-110.0,-11.0,,126.0,101.550301,3.093038
88,18Jan19 034247_CS_PS_NKVE HIGHWAY_BUKIT JELUTONG-SUBANG JAYA_OPEN MODE_LC_SC_DL_UL_01,CELLMEAS,19/1/2018 03:44:31.462,7.0,Serving,LTE FDD 2600 band 7,3150.0,332.0,-93.0,-107.0,-11.0,,124.0,101.550476,3.093063
89,18Jan19 034247_CS_PS_NKVE HIGHWAY_BUKIT JELUTONG-SUBANG JAYA_OPEN MODE_LC_SC_DL_UL_01,CELLMEAS,19/1/2018 03:44:32.464,7.0,Serving,LTE FDD 2600 band 7,3150.0,332.0,-90.0,-106.0,-11.0,,125.0,101.550659,3.09309
90,18Jan19 034247_CS_PS_NKVE HIGHWAY_BUKIT JELUTONG-SUBANG JAYA_OPEN MODE_LC_SC_DL_UL_01,CELLMEAS,19/1/2018 03:44:33.465,7.0,Serving,LTE FDD 2600 band 7,3150.0,332.0,-92.0,-105.0,-11.0,,122.0,101.550842,3.093115
91,18Jan19 034247_CS_PS_NKVE HIGHWAY_BUKIT JELUTONG-SUBANG JAYA_OPEN MODE_LC_SC_DL_UL_01,CELLMEAS,19/1/2018 03:44:34.462,7.0,Serving,LTE FDD 2600 band 7,3150.0,332.0,-89.0,-100.0,-10.0,,122.0,101.551025,3.093138
92,18Jan19 034247_CS_PS_NKVE HIGHWAY_BUKIT JELUTONG-SUBANG JAYA_OPEN MODE_LC_SC_DL_UL_01,CELLMEAS,19/1/2018 03:44:35.462,7.0,Serving,LTE FDD 2600 band 7,3150.0,332.0,-91.0,-101.0,-10.0,,121.0,101.551208,3.0931599999999997
93,18Jan19 034247_CS_PS_NKVE HIGHWAY_BUKIT JELUTONG-SUBANG JAYA_OPEN MODE_LC_SC_DL_UL_01,CELLMEAS,19/1/2018 03:44:36.463,7.0,Serving,LTE FDD 2600 band 7,3150.0,332.0,-91.5,-105.5,-10.0,,125.5,101.551392,3.0931830000000002
94,18Jan19 034247_CS_PS_NKVE HIGHWAY_BUKIT JELUTONG-SUBANG JAYA_OPEN MODE_LC_SC_DL_UL_01,CELLMEAS,19/1/2018 03:44:38.466,7.0,Serving,LTE FDD 2600 band 7,3150.0,332.0,-92.0,-107.0,-10.0,,123.0,101.551582,3.093207
95,18Jan19 034247_CS_PS_NKVE HIGHWAY_BUKIT JELUTONG-SUBANG JAYA_OPEN MODE_LC_SC_DL_UL_01,CELLMEAS,19/1/2018 03:44:39.463,7.0,Serving,LTE FDD 2600 band 7,3150.0,332.0,-90.0,-106.0,-10.0,,124.0,101.551964,3.09325
96,18Jan19 034247_CS_PS_NKVE HIGHWAY_BUKIT JELUTONG-SUBANG JAYA_OPEN MODE_LC_SC_DL_UL_01,CELLMEAS,19/1/2018 03:44:40.463,7.0,Serving,LTE FDD 2600 band 7,3150.0,332.0,-90.0,-109.0,-11.0,,123.0,101.552162,3.0932720000000002
97,18Jan19 034247_CS_PS_NKVE HIGHWAY_BUKIT JELUTONG-SUBANG JAYA_OPEN MODE_LC_SC_DL_UL_01,CELLMEAS,19/1/2018 03:44:41.466,7.0,Serving,LTE FDD 2600 band 7,3150.0,332.0,-91.0,-106.0,-10.0,,123.0,101.552361,3.093293
98,18Jan19 034247_CS_PS_NKVE HIGHWAY_BUKIT JELUTONG-SUBANG JAYA_OPEN MODE_LC_SC_DL_UL_01,CELLMEAS,19/1/2018 03:44:42.467,7.0,Serving,LTE FDD 2600 band 7,3150.0,332.0,-90.0,-104.0,-10.0,,124.0,101.552559,3.093315
99,18Jan19 034247_CS_PS_NKVE HIGHWAY_BUKIT JELUTONG-SUBANG JAYA_OPEN MODE_LC_SC_DL_UL_01,CELLMEAS,19/1/2018 03:44:43.468,7.0,Serving,LTE FDD 2600 band 7,3150.0,332.0,-89.0,-103.0,-10.0,,122.0,101.552757,3.093338
100,18Jan19 034247_CS_PS_NKVE HIGHWAY_BUKIT JELUTONG-SUBANG JAYA_OPEN MODE_LC_SC_DL_UL_01,CELLMEAS,19/1/2018 03:44:44.469,7.0,Serving,LTE FDD 2600 band 7,3150.0,332.0,-88.0,-104.0,-10.0,,121.0,101.55295600000001,3.0933599999999997
101,18Jan19 034247_CS_PS_NKVE HIGHWAY_BUKIT JELUTONG-SUBANG JAYA_OPEN MODE_LC_SC_DL_UL_01,CELLMEAS,19/1/2018 03:44:45.468,7.0,Serving,LTE FDD 2600 band 7,3150.0,332.0,-86.0,-99.0,-11.0,,121.0,101.553146,3.093382
102,18Jan19 034247_CS_PS_NKVE HIGHWAY_BUKIT JELUTONG-SUBANG JAYA_OPEN MODE_LC_SC_DL_UL_01,CELLMEAS,19/1/2018 03:44:46.471,7.0,Serving,LTE FDD 2600 band 7,3150.0,332.0,-89.0,-105.0,-11.0,,123.0,101.553337,3.093403
103,18Jan19 034247_CS_PS_NKVE HIGHWAY_BUKIT JELUTONG-SUBANG JAYA_OPEN MODE_LC_SC_DL_UL_01,CELLMEAS,19/1/2018 03:44:47.468,7.0,Serving,LTE FDD 2600 band 7,3150.0,332.0,-89.0,-105.0,-11.0,,121.0,101.553528,3.093425
104,18Jan19 034247_CS_PS_NKVE HIGHWAY_BUKIT JELUTONG-SUBANG JAYA_OPEN MODE_LC_SC_DL_UL_01,CELLMEAS,19/1/2018 03:44:48.467,7.0,Serving,LTE FDD 2600 band 7,3150.0,332.0,-87.0,-104.0,-10.0,,120.0,101.553719,3.0934470000000003
105,18Jan19 034247_CS_PS_NKVE HIGHWAY_BUKIT JELUTONG-SUBANG JAYA_OPEN MODE_LC_SC_DL_UL_01,CELLMEAS,19/1/2018 03:44:49.466,7.0,Serving,LTE FDD 2600 band 7,3150.0,332.0,-87.0,-105.0,-12.0,,118.0,101.55390200000001,3.093467
106,18Jan19 034247_CS_PS_NKVE HIGHWAY_BUKIT JELUTONG-SUBANG JAYA_OPEN MODE_LC_SC_DL_UL_01,CELLMEAS,19/1/2018 03:44:50.466,7.0,Serving,LTE FDD 2600 band 7,3150.0,332.0,-87.0,-103.0,-9.0,,115.0,101.554085,3.0934880000000002
107,18Jan19 034247_CS_PS_NKVE HIGHWAY_BUKIT JELUTONG-SUBANG JAYA_OPEN MODE_LC_SC_DL_UL_01,CELLMEAS,19/1/2018 03:44:51.465,7.0,Serving,LTE FDD 2600 band 7,3150.0,332.0,-83.0,-100.0,-10.0,,117.0,101.55426,3.093512
108,18Jan19 034247_CS_PS_NKVE HIGHWAY_BUKIT JELUTONG-SUBANG JAYA_OPEN MODE_LC_SC_DL_UL_01,CELLMEAS,19/1/2018 03:44:52.468,7.0,Serving,LTE FDD 2600 band 7,3150.0,332.0,-86.0,-103.0,-10.0,,118.0,101.554443,3.0935349999999997
109,18Jan19 034247_CS_PS_NKVE HIGHWAY_BUKIT JELUTONG-SUBANG JAYA_OPEN MODE_LC_SC_DL_UL_01,CELLMEAS,19/1/2018 03:44:53.466,7.0,Serving,LTE FDD 2600 band 7,3150.0,332.0,-86.0,-102.0,-10.0,,120.0,101.55461899999999,3.093557
110,18Jan19 034247_CS_PS_NKVE HIGHWAY_BUKIT JELUTONG-SUBANG JAYA_OPEN MODE_LC_SC_DL_UL_01,CELLMEAS,19/1/2018 03:44:54.468,7.0,Serving,LTE FDD 2600 band 7,3150.0,332.0,-89.0,-106.0,-11.0,,125.0,101.554802,3.0935770000000002
111,18Jan19 034247_CS_PS_NKVE HIGHWAY_BUKIT JELUTONG-SUBANG JAYA_OPEN MODE_LC_SC_DL_UL_01,CELLMEAS,19/1/2018 03:44:55.468,7.0,Serving,LTE FDD 2600 band 7,3150.0,332.0,-89.0,-105.0,-13.0,,123.0,101.55497700000001,3.093597
112,18Jan19 034247_CS_PS_NKVE HIGHWAY_BUKIT JELUTONG-SUBANG JAYA_OPEN MODE_LC_SC_DL_UL_01,CELLMEAS,19/1/2018 03:44:56.469,7.0,Serving,LTE FDD 2600 band 7,3150.0,332.0,-88.5,-106.0,-11.0,,117.0,101.555161,3.0936150000000002
113,18Jan19 034247_CS_PS_NKVE HIGHWAY_BUKIT JELUTONG-SUBANG JAYA_OPEN MODE_LC_SC_DL_UL_01,CELLMEAS,19/1/2018 03:44:58.467,7.0,Serving,LTE FDD 2600 band 7,3150.0,332.0,-82.0,-100.0,-10.0,,118.0,101.555336,3.093638
114,18Jan19 034247_CS_PS_NKVE HIGHWAY_BUKIT JELUTONG-SUBANG JAYA_OPEN MODE_LC_SC_DL_UL_01,CELLMEAS,19/1/2018 03:44:59.472,7.0,Serving,LTE FDD 2600 band 7,3150.0,332.0,-84.0,-101.0,-10.0,,116.0,101.555679,3.093683
115,18Jan19 034247_CS_PS_NKVE HIGHWAY_BUKIT JELUTONG-SUBANG JAYA_OPEN MODE_LC_SC_DL_UL_01,CELLMEAS,19/1/2018 03:45:00.471,7.0,Serving,LTE FDD 2600 band 7,3150.0,332.0,-83.0,-100.0,-10.0,,115.0,101.555847,3.093703
116,18Jan19 034247_CS_PS_NKVE HIGHWAY_BUKIT JELUTONG-SUBANG JAYA_OPEN MODE_LC_SC_DL_UL_01,CELLMEAS,19/1/2018 03:45:01.469,7.0,Serving,LTE FDD 2600 band 7,3150.0,332.0,-83.0,-99.0,-10.0,,117.0,101.556015,3.093723
117,18Jan19 034247_CS_PS_NKVE HIGHWAY_BUKIT JELUTONG-SUBANG JAYA_OPEN MODE_LC_SC_DL_UL_01,CELLMEAS,19/1/2018 03:45:02.472,7.0,Serving,LTE FDD 2600 band 7,3150.0,332.0,-84.0,-101.0,-11.0,,118.0,101.55619,3.0937419999999998
118,18Jan19 034247_CS_PS_NKVE HIGHWAY_BUKIT JELUTONG-SUBANG JAYA_OPEN MODE_LC_SC_DL_UL_01,CELLMEAS,19/1/2018 03:45:03.470,7.0,Serving,LTE FDD 2600 band 7,3150.0,332.0,-85.0,-98.0,-10.0,,114.0,101.55635799999999,3.093762
119,18Jan19 034247_CS_PS_NKVE HIGHWAY_BUKIT JELUTONG-SUBANG JAYA_OPEN MODE_LC_SC_DL_UL_01,CELLMEAS,19/1/2018 03:45:04.469,7.0,Serving,LTE FDD 2600 band 7,3150.0,332.0,-80.0,-97.0,-10.0,,118.0,101.556526,3.093782
120,18Jan19 034247_CS_PS_NKVE HIGHWAY_BUKIT JELUTONG-SUBANG JAYA_OPEN MODE_LC_SC_DL_UL_01,CELLMEAS,19/1/2018 03:45:05.469,7.0,Serving,LTE FDD 2600 band 7,3150.0,332.0,-85.0,-100.0,-10.0,,117.0,101.556702,3.093805
121,18Jan19 034247_CS_PS_NKVE HIGHWAY_BUKIT JELUTONG-SUBANG JAYA_OPEN MODE_LC_SC_DL_UL_01,CELLMEAS,19/1/2018 03:45:06.470,7.0,Serving,LTE FDD 2600 band 7,3150.0,332.0,-85.0,-102.0,-10.0,,119.0,101.55686999999999,3.093828
122,18Jan19 034247_CS_PS_NKVE HIGHWAY_BUKIT JELUTONG-SUBANG JAYA_OPEN MODE_LC_SC_DL_UL_01,CELLMEAS,19/1/2018 03:45:07.469,7.0,Serving,LTE FDD 2600 band 7,3150.0,332.0,-87.0,-105.0,-11.0,,122.0,101.557037,3.0938529999999997
123,18Jan19 034247_CS_PS_NKVE HIGHWAY_BUKIT JELUTONG-SUBANG JAYA_OPEN MODE_LC_SC_DL_UL_01,CELLMEAS,19/1/2018 03:45:08.470,7.0,Serving,LTE FDD 2600 band 7,3150.0,332.0,-88.0,-107.0,-13.0,,123.0,101.55720500000001,3.0938779999999997
124,18Jan19 034247_CS_PS_NKVE HIGHWAY_BUKIT JELUTONG-SUBANG JAYA_OPEN MODE_LC_SC_DL_UL_01,CELLMEAS,19/1/2018 03:45:09.470,7.0,Serving,LTE FDD 2600 band 7,3150.0,332.0,-87.0,-107.0,-14.0,,122.0,101.557381,3.093905
125,18Jan19 034247_CS_PS_NKVE HIGHWAY_BUKIT JELUTONG-SUBANG JAYA_OPEN MODE_LC_SC_DL_UL_01,CELLMEAS,19/1/2018 03:45:10.472,7.0,Serving,LTE FDD 2600 band 7,3150.0,332.0,-87.0,-107.0,-13.0,,121.0,101.557549,3.0939349999999997
126,18Jan19 034247_CS_PS_NKVE HIGHWAY_BUKIT JELUTONG-SUBANG JAYA_OPEN MODE_LC_SC_DL_UL_01,CELLMEAS,19/1/2018 03:45:11.469,7.0,Serving,LTE FDD 2600 band 7,3150.0,332.0,-86.0,-106.0,-13.0,,124.0,101.557724,3.093968
127,18Jan19 034247_CS_PS_NKVE HIGHWAY_BUKIT JELUTONG-SUBANG JAYA_OPEN MODE_LC_SC_DL_UL_01,CELLMEAS,19/1/2018 03:45:12.469,7.0,Serving,LTE FDD 2600 band 7,3150.0,331.0,-89.0,-106.0,-11.0,,123.5,101.55789200000001,3.094008
128,18Jan19 034247_CS_PS_NKVE HIGHWAY_BUKIT JELUTONG-SUBANG JAYA_OPEN MODE_LC_SC_DL_UL_01,CELLMEAS,19/1/2018 03:45:13.470,7.0,Serving,LTE FDD 2600 band 7,3150.0,330.0,-84.0,-102.0,-9.0,,122.0,101.55806,3.094055
129,18Jan19 034247_CS_PS_NKVE HIGHWAY_BUKIT JELUTONG-SUBANG JAYA_OPEN MODE_LC_SC_DL_UL_01,CELLMEAS,19/1/2018 03:45:14.471,7.0,Serving,LTE FDD 2600 band 7,3150.0,330.0,-87.0,-99.0,-11.0,,119.0,101.558228,3.094105
130,18Jan19 034247_CS_PS_NKVE HIGHWAY_BUKIT JELUTONG-SUBANG JAYA_OPEN MODE_LC_SC_DL_UL_01,CELLMEAS,19/1/2018 03:45:15.476,7.0,Serving,LTE FDD 2600 band 7,3150.0,330.0,-82.0,-96.0,-10.0,,112.0,101.55839499999999,3.094157
131,18Jan19 034247_CS_PS_NKVE HIGHWAY_BUKIT JELUTONG-SUBANG JAYA_OPEN MODE_LC_SC_DL_UL_01,CELLMEAS,19/1/2018 03:45:16.475,7.0,Serving,LTE FDD 2600 band 7,3150.0,330.0,-81.0,-97.0,-10.0,,117.0,101.558563,3.09421
132,18Jan19 034247_CS_PS_NKVE HIGHWAY_BUKIT JELUTONG-SUBANG JAYA_OPEN MODE_LC_SC_DL_UL_01,CELLMEAS,19/1/2018 03:45:17.477,7.0,Serving,LTE FDD 2600 band 7,3150.0,330.0,-83.0,-99.0,-10.0,,113.0,101.55873100000001,3.094263
133,18Jan19 034247_CS_PS_NKVE HIGHWAY_BUKIT JELUTONG-SUBANG JAYA_OPEN MODE_LC_SC_DL_UL_01,CELLMEAS,19/1/2018 03:45:18.474,7.0,Serving,LTE FDD 2600 band 7,3150.0,330.0,-82.0,-100.0,-10.0,,118.0,101.558891,3.094318
134,18Jan19 034247_CS_PS_NKVE HIGHWAY_BUKIT JELUTONG-SUBANG JAYA_OPEN MODE_LC_SC_DL_UL_01,CELLMEAS,19/1/2018 03:45:19.475,7.0,Serving,LTE FDD 2600 band 7,3150.0,330.0,-86.0,-105.0,-11.0,,122.0,101.55905200000001,3.094377
135,18Jan19 034247_CS_PS_NKVE HIGHWAY_BUKIT JELUTONG-SUBANG JAYA_OPEN MODE_LC_SC_DL_UL_01,CELLMEAS,19/1/2018 03:45:20.474,7.0,Serving,LTE FDD 2600 band 7,3150.0,331.0,-88.0,-107.5,-12.5,,123.5,101.559212,3.094435
136,18Jan19 034247_CS_PS_NKVE HIGHWAY_BUKIT JELUTONG-SUBANG JAYA_OPEN MODE_LC_SC_DL_UL_01,CELLMEAS,19/1/2018 03:45:21.477,7.0,Serving,LTE FDD 2600 band 7,3150.0,332.0,-84.0,-107.0,-12.0,,121.0,101.559372,3.094493
137,18Jan19 034247_CS_PS_NKVE HIGHWAY_BUKIT JELUTONG-SUBANG JAYA_OPEN MODE_LC_SC_DL_UL_01,CELLMEAS,19/1/2018 03:45:22.476,7.0,Serving,LTE FDD 2600 band 7,3150.0,332.0,-87.0,-106.0,-12.0,,118.0,101.55953199999999,3.0945549999999997
138,18Jan19 034247_CS_PS_NKVE HIGHWAY_BUKIT JELUTONG-SUBANG JAYA_OPEN MODE_LC_SC_DL_UL_01,CELLMEAS,19/1/2018 03:45:23.475,7.0,Serving,LTE FDD 2600 band 7,3150.0,332.0,-85.0,-104.0,-11.0,,116.0,101.559685,3.094618
139,18Jan19 034247_CS_PS_NKVE HIGHWAY_BUKIT JELUTONG-SUBANG JAYA_OPEN MODE_LC_SC_DL_UL_01,CELLMEAS,19/1/2018 03:45:24.475,7.0,Serving,LTE FDD 2600 band 7,3150.0,332.0,-85.0,-102.0,-9.0,,121.0,101.55983,3.0946830000000003
140,18Jan19 034247_CS_PS_NKVE HIGHWAY_BUKIT JELUTONG-SUBANG JAYA_OPEN MODE_LC_SC_DL_UL_01,CELLMEAS,19/1/2018 03:45:25.476,7.0,Serving,LTE FDD 2600 band 7,3150.0,332.0,-88.0,-106.0,-10.0,,124.0,101.55998199999999,3.094748
141,18Jan19 034247_CS_PS_NKVE HIGHWAY_BUKIT JELUTONG-SUBANG JAYA_OPEN MODE_LC_SC_DL_UL_01,CELLMEAS,19/1/2018 03:45:26.476,7.0,Serving,LTE FDD 2600 band 7,3150.0,332.0,-90.5,-111.0,-12.5,,126.5,101.560135,3.094817
142,18Jan19 034247_CS_PS_NKVE HIGHWAY_BUKIT JELUTONG-SUBANG JAYA_OPEN MODE_LC_SC_DL_UL_01,CELLMEAS,19/1/2018 03:45:28.475,7.0,Serving,LTE FDD 2600 band 7,3150.0,332.0,-92.0,-113.0,-13.0,,126.0,101.56028,3.0948849999999997
143,18Jan19 034247_CS_PS_NKVE HIGHWAY_BUKIT JELUTONG-SUBANG JAYA_OPEN MODE_LC_SC_DL_UL_01,CELLMEAS,19/1/2018 03:45:29.474,7.0,Serving,LTE FDD 2600 band 7,3150.0,332.0,-92.0,-112.0,-13.0,,124.0,101.56057,3.0950279999999997
144,18Jan19 034247_CS_PS_NKVE HIGHWAY_BUKIT JELUTONG-SUBANG JAYA_OPEN MODE_LC_SC_DL_UL_01,CELLMEAS,19/1/2018 03:45:30.474,7.0,Serving,LTE FDD 2600 band 7,3150.0,332.0,-91.0,-111.0,-12.0,,126.0,101.560715,3.0951
145,18Jan19 034247_CS_PS_NKVE HIGHWAY_BUKIT JELUTONG-SUBANG JAYA_OPEN MODE_LC_SC_DL_UL_01,CELLMEAS,19/1/2018 03:45:31.483,7.0,Serving,LTE FDD 2600 band 7,3150.0,230.0,-91.5,-108.5,-11.0,,127.5,101.56085999999999,3.0951720000000003
146,18Jan19 034247_CS_PS_NKVE HIGHWAY_BUKIT JELUTONG-SUBANG JAYA_OPEN MODE_LC_SC_DL_UL_01,CELLMEAS,19/1/2018 03:45:32.483,7.0,Serving,LTE FDD 2600 band 7,3150.0,128.0,-89.0,-106.0,-10.0,,132.0,101.56100500000001,3.095243
147,18Jan19 034247_CS_PS_NKVE HIGHWAY_BUKIT JELUTONG-SUBANG JAYA_OPEN MODE_LC_SC_DL_UL_01,CELLMEAS,19/1/2018 03:45:33.484,7.0,Serving,LTE FDD 2600 band 7,3150.0,128.0,-83.0,-113.0,-12.0,,130.0,101.56115,3.0953150000000003
148,18Jan19 034247_CS_PS_NKVE HIGHWAY_BUKIT JELUTONG-SUBANG JAYA_OPEN MODE_LC_SC_DL_UL_01,CELLMEAS,19/1/2018 03:45:34.487,7.0,Serving,LTE FDD 2600 band 7,3150.0,128.0,-78.0,-105.0,-10.0,,126.0,101.561302,3.095387
149,18Jan19 034247_CS_PS_NKVE HIGHWAY_BUKIT JELUTONG-SUBANG JAYA_OPEN MODE_LC_SC_DL_UL_01,CELLMEAS,19/1/2018 03:45:35.484,7.0,Serving,LTE FDD 2600 band 7,3150.0,128.0,-79.0,-104.0,-10.0,,127.0,101.561447,3.0954599999999997
150,18Jan19 034247_CS_PS_NKVE HIGHWAY_BUKIT JELUTONG-SUBANG JAYA_OPEN MODE_LC_SC_DL_UL_01,CELLMEAS,19/1/2018 03:45:36.486,7.0,Serving,LTE FDD 2600 band 7,3150.0,128.0,-76.0,-103.0,-10.0,,119.0,101.561592,3.095532
151,18Jan19 034247_CS_PS_NKVE HIGHWAY_BUKIT JELUTONG-SUBANG JAYA_OPEN MODE_LC_SC_DL_UL_01,CELLMEAS,19/1/2018 03:45:37.486,7.0,Serving,LTE FDD 2600 band 7,3150.0,128.0,-73.0,-99.0,-9.0,,124.0,101.561737,3.095605
152,18Jan19 034247_CS_PS_NKVE HIGHWAY_BUKIT JELUTONG-SUBANG JAYA_OPEN MODE_LC_SC_DL_UL_01,CELLMEAS,19/1/2018 03:45:38.484,7.0,Serving,LTE FDD 2600 band 7,3150.0,128.0,-75.0,-102.0,-10.0,,124.0,101.561882,3.0956799999999998
153,18Jan19 034247_CS_PS_NKVE HIGHWAY_BUKIT JELUTONG-SUBANG JAYA_OPEN MODE_LC_SC_DL_UL_01,CELLMEAS,19/1/2018 03:45:39.286,7.0,Serving,LTE FDD 2600 band 7,3150.0,170.0,-70.0,-95.0,-8.5,,116.5,101.562027,3.0957529999999998
154,18Jan19 034247_CS_PS_NKVE HIGHWAY_BUKIT JELUTONG-SUBANG JAYA_OPEN MODE_LC_SC_DL_UL_01,CELLMEAS,19/1/2018 03:45:40.484,7.0,Serving,LTE FDD 2600 band 7,3150.0,170.0,-84.0,-96.0,-7.0,,118.0,101.562172,3.095827
155,18Jan19 034247_CS_PS_NKVE HIGHWAY_BUKIT JELUTONG-SUBANG JAYA_OPEN MODE_LC_SC_DL_UL_01,CELLMEAS,19/1/2018 03:45:41.484,7.0,Serving,LTE FDD 2600 band 7,3150.0,170.0,-84.0,-99.0,-8.0,,117.0,101.56231700000001,3.095898
156,18Jan19 034247_CS_PS_NKVE HIGHWAY_BUKIT JELUTONG-SUBANG JAYA_OPEN MODE_LC_SC_DL_UL_01,CELLMEAS,19/1/2018 03:45:42.484,7.0,Serving,LTE FDD 2600 band 7,3150.0,170.0,-83.0,-99.0,-10.0,,120.0,101.562469,3.095972
157,18Jan19 034247_CS_PS_NKVE HIGHWAY_BUKIT JELUTONG-SUBANG JAYA_OPEN MODE_LC_SC_DL_UL_01,CELLMEAS,19/1/2018 03:45:43.483,7.0,Serving,LTE FDD 2600 band 7,3150.0,170.0,-85.0,-100.0,-10.0,,123.0,101.562614,3.096043
158,18Jan19 034247_CS_PS_NKVE HIGHWAY_BUKIT JELUTONG-SUBANG JAYA_OPEN MODE_LC_SC_DL_UL_01,CELLMEAS,19/1/2018 03:45:44.483,7.0,Serving,LTE FDD 2600 band 7,3150.0,170.0,-84.0,-100.0,-10.0,,123.0,101.562759,3.096115
159,18Jan19 034247_CS_PS_NKVE HIGHWAY_BUKIT JELUTONG-SUBANG JAYA_OPEN MODE_LC_SC_DL_UL_01,CELLMEAS,19/1/2018 03:45:45.483,7.0,Serving,LTE FDD 2600 band 7,3150.0,170.0,-83.0,-98.0,-9.0,,116.0,101.562904,3.096187
160,18Jan19 034247_CS_PS_NKVE HIGHWAY_BUKIT JELUTONG-SUBANG JAYA_OPEN MODE_LC_SC_DL_UL_01,CELLMEAS,19/1/2018 03:45:46.487,7.0,Serving,LTE FDD 2600 band 7,3150.0,149.0,-81.0,-95.0,-8.0,,115.0,101.563057,3.09626
161,18Jan19 034247_CS_PS_NKVE HIGHWAY_BUKIT JELUTONG-SUBANG JAYA_OPEN MODE_LC_SC_DL_UL_01,CELLMEAS,19/1/2018 03:45:48.485,7.0,Serving,LTE FDD 2600 band 7,3150.0,128.0,-70.0,-91.0,-9.0,,111.0,101.563202,3.096332
162,18Jan19 034247_CS_PS_NKVE HIGHWAY_BUKIT JELUTONG-SUBANG JAYA_OPEN MODE_LC_SC_DL_UL_01,CELLMEAS,19/1/2018 03:45:49.485,7.0,Serving,LTE FDD 2600 band 7,3150.0,128.0,-64.0,-87.0,-9.0,,112.0,101.56349200000001,3.09648
163,18Jan19 034247_CS_PS_NKVE HIGHWAY_BUKIT JELUTONG-SUBANG JAYA_OPEN MODE_LC_SC_DL_UL_01,CELLMEAS,19/1/2018 03:45:50.488,7.0,Serving,LTE FDD 2600 band 7,3150.0,128.0,-70.0,-90.0,-9.0,,116.0,101.563637,3.096555
164,18Jan19 034247_CS_PS_NKVE HIGHWAY_BUKIT JELUTONG-SUBANG JAYA_OPEN MODE_LC_SC_DL_UL_01,CELLMEAS,19/1/2018 03:45:51.490,7.0,Serving,LTE FDD 2600 band 7,3150.0,128.0,-75.0,-96.0,-9.0,,120.0,101.563789,3.0966299999999998
165,18Jan19 034247_CS_PS_NKVE HIGHWAY_BUKIT JELUTONG-SUBANG JAYA_OPEN MODE_LC_SC_DL_UL_01,CELLMEAS,19/1/2018 03:45:52.489,7.0,Serving,LTE FDD 2600 band 7,3150.0,128.0,-72.0,-94.0,-9.0,,118.0,101.563942,3.096705
166,18Jan19 034247_CS_PS_NKVE HIGHWAY_BUKIT JELUTONG-SUBANG JAYA_OPEN MODE_LC_SC_DL_UL_01,CELLMEAS,19/1/2018 03:45:53.489,7.0,Serving,LTE FDD 2600 band 7,3150.0,128.0,-72.0,-96.0,-9.0,,119.0,101.564087,3.096782
167,18Jan19 034247_CS_PS_NKVE HIGHWAY_BUKIT JELUTONG-SUBANG JAYA_OPEN MODE_LC_SC_DL_UL_01,CELLMEAS,19/1/2018 03:45:54.490,7.0,Serving,LTE FDD 2600 band 7,3150.0,128.0,-74.0,-99.0,-9.0,,120.0,101.56423199999999,3.096857
168,18Jan19 034247_CS_PS_NKVE HIGHWAY_BUKIT JELUTONG-SUBANG JAYA_OPEN MODE_LC_SC_DL_UL_01,CELLMEAS,19/1/2018 03:45:55.488,7.0,Serving,LTE FDD 2600 band 7,3150.0,128.0,-76.0,-99.0,-9.0,,119.0,101.56438399999999,3.0969330000000004
169,18Jan19 034247_CS_PS_NKVE HIGHWAY_BUKIT JELUTONG-SUBANG JAYA_OPEN MODE_LC_SC_DL_UL_01,CELLMEAS,19/1/2018 03:45:56.487,7.0,Serving,LTE FDD 2600 band 7,3150.0,128.0,-70.0,-96.0,-9.0,,123.0,101.56452900000001,3.097012
170,18Jan19 034247_CS_PS_NKVE HIGHWAY_BUKIT JELUTONG-SUBANG JAYA_OPEN MODE_LC_SC_DL_UL_01,CELLMEAS,19/1/2018 03:45:57.488,7.0,Serving,LTE FDD 2600 band 7,3150.0,128.0,-74.0,-101.0,-8.0,,123.0,101.56468199999999,3.0970880000000003
171,18Jan19 034247_CS_PS_NKVE HIGHWAY_BUKIT JELUTONG-SUBANG JAYA_OPEN MODE_LC_SC_DL_UL_01,CELLMEAS,19/1/2018 03:45:58.491,7.0,Serving,LTE FDD 2600 band 7,3150.0,128.0,-75.0,-104.0,-10.0,,121.0,101.56482700000001,3.097165
172,18Jan19 034247_CS_PS_NKVE HIGHWAY_BUKIT JELUTONG-SUBANG JAYA_OPEN MODE_LC_SC_DL_UL_01,CELLMEAS,19/1/2018 03:45:59.488,7.0,Serving,LTE FDD 2600 band 7,3150.0,128.0,-78.0,-104.0,-10.0,,122.0,101.56498,3.097243
173,18Jan19 034247_CS_PS_NKVE HIGHWAY_BUKIT JELUTONG-SUBANG JAYA_OPEN MODE_LC_SC_DL_UL_01,CELLMEAS,19/1/2018 03:46:00.490,7.0,Serving,LTE FDD 2600 band 7,3150.0,128.0,-74.0,-103.0,-11.0,,124.0,101.56513199999999,3.097318
174,18Jan19 034247_CS_PS_NKVE HIGHWAY_BUKIT JELUTONG-SUBANG JAYA_OPEN MODE_LC_SC_DL_UL_01,CELLMEAS,19/1/2018 03:46:01.490,7.0,Serving,LTE FDD 2600 band 7,3150.0,128.0,-75.5,-104.0,-9.5,,122.0,101.565285,3.097397
175,18Jan19 034247_CS_PS_NKVE HIGHWAY_BUKIT JELUTONG-SUBANG JAYA_OPEN MODE_LC_SC_DL_UL_01,CELLMEAS,19/1/2018 03:46:03.488,7.0,Serving,LTE FDD 2600 band 7,3150.0,128.0,-74.0,-100.0,-10.0,,122.0,101.565437,3.097475
176,18Jan19 034247_CS_PS_NKVE HIGHWAY_BUKIT JELUTONG-SUBANG JAYA_OPEN MODE_LC_SC_DL_UL_01,CELLMEAS,19/1/2018 03:46:04.488,7.0,Serving,LTE FDD 2600 band 7,3150.0,128.0,-69.0,-102.0,-14.0,,118.0,101.56575,3.09763
177,18Jan19 034247_CS_PS_NKVE HIGHWAY_BUKIT JELUTONG-SUBANG JAYA_OPEN MODE_LC_SC_DL_UL_01,CELLMEAS,19/1/2018 03:46:05.491,7.0,Serving,LTE FDD 2600 band 7,3150.0,128.0,-72.0,-102.0,-11.0,,120.0,101.565903,3.0977080000000004
178,18Jan19 034247_CS_PS_NKVE HIGHWAY_BUKIT JELUTONG-SUBANG JAYA_OPEN MODE_LC_SC_DL_UL_01,CELLMEAS,19/1/2018 03:46:06.489,7.0,Serving,LTE FDD 2600 band 7,3150.0,128.0,-72.0,-100.0,-9.0,,120.0,101.566055,3.097788
179,18Jan19 034247_CS_PS_NKVE HIGHWAY_BUKIT JELUTONG-SUBANG JAYA_OPEN MODE_LC_SC_DL_UL_01,CELLMEAS,19/1/2018 03:46:07.489,7.0,Serving,LTE FDD 2600 band 7,3150.0,128.0,-73.0,-101.0,-10.0,,118.0,101.56620799999999,3.097868
180,18Jan19 034247_CS_PS_NKVE HIGHWAY_BUKIT JELUTONG-SUBANG JAYA_OPEN MODE_LC_SC_DL_UL_01,CELLMEAS,19/1/2018 03:46:08.489,7.0,Serving,LTE FDD 2600 band 7,3150.0,128.0,-71.0,-99.0,-10.0,,116.0,101.56636800000001,3.097948
181,18Jan19 034247_CS_PS_NKVE HIGHWAY_BUKIT JELUTONG-SUBANG JAYA_OPEN MODE_LC_SC_DL_UL_01,CELLMEAS,19/1/2018 03:46:09.489,7.0,Serving,LTE FDD 2600 band 7,3150.0,128.0,-70.0,-97.0,-9.0,,121.0,101.566521,3.09803
182,18Jan19 034247_CS_PS_NKVE HIGHWAY_BUKIT JELUTONG-SUBANG JAYA_OPEN MODE_LC_SC_DL_UL_01,CELLMEAS,19/1/2018 03:46:10.489,7.0,Serving,LTE FDD 2600 band 7,3150.0,128.0,-73.0,-98.0,-10.0,,119.0,101.566673,3.098112
183,18Jan19 034247_CS_PS_NKVE HIGHWAY_BUKIT JELUTONG-SUBANG JAYA_OPEN MODE_LC_SC_DL_UL_01,CELLMEAS,19/1/2018 03:46:11.489,7.0,Serving,LTE FDD 2600 band 7,3150.0,128.0,-73.0,-99.0,-9.0,,121.0,101.566826,3.0981919999999996
184,18Jan19 034247_CS_PS_NKVE HIGHWAY_BUKIT JELUTONG-SUBANG JAYA_OPEN MODE_LC_SC_DL_UL_01,CELLMEAS,19/1/2018 03:46:12.491,7.0,Serving,LTE FDD 2600 band 7,3150.0,128.0,-73.0,-100.0,-10.0,,119.0,101.566978,3.098273
185,18Jan19 034247_CS_PS_NKVE HIGHWAY_BUKIT JELUTONG-SUBANG JAYA_OPEN MODE_LC_SC_DL_UL_01,CELLMEAS,19/1/2018 03:46:13.490,7.0,Serving,LTE FDD 2600 band 7,3150.0,128.0,-73.0,-99.0,-10.0,,120.0,101.567123,3.098353
186,18Jan19 034247_CS_PS_NKVE HIGHWAY_BUKIT JELUTONG-SUBANG JAYA_OPEN MODE_LC_SC_DL_UL_01,CELLMEAS,19/1/2018 03:46:14.490,7.0,Serving,LTE FDD 2600 band 7,3150.0,128.0,-72.0,-99.0,-10.0,,116.0,101.567276,3.098432
187,18Jan19 034247_CS_PS_NKVE HIGHWAY_BUKIT JELUTONG-SUBANG JAYA_OPEN MODE_LC_SC_DL_UL_01,CELLMEAS,19/1/2018 03:46:15.492,7.0,Serving,LTE FDD 2600 band 7,3150.0,128.0,-67.0,-93.0,-9.0,,110.0,101.567421,3.0985080000000003
188,18Jan19 034247_CS_PS_NKVE HIGHWAY_BUKIT JELUTONG-SUBANG JAYA_OPEN MODE_LC_SC_DL_UL_01,CELLMEAS,19/1/2018 03:46:16.492,7.0,Serving,LTE FDD 2600 band 7,3150.0,128.0,-65.0,-91.0,-9.0,,105.0,101.56755799999999,3.098585
189,18Jan19 034247_CS_PS_NKVE HIGHWAY_BUKIT JELUTONG-SUBANG JAYA_OPEN MODE_LC_SC_DL_UL_01,CELLMEAS,19/1/2018 03:46:17.508,7.0,Serving,LTE FDD 2600 band 7,3150.0,128.0,-60.0,-85.0,-6.0,,103.0,101.56770300000001,3.0986580000000004
190,18Jan19 034247_CS_PS_NKVE HIGHWAY_BUKIT JELUTONG-SUBANG JAYA_OPEN MODE_LC_SC_DL_UL_01,CELLMEAS,19/1/2018 03:46:18.492,7.0,Serving,LTE FDD 2600 band 7,3150.0,128.0,-61.0,-86.0,-6.0,,104.0,101.567848,3.0987299999999998
191,18Jan19 034247_CS_PS_NKVE HIGHWAY_BUKIT JELUTONG-SUBANG JAYA_OPEN MODE_LC_SC_DL_UL_01,CELLMEAS,19/1/2018 03:46:19.509,7.0,Serving,LTE FDD 2600 band 7,3150.0,128.0,-59.0,-85.0,-6.0,,107.0,101.567993,3.098798
192,18Jan19 034247_CS_PS_NKVE HIGHWAY_BUKIT JELUTONG-SUBANG JAYA_OPEN MODE_LC_SC_DL_UL_01,CELLMEAS,19/1/2018 03:46:20.495,7.0,Serving,LTE FDD 2600 band 7,3150.0,128.0,-58.0,-84.0,-6.0,,103.0,101.56813000000001,3.098865
193,18Jan19 034247_CS_PS_NKVE HIGHWAY_BUKIT JELUTONG-SUBANG JAYA_OPEN MODE_LC_SC_DL_UL_01,CELLMEAS,19/1/2018 03:46:21.498,7.0,Serving,LTE FDD 2600 band 7,3150.0,128.0,-57.0,-86.0,-8.0,,102.0,101.568275,3.098927
194,18Jan19 034247_CS_PS_NKVE HIGHWAY_BUKIT JELUTONG-SUBANG JAYA_OPEN MODE_LC_SC_DL_UL_01,CELLMEAS,19/1/2018 03:46:22.499,7.0,Serving,LTE FDD 2600 band 7,3150.0,128.0,-49.0,-76.0,-6.0,,92.0,101.568413,3.0989869999999997
195,18Jan19 034247_CS_PS_NKVE HIGHWAY_BUKIT JELUTONG-SUBANG JAYA_OPEN MODE_LC_SC_DL_UL_01,CELLMEAS,19/1/2018 03:46:23.497,7.0,Serving,LTE FDD 2600 band 7,3150.0,128.0,-47.0,-76.0,-8.0,,93.0,101.56855,3.0990450000000003
196,18Jan19 034247_CS_PS_NKVE HIGHWAY_BUKIT JELUTONG-SUBANG JAYA_OPEN MODE_LC_SC_DL_UL_01,CELLMEAS,19/1/2018 03:46:24.511,7.0,Serving,LTE FDD 2600 band 7,3150.0,128.0,-56.0,-85.0,-8.0,,104.0,101.56869499999999,3.099098
197,18Jan19 034247_CS_PS_NKVE HIGHWAY_BUKIT JELUTONG-SUBANG JAYA_OPEN MODE_LC_SC_DL_UL_01,CELLMEAS,19/1/2018 03:46:25.513,7.0,Serving,LTE FDD 2600 band 7,3150.0,128.0,-58.0,-87.0,-9.0,,107.0,101.568832,3.09915
198,18Jan19 034247_CS_PS_NKVE HIGHWAY_BUKIT JELUTONG-SUBANG JAYA_OPEN MODE_LC_SC_DL_UL_01,CELLMEAS,19/1/2018 03:46:26.512,7.0,Serving,LTE FDD 2600 band 7,3150.0,128.0,-62.0,-90.0,-9.0,,111.0,101.568977,3.099202
199,18Jan19 034247_CS_PS_NKVE HIGHWAY_BUKIT JELUTONG-SUBANG JAYA_OPEN MODE_LC_SC_DL_UL_01,CELLMEAS,19/1/2018 03:46:27.514,7.0,Serving,LTE FDD 2600 band 7,3150.0,128.0,-58.0,-88.0,-9.0,,106.0,101.569115,3.09925
200,18Jan19 034247_CS_PS_NKVE HIGHWAY_BUKIT JELUTONG-SUBANG JAYA_OPEN MODE_LC_SC_DL_UL_01,CELLMEAS,19/1/2018 03:46:28.514,7.0,Serving,LTE FDD 2600 band 7,3150.0,128.0,-65.0,-94.0,-9.0,,112.0,101.56926,3.099298
201,18Jan19 034247_CS_PS_NKVE HIGHWAY_BUKIT JELUTONG-SUBANG JAYA_OPEN MODE_LC_SC_DL_UL_01,CELLMEAS,19/1/2018 03:46:29.512,7.0,Serving,LTE FDD 2600 band 7,3150.0,128.0,-67.0,-96.0,-10.0,,110.0,101.569397,3.099343
202,18Jan19 034247_CS_PS_NKVE HIGHWAY_BUKIT JELUTONG-SUBANG JAYA_OPEN MODE_LC_SC_DL_UL_01,CELLMEAS,19/1/2018 03:46:30.513,7.0,Serving,LTE FDD 2600 band 7,3150.0,128.0,-66.0,-94.0,-10.0,,115.0,101.569542,3.099387
203,18Jan19 034247_CS_PS_NKVE HIGHWAY_BUKIT JELUTONG-SUBANG JAYA_OPEN MODE_LC_SC_DL_UL_01,CELLMEAS,19/1/2018 03:46:31.515,7.0,Serving,LTE FDD 2600 band 7,3150.0,128.0,-68.0,-96.0,-10.0,,115.0,101.56967900000001,3.099428
204,18Jan19 034247_CS_PS_NKVE HIGHWAY_BUKIT JELUTONG-SUBANG JAYA_OPEN MODE_LC_SC_DL_UL_01,CELLMEAS,19/1/2018 03:46:32.514,7.0,Serving,LTE FDD 2600 band 7,3150.0,128.0,-68.0,-95.0,-9.0,,113.0,101.569824,3.099468
205,18Jan19 034247_CS_PS_NKVE HIGHWAY_BUKIT JELUTONG-SUBANG JAYA_OPEN MODE_LC_SC_DL_UL_01,CELLMEAS,19/1/2018 03:46:33.514,7.0,Serving,LTE FDD 2600 band 7,3150.0,128.0,-68.0,-93.0,-9.0,,114.0,101.569969,3.099507
206,18Jan19 034247_CS_PS_NKVE HIGHWAY_BUKIT JELUTONG-SUBANG JAYA_OPEN MODE_LC_SC_DL_UL_01,CELLMEAS,19/1/2018 03:46:34.515,7.0,Serving,LTE FDD 2600 band 7,3150.0,128.0,-66.0,-92.0,-9.0,,114.0,101.570114,3.099543
207,18Jan19 034247_CS_PS_NKVE HIGHWAY_BUKIT JELUTONG-SUBANG JAYA_OPEN MODE_LC_SC_DL_UL_01,CELLMEAS,19/1/2018 03:46:35.517,7.0,Serving,LTE FDD 2600 band 7,3150.0,128.0,-65.0,-92.0,-9.0,,110.0,101.570259,3.099577
208,18Jan19 034247_CS_PS_NKVE HIGHWAY_BUKIT JELUTONG-SUBANG JAYA_OPEN MODE_LC_SC_DL_UL_01,CELLMEAS,19/1/2018 03:46:36.518,7.0,Serving,LTE FDD 2600 band 7,3150.0,128.0,-64.0,-91.0,-9.0,,108.0,101.57040400000001,3.0996080000000004
209,18Jan19 034247_CS_PS_NKVE HIGHWAY_BUKIT JELUTONG-SUBANG JAYA_OPEN MODE_LC_SC_DL_UL_01,CELLMEAS,19/1/2018 03:46:37.525,7.0,Serving,LTE FDD 2600 band 7,3150.0,128.0,-64.0,-91.0,-9.0,,106.0,101.570549,3.09964
210,18Jan19 034247_CS_PS_NKVE HIGHWAY_BUKIT JELUTONG-SUBANG JAYA_OPEN MODE_LC_SC_DL_UL_01,CELLMEAS,19/1/2018 03:46:38.529,7.0,Serving,LTE FDD 2600 band 7,3150.0,128.0,-54.0,-83.0,-8.0,,99.0,101.570702,3.0996669999999997
211,18Jan19 034247_CS_PS_NKVE HIGHWAY_BUKIT JELUTONG-SUBANG JAYA_OPEN MODE_LC_SC_DL_UL_01,CELLMEAS,19/1/2018 03:46:39.530,7.0,Serving,LTE FDD 2600 band 7,3150.0,128.0,-51.0,-79.0,-8.0,,97.0,101.570854,3.0996919999999997
212,18Jan19 034247_CS_PS_NKVE HIGHWAY_BUKIT JELUTONG-SUBANG JAYA_OPEN MODE_LC_SC_DL_UL_01,CELLMEAS,19/1/2018 03:46:40.532,7.0,Serving,LTE FDD 2600 band 7,3150.0,128.0,-48.0,-77.0,-8.0,,99.0,101.571007,3.099713
213,18Jan19 034247_CS_PS_NKVE HIGHWAY_BUKIT JELUTONG-SUBANG JAYA_OPEN MODE_LC_SC_DL_UL_01,CELLMEAS,19/1/2018 03:46:41.528,7.0,Serving,LTE FDD 2600 band 7,3150.0,128.0,-59.0,-89.0,-9.0,,107.0,101.571167,3.099732
214,18Jan19 034247_CS_PS_NKVE HIGHWAY_BUKIT JELUTONG-SUBANG JAYA_OPEN MODE_LC_SC_DL_UL_01,CELLMEAS,19/1/2018 03:46:42.530,7.0,Serving,LTE FDD 2600 band 7,3150.0,128.0,-58.0,-87.0,-9.0,,107.0,101.57132,3.099752
215,18Jan19 034247_CS_PS_NKVE HIGHWAY_BUKIT JELUTONG-SUBANG JAYA_OPEN MODE_LC_SC_DL_UL_01,CELLMEAS,19/1/2018 03:46:43.530,7.0,Serving,LTE FDD 2600 band 7,3150.0,128.0,-61.0,-90.0,-9.0,,110.0,101.57148000000001,3.099768
216,18Jan19 034247_CS_PS_NKVE HIGHWAY_BUKIT JELUTONG-SUBANG JAYA_OPEN MODE_LC_SC_DL_UL_01,CELLMEAS,19/1/2018 03:46:44.530,7.0,Serving,LTE FDD 2600 band 7,3150.0,128.0,-63.0,-92.0,-9.0,,111.0,101.57164,3.099783
217,18Jan19 034247_CS_PS_NKVE HIGHWAY_BUKIT JELUTONG-SUBANG JAYA_OPEN MODE_LC_SC_DL_UL_01,CELLMEAS,19/1/2018 03:46:45.532,7.0,Serving,LTE FDD 2600 band 7,3150.0,128.0,-63.0,-92.0,-9.0,,110.0,101.5718,3.099798
218,18Jan19 034247_CS_PS_NKVE HIGHWAY_BUKIT JELUTONG-SUBANG JAYA_OPEN MODE_LC_SC_DL_UL_01,CELLMEAS,19/1/2018 03:46:46.536,7.0,Serving,LTE FDD 2600 band 7,3150.0,128.0,-65.0,-95.0,-9.0,,112.0,101.57196,3.099815
219,18Jan19 034247_CS_PS_NKVE HIGHWAY_BUKIT JELUTONG-SUBANG JAYA_OPEN MODE_LC_SC_DL_UL_01,CELLMEAS,19/1/2018 03:46:47.535,7.0,Serving,LTE FDD 2600 band 7,3150.0,128.0,-69.0,-97.0,-9.0,,115.0,101.572121,3.099832
220,18Jan19 034247_CS_PS_NKVE HIGHWAY_BUKIT JELUTONG-SUBANG JAYA_OPEN MODE_LC_SC_DL_UL_01,CELLMEAS,19/1/2018 03:46:48.536,7.0,Serving,LTE FDD 2600 band 7,3150.0,128.0,-70.0,-99.0,-9.0,,117.0,101.572281,3.099848
221,18Jan19 034247_CS_PS_NKVE HIGHWAY_BUKIT JELUTONG-SUBANG JAYA_OPEN MODE_LC_SC_DL_UL_01,CELLMEAS,19/1/2018 03:46:49.537,7.0,Serving,LTE FDD 2600 band 7,3150.0,128.0,-70.0,-99.0,-10.0,,119.0,101.572441,3.099868
222,18Jan19 034247_CS_PS_NKVE HIGHWAY_BUKIT JELUTONG-SUBANG JAYA_OPEN MODE_LC_SC_DL_UL_01,CELLMEAS,19/1/2018 03:46:50.537,7.0,Serving,LTE FDD 2600 band 7,3150.0,128.0,-71.0,-100.0,-10.0,,116.0,101.572601,3.099885
223,18Jan19 034247_CS_PS_NKVE HIGHWAY_BUKIT JELUTONG-SUBANG JAYA_OPEN MODE_LC_SC_DL_UL_01,CELLMEAS,19/1/2018 03:46:51.537,7.0,Serving,LTE FDD 2600 band 7,3150.0,128.0,-66.0,-96.0,-8.0,,118.0,101.572762,3.099902
224,18Jan19 034247_CS_PS_NKVE HIGHWAY_BUKIT JELUTONG-SUBANG JAYA_OPEN MODE_LC_SC_DL_UL_01,CELLMEAS,19/1/2018 03:46:52.536,7.0,Serving,LTE FDD 2600 band 7,3150.0,128.0,-72.0,-102.0,-10.0,,120.0,101.572929,3.099918
225,18Jan19 034247_CS_PS_NKVE HIGHWAY_BUKIT JELUTONG-SUBANG JAYA_OPEN MODE_LC_SC_DL_UL_01,CELLMEAS,19/1/2018 03:46:53.536,7.0,Serving,LTE FDD 2600 band 7,3150.0,128.0,-71.0,-101.0,-10.0,,122.0,101.57309000000001,3.099935
226,18Jan19 034247_CS_PS_NKVE HIGHWAY_BUKIT JELUTONG-SUBANG JAYA_OPEN MODE_LC_SC_DL_UL_01,CELLMEAS,19/1/2018 03:46:54.536,7.0,Serving,LTE FDD 2600 band 7,3150.0,128.0,-74.0,-104.0,-11.0,,124.0,101.57325,3.099952
227,18Jan19 034247_CS_PS_NKVE HIGHWAY_BUKIT JELUTONG-SUBANG JAYA_OPEN MODE_LC_SC_DL_UL_01,CELLMEAS,19/1/2018 03:46:55.535,7.0,Serving,LTE FDD 2600 band 7,3150.0,127.0,-73.5,-103.5,-11.5,,123.5,101.573418,3.099968
228,18Jan19 034247_CS_PS_NKVE HIGHWAY_BUKIT JELUTONG-SUBANG JAYA_OPEN MODE_LC_SC_DL_UL_01,CELLMEAS,19/1/2018 03:46:56.538,7.0,Serving,LTE FDD 2600 band 7,3150.0,126.0,-74.0,-102.0,-11.0,,121.0,101.573578,3.0999849999999998
229,18Jan19 034247_CS_PS_NKVE HIGHWAY_BUKIT JELUTONG-SUBANG JAYA_OPEN MODE_LC_SC_DL_UL_01,CELLMEAS,19/1/2018 03:46:57.536,7.0,Serving,LTE FDD 2600 band 7,3150.0,126.0,-74.0,-101.0,-11.0,,121.0,101.573746,3.100002
230,18Jan19 034247_CS_PS_NKVE HIGHWAY_BUKIT JELUTONG-SUBANG JAYA_OPEN MODE_LC_SC_DL_UL_01,CELLMEAS,19/1/2018 03:46:58.540,7.0,Serving,LTE FDD 2600 band 7,3150.0,126.0,-72.0,-100.0,-11.0,,121.0,101.573914,3.100018
231,18Jan19 034247_CS_PS_NKVE HIGHWAY_BUKIT JELUTONG-SUBANG JAYA_OPEN MODE_LC_SC_DL_UL_01,CELLMEAS,19/1/2018 03:46:59.538,7.0,Serving,LTE FDD 2600 band 7,3150.0,126.0,-72.0,-98.0,-10.0,,118.0,101.574081,3.1000349999999997
232,18Jan19 034247_CS_PS_NKVE HIGHWAY_BUKIT JELUTONG-SUBANG JAYA_OPEN MODE_LC_SC_DL_UL_01,CELLMEAS,19/1/2018 03:47:00.540,7.0,Serving,LTE FDD 2600 band 7,3150.0,126.0,-70.0,-97.0,-10.0,,117.0,101.574242,3.1000520000000003
233,18Jan19 034247_CS_PS_NKVE HIGHWAY_BUKIT JELUTONG-SUBANG JAYA_OPEN MODE_LC_SC_DL_UL_01,CELLMEAS,19/1/2018 03:47:01.542,7.0,Serving,LTE FDD 2600 band 7,3150.0,126.0,-70.0,-94.0,-10.0,,118.0,101.57441700000001,3.100068
234,18Jan19 034247_CS_PS_NKVE HIGHWAY_BUKIT JELUTONG-SUBANG JAYA_OPEN MODE_LC_SC_DL_UL_01,CELLMEAS,19/1/2018 03:47:02.539,7.0,Serving,LTE FDD 2600 band 7,3150.0,126.0,-69.0,-94.0,-10.0,,116.0,101.574577,3.100085
235,18Jan19 034247_CS_PS_NKVE HIGHWAY_BUKIT JELUTONG-SUBANG JAYA_OPEN MODE_LC_SC_DL_UL_01,CELLMEAS,19/1/2018 03:47:03.544,7.0,Serving,LTE FDD 2600 band 7,3150.0,126.0,-67.0,-92.0,-10.0,,113.0,101.574753,3.100102
236,18Jan19 034247_CS_PS_NKVE HIGHWAY_BUKIT JELUTONG-SUBANG JAYA_OPEN MODE_LC_SC_DL_UL_01,CELLMEAS,19/1/2018 03:47:04.545,7.0,Serving,LTE FDD 2600 band 7,3150.0,126.0,-66.0,-91.0,-10.0,,110.0,101.574921,3.100118
237,18Jan19 034247_CS_PS_NKVE HIGHWAY_BUKIT JELUTONG-SUBANG JAYA_OPEN MODE_LC_SC_DL_UL_01,CELLMEAS,19/1/2018 03:47:05.460,7.0,Serving,LTE FDD 2600 band 7,3150.0,126.0,-64.0,-89.0,-10.0,,112.0,101.575089,3.1001369999999997
238,18Jan19 034247_CS_PS_NKVE HIGHWAY_BUKIT JELUTONG-SUBANG JAYA_OPEN MODE_LC_SC_DL_UL_01,CELLMEAS,19/1/2018 03:47:06.460,7.0,Serving,LTE FDD 2600 band 7,3150.0,126.0,-62.5,-88.0,-9.0,,109.5,101.57525600000001,3.100155
239,18Jan19 034247_CS_PS_NKVE HIGHWAY_BUKIT JELUTONG-SUBANG JAYA_OPEN MODE_LC_SC_DL_UL_01,CELLMEAS,19/1/2018 03:47:08.460,7.0,Serving,LTE FDD 2600 band 7,3150.0,126.0,-60.0,-87.0,-9.0,,108.0,101.57543199999999,3.100173
240,18Jan19 034247_CS_PS_NKVE HIGHWAY_BUKIT JELUTONG-SUBANG JAYA_OPEN MODE_LC_SC_DL_UL_01,CELLMEAS,19/1/2018 03:47:09.461,7.0,Serving,LTE FDD 2600 band 7,3150.0,126.0,-62.0,-87.0,-9.0,,106.0,101.575783,3.1002099999999997
241,18Jan19 034247_CS_PS_NKVE HIGHWAY_BUKIT JELUTONG-SUBANG JAYA_OPEN MODE_LC_SC_DL_UL_01,CELLMEAS,19/1/2018 03:47:10.466,7.0,Serving,LTE FDD 2600 band 7,3150.0,126.0,-59.0,-86.0,-9.0,,99.0,101.575958,3.100228
242,18Jan19 034247_CS_PS_NKVE HIGHWAY_BUKIT JELUTONG-SUBANG JAYA_OPEN MODE_LC_SC_DL_UL_01,CELLMEAS,19/1/2018 03:47:11.462,7.0,Serving,LTE FDD 2600 band 7,3150.0,126.0,-57.0,-82.0,-9.0,,100.0,101.576134,3.100245
243,18Jan19 034247_CS_PS_NKVE HIGHWAY_BUKIT JELUTONG-SUBANG JAYA_OPEN MODE_LC_SC_DL_UL_01,CELLMEAS,19/1/2018 03:47:12.463,7.0,Serving,LTE FDD 2600 band 7,3150.0,126.0,-49.0,-79.0,-9.0,,97.0,101.576317,3.10026
244,18Jan19 034247_CS_PS_NKVE HIGHWAY_BUKIT JELUTONG-SUBANG JAYA_OPEN MODE_LC_SC_DL_UL_01,CELLMEAS,19/1/2018 03:47:13.464,7.0,Serving,LTE FDD 2600 band 7,3150.0,126.0,-50.0,-80.0,-10.0,,100.0,101.5765,3.100277
245,18Jan19 034247_CS_PS_NKVE HIGHWAY_BUKIT JELUTONG-SUBANG JAYA_OPEN MODE_LC_SC_DL_UL_01,CELLMEAS,19/1/2018 03:47:14.466,7.0,Serving,LTE FDD 2600 band 7,3150.0,126.0,-53.0,-82.0,-9.0,,99.0,101.576683,3.100295
246,18Jan19 034247_CS_PS_NKVE HIGHWAY_BUKIT JELUTONG-SUBANG JAYA_OPEN MODE_LC_SC_DL_UL_01,CELLMEAS,19/1/2018 03:47:15.471,7.0,Serving,LTE FDD 2600 band 7,3150.0,126.0,-55.0,-82.0,-9.0,,104.0,101.57686600000001,3.1003119999999997
247,18Jan19 034247_CS_PS_NKVE HIGHWAY_BUKIT JELUTONG-SUBANG JAYA_OPEN MODE_LC_SC_DL_UL_01,CELLMEAS,19/1/2018 03:47:16.470,7.0,Serving,LTE FDD 2600 band 7,3150.0,126.0,-58.0,-84.0,-9.0,,104.0,101.577057,3.10033
248,18Jan19 034247_CS_PS_NKVE HIGHWAY_BUKIT JELUTONG-SUBANG JAYA_OPEN MODE_LC_SC_DL_UL_01,CELLMEAS,19/1/2018 03:47:17.473,7.0,Serving,LTE FDD 2600 band 7,3150.0,126.0,-59.0,-85.0,-9.0,,107.0,101.57724,3.100348
249,18Jan19 034247_CS_PS_NKVE HIGHWAY_BUKIT JELUTONG-SUBANG JAYA_OPEN MODE_LC_SC_DL_UL_01,CELLMEAS,19/1/2018 03:47:18.474,7.0,Serving,LTE FDD 2600 band 7,3150.0,126.0,-61.0,-86.0,-9.0,,106.0,101.577431,3.100365
250,18Jan19 034247_CS_PS_NKVE HIGHWAY_BUKIT JELUTONG-SUBANG JAYA_OPEN MODE_LC_SC_DL_UL_01,CELLMEAS,19/1/2018 03:47:19.477,7.0,Serving,LTE FDD 2600 band 7,3150.0,126.0,-59.0,-85.0,-9.0,,107.0,101.577621,3.1003819999999997
251,18Jan19 034247_CS_PS_NKVE HIGHWAY_BUKIT JELUTONG-SUBANG JAYA_OPEN MODE_LC_SC_DL_UL_01,CELLMEAS,19/1/2018 03:47:20.478,7.0,Serving,LTE FDD 2600 band 7,3150.0,126.0,-62.0,-88.0,-9.0,,109.0,101.577812,3.100402
252,18Jan19 034247_CS_PS_NKVE HIGHWAY_BUKIT JELUTONG-SUBANG JAYA_OPEN MODE_LC_SC_DL_UL_01,CELLMEAS,19/1/2018 03:47:21.481,7.0,Serving,LTE FDD 2600 band 7,3150.0,126.0,-61.5,-88.0,-9.0,,107.5,101.57800300000001,3.10042
253,18Jan19 034247_CS_PS_NKVE HIGHWAY_BUKIT JELUTONG-SUBANG JAYA_OPEN MODE_LC_SC_DL_UL_01,CELLMEAS,19/1/2018 03:47:23.481,7.0,Serving,LTE FDD 2600 band 7,3150.0,126.0,-62.0,-89.0,-9.0,,111.0,101.578201,3.100438
254,18Jan19 034247_CS_PS_NKVE HIGHWAY_BUKIT JELUTONG-SUBANG JAYA_OPEN MODE_LC_SC_DL_UL_01,CELLMEAS,19/1/2018 03:47:24.483,7.0,Serving,LTE FDD 2600 band 7,3150.0,126.0,-64.0,-90.0,-9.0,,111.0,101.57859,3.100478
255,18Jan19 034247_CS_PS_NKVE HIGHWAY_BUKIT JELUTONG-SUBANG JAYA_OPEN MODE_LC_SC_DL_UL_01,CELLMEAS,19/1/2018 03:47:25.483,7.0,Serving,LTE FDD 2600 band 7,3150.0,126.0,-66.0,-91.0,-6.0,,111.0,101.578789,3.1005
256,18Jan19 034247_CS_PS_NKVE HIGHWAY_BUKIT JELUTONG-SUBANG JAYA_OPEN MODE_LC_SC_DL_UL_01,CELLMEAS,19/1/2018 03:47:26.480,7.0,Serving,LTE FDD 2600 band 7,3150.0,126.0,-66.0,-93.0,-8.0,,111.0,101.578987,3.1005220000000002
257,18Jan19 034247_CS_PS_NKVE HIGHWAY_BUKIT JELUTONG-SUBANG JAYA_OPEN MODE_LC_SC_DL_UL_01,CELLMEAS,19/1/2018 03:47:27.482,7.0,Serving,LTE FDD 2600 band 7,3150.0,126.0,-66.0,-95.0,-10.0,,112.0,101.579185,3.100542
258,18Jan19 034247_CS_PS_NKVE HIGHWAY_BUKIT JELUTONG-SUBANG JAYA_OPEN MODE_LC_SC_DL_UL_01,CELLMEAS,19/1/2018 03:47:28.483,7.0,Serving,LTE FDD 2600 band 7,3150.0,126.0,-65.0,-94.0,-9.0,,109.0,101.579391,3.1005599999999998
259,18Jan19 034247_CS_PS_NKVE HIGHWAY_BUKIT JELUTONG-SUBANG JAYA_OPEN MODE_LC_SC_DL_UL_01,CELLMEAS,19/1/2018 03:47:29.489,7.0,Serving,LTE FDD 2600 band 7,3150.0,126.0,-67.0,-95.0,-9.0,,115.0,101.57959,3.100582
260,18Jan19 034247_CS_PS_NKVE HIGHWAY_BUKIT JELUTONG-SUBANG JAYA_OPEN MODE_LC_SC_DL_UL_01,CELLMEAS,19/1/2018 03:47:30.485,7.0,Serving,LTE FDD 2600 band 7,3150.0,126.0,-67.0,-95.0,-10.0,,113.0,101.579788,3.100602
261,18Jan19 034247_CS_PS_NKVE HIGHWAY_BUKIT JELUTONG-SUBANG JAYA_OPEN MODE_LC_SC_DL_UL_01,CELLMEAS,19/1/2018 03:47:31.484,7.0,Serving,LTE FDD 2600 band 7,3150.0,163.0,-65.5,-93.5,-10.0,,114.5,101.579994,3.100622
262,18Jan19 034247_CS_PS_NKVE HIGHWAY_BUKIT JELUTONG-SUBANG JAYA_OPEN MODE_LC_SC_DL_UL_01,CELLMEAS,19/1/2018 03:47:32.491,7.0,Serving,LTE FDD 2600 band 7,3150.0,163.0,-64.5,-92.5,-10.5,,115.5,101.580185,3.100645
263,18Jan19 034247_CS_PS_NKVE HIGHWAY_BUKIT JELUTONG-SUBANG JAYA_OPEN MODE_LC_SC_DL_UL_01,CELLMEAS,19/1/2018 03:47:33.493,7.0,Serving,LTE FDD 2600 band 7,3150.0,126.0,-65.0,-90.0,-10.0,,112.0,101.580383,3.1006720000000003
264,18Jan19 034247_CS_PS_NKVE HIGHWAY_BUKIT JELUTONG-SUBANG JAYA_OPEN MODE_LC_SC_DL_UL_01,CELLMEAS,19/1/2018 03:47:34.492,7.0,Serving,LTE FDD 2600 band 7,3150.0,126.0,-64.0,-94.0,-9.0,,112.0,101.58058199999999,3.1007
265,18Jan19 034247_CS_PS_NKVE HIGHWAY_BUKIT JELUTONG-SUBANG JAYA_OPEN MODE_LC_SC_DL_UL_01,CELLMEAS,19/1/2018 03:47:35.092,7.0,Serving,LTE FDD 2600 band 7,3150.0,126.0,-67.0,-96.0,-11.0,,113.0,101.580772,3.100735
266,18Jan19 034247_CS_PS_NKVE HIGHWAY_BUKIT JELUTONG-SUBANG JAYA_OPEN MODE_LC_SC_DL_UL_01,CELLMEAS,19/1/2018 03:47:35.993,7.0,Serving,LTE FDD 2600 band 7,3150.0,200.0,-61.0,-86.0,-6.0,,102.0,101.58097099999999,3.100775
267,18Jan19 034247_CS_PS_NKVE HIGHWAY_BUKIT JELUTONG-SUBANG JAYA_OPEN MODE_LC_SC_DL_UL_01,CELLMEAS,19/1/2018 03:47:37.495,7.0,Serving,LTE FDD 2600 band 7,3150.0,200.0,-56.0,-82.0,-8.0,,105.0,101.581161,3.100822
268,18Jan19 034247_CS_PS_NKVE HIGHWAY_BUKIT JELUTONG-SUBANG JAYA_OPEN MODE_LC_SC_DL_UL_01,CELLMEAS,19/1/2018 03:47:38.494,7.0,Serving,LTE FDD 2600 band 7,3150.0,200.0,-60.0,-85.0,-9.0,,104.0,101.581345,3.100877
269,18Jan19 034247_CS_PS_NKVE HIGHWAY_BUKIT JELUTONG-SUBANG JAYA_OPEN MODE_LC_SC_DL_UL_01,CELLMEAS,19/1/2018 03:47:39.496,7.0,Serving,LTE FDD 2600 band 7,3150.0,200.0,-58.0,-82.0,-8.0,,104.0,101.581535,3.100937
270,18Jan19 034247_CS_PS_NKVE HIGHWAY_BUKIT JELUTONG-SUBANG JAYA_OPEN MODE_LC_SC_DL_UL_01,CELLMEAS,19/1/2018 03:47:40.497,7.0,Serving,LTE FDD 2600 band 7,3150.0,200.0,-59.0,-80.0,-9.0,,101.0,101.58171800000001,3.101003
271,18Jan19 034247_CS_PS_NKVE HIGHWAY_BUKIT JELUTONG-SUBANG JAYA_OPEN MODE_LC_SC_DL_UL_01,CELLMEAS,19/1/2018 03:47:41.500,7.0,Serving,LTE FDD 2600 band 7,3150.0,200.0,-54.0,-77.0,-9.0,,99.0,101.581902,3.1010720000000003
272,18Jan19 034247_CS_PS_NKVE HIGHWAY_BUKIT JELUTONG-SUBANG JAYA_OPEN MODE_LC_SC_DL_UL_01,CELLMEAS,19/1/2018 03:47:42.495,7.0,Serving,LTE FDD 2600 band 7,3150.0,200.0,-54.0,-76.0,-9.0,,100.0,101.58208499999999,3.101148
273,18Jan19 034247_CS_PS_NKVE HIGHWAY_BUKIT JELUTONG-SUBANG JAYA_OPEN MODE_LC_SC_DL_UL_01,CELLMEAS,19/1/2018 03:47:43.497,7.0,Serving,LTE FDD 2600 band 7,3150.0,200.0,-52.0,-75.0,-9.0,,100.0,101.58225999999999,3.1012299999999997
274,18Jan19 034247_CS_PS_NKVE HIGHWAY_BUKIT JELUTONG-SUBANG JAYA_OPEN MODE_LC_SC_DL_UL_01,CELLMEAS,19/1/2018 03:47:44.499,7.0,Serving,LTE FDD 2600 band 7,3150.0,200.0,-57.0,-76.0,-8.0,,103.0,101.58242800000001,3.101318
275,18Jan19 034247_CS_PS_NKVE HIGHWAY_BUKIT JELUTONG-SUBANG JAYA_OPEN MODE_LC_SC_DL_UL_01,CELLMEAS,19/1/2018 03:47:45.504,7.0,Serving,LTE FDD 2600 band 7,3150.0,200.0,-58.0,-79.0,-9.0,,106.0,101.582596,3.10141
276,18Jan19 034247_CS_PS_NKVE HIGHWAY_BUKIT JELUTONG-SUBANG JAYA_OPEN MODE_LC_SC_DL_UL_01,CELLMEAS,19/1/2018 03:47:46.504,7.0,Serving,LTE FDD 2600 band 7,3150.0,200.0,-61.0,-80.0,-9.0,,109.0,101.582764,3.101505
277,18Jan19 034247_CS_PS_NKVE HIGHWAY_BUKIT JELUTONG-SUBANG JAYA_OPEN MODE_LC_SC_DL_UL_01,CELLMEAS,19/1/2018 03:47:47.509,7.0,Serving,LTE FDD 2600 band 7,3150.0,200.0,-59.0,-79.0,-9.0,,108.0,101.582932,3.1016
278,18Jan19 034247_CS_PS_NKVE HIGHWAY_BUKIT JELUTONG-SUBANG JAYA_OPEN MODE_LC_SC_DL_UL_01,CELLMEAS,19/1/2018 03:47:48.505,7.0,Serving,LTE FDD 2600 band 7,3150.0,200.0,-59.0,-81.0,-9.0,,108.0,101.58309200000001,3.101698
279,18Jan19 034247_CS_PS_NKVE HIGHWAY_BUKIT JELUTONG-SUBANG JAYA_OPEN MODE_LC_SC_DL_UL_01,CELLMEAS,19/1/2018 03:47:49.506,7.0,Serving,LTE FDD 2600 band 7,3150.0,200.0,-59.0,-80.0,-9.0,,105.0,101.583252,3.101795
280,18Jan19 034247_CS_PS_NKVE HIGHWAY_BUKIT JELUTONG-SUBANG JAYA_OPEN MODE_LC_SC_DL_UL_01,CELLMEAS,19/1/2018 03:47:50.507,7.0,Serving,LTE FDD 2600 band 7,3150.0,200.0,-58.0,-80.0,-9.0,,107.0,101.583412,3.101893
281,18Jan19 034247_CS_PS_NKVE HIGHWAY_BUKIT JELUTONG-SUBANG JAYA_OPEN MODE_LC_SC_DL_UL_01,CELLMEAS,19/1/2018 03:47:51.506,7.0,Serving,LTE FDD 2600 band 7,3150.0,200.0,-60.0,-82.0,-9.0,,106.0,101.583572,3.1019930000000002
282,18Jan19 034247_CS_PS_NKVE HIGHWAY_BUKIT JELUTONG-SUBANG JAYA_OPEN MODE_LC_SC_DL_UL_01,CELLMEAS,19/1/2018 03:47:52.509,7.0,Serving,LTE FDD 2600 band 7,3150.0,200.0,-55.0,-80.0,-9.0,,103.0,101.583733,3.10209
283,18Jan19 034247_CS_PS_NKVE HIGHWAY_BUKIT JELUTONG-SUBANG JAYA_OPEN MODE_LC_SC_DL_UL_01,CELLMEAS,19/1/2018 03:47:53.508,7.0,Serving,LTE FDD 2600 band 7,3150.0,200.0,-56.0,-82.0,-9.0,,99.0,101.583893,3.1021900000000002
284,18Jan19 034247_CS_PS_NKVE HIGHWAY_BUKIT JELUTONG-SUBANG JAYA_OPEN MODE_LC_SC_DL_UL_01,CELLMEAS,19/1/2018 03:47:54.510,7.0,Serving,LTE FDD 2600 band 7,3150.0,200.0,-49.0,-75.0,-10.0,,93.0,101.584053,3.102288
285,18Jan19 034247_CS_PS_NKVE HIGHWAY_BUKIT JELUTONG-SUBANG JAYA_OPEN MODE_LC_SC_DL_UL_01,CELLMEAS,19/1/2018 03:47:55.509,7.0,Serving,LTE FDD 2600 band 7,3150.0,200.0,-47.0,-69.0,-9.0,,90.0,101.58420600000001,3.102387
286,18Jan19 034247_CS_PS_NKVE HIGHWAY_BUKIT JELUTONG-SUBANG JAYA_OPEN MODE_LC_SC_DL_UL_01,CELLMEAS,19/1/2018 03:47:56.513,7.0,Serving,LTE FDD 2600 band 7,3150.0,200.0,-45.0,-68.0,-9.0,,89.0,101.584366,3.1024830000000003
287,18Jan19 034247_CS_PS_NKVE HIGHWAY_BUKIT JELUTONG-SUBANG JAYA_OPEN MODE_LC_SC_DL_UL_01,CELLMEAS,19/1/2018 03:47:57.515,7.0,Serving,LTE FDD 2600 band 7,3150.0,200.0,-43.0,-68.0,-9.0,,88.0,101.584518,3.10258
288,18Jan19 034247_CS_PS_NKVE HIGHWAY_BUKIT JELUTONG-SUBANG JAYA_OPEN MODE_LC_SC_DL_UL_01,CELLMEAS,19/1/2018 03:47:58.525,7.0,Serving,LTE FDD 2600 band 7,3150.0,200.0,-41.0,-66.0,-9.0,,87.0,101.584671,3.102678
289,18Jan19 034247_CS_PS_NKVE HIGHWAY_BUKIT JELUTONG-SUBANG JAYA_OPEN MODE_LC_SC_DL_UL_01,CELLMEAS,19/1/2018 03:47:59.521,7.0,Serving,LTE FDD 2600 band 7,3150.0,200.0,-41.0,-65.0,-9.0,,87.0,101.584824,3.102775
290,18Jan19 034247_CS_PS_NKVE HIGHWAY_BUKIT JELUTONG-SUBANG JAYA_OPEN MODE_LC_SC_DL_UL_01,CELLMEAS,19/1/2018 03:48:00.523,7.0,Serving,LTE FDD 2600 band 7,3150.0,200.0,-45.0,-65.0,-5.0,,88.0,101.584976,3.102872
291,18Jan19 034247_CS_PS_NKVE HIGHWAY_BUKIT JELUTONG-SUBANG JAYA_OPEN MODE_LC_SC_DL_UL_01,CELLMEAS,19/1/2018 03:48:01.525,7.0,Serving,LTE FDD 2600 band 7,3150.0,200.0,-41.0,-67.0,-9.0,,88.0,101.58512900000001,3.102968
292,18Jan19 034247_CS_PS_NKVE HIGHWAY_BUKIT JELUTONG-SUBANG JAYA_OPEN MODE_LC_SC_DL_UL_01,CELLMEAS,19/1/2018 03:48:02.526,7.0,Serving,LTE FDD 2600 band 7,3150.0,200.0,-40.0,-67.0,-9.0,,88.0,101.585274,3.103067
293,18Jan19 034247_CS_PS_NKVE HIGHWAY_BUKIT JELUTONG-SUBANG JAYA_OPEN MODE_LC_SC_DL_UL_01,CELLMEAS,19/1/2018 03:48:03.528,7.0,Serving,LTE FDD 2600 band 7,3150.0,200.0,-43.0,-67.0,-9.0,,90.0,101.585426,3.1031619999999998
294,18Jan19 034247_CS_PS_NKVE HIGHWAY_BUKIT JELUTONG-SUBANG JAYA_OPEN MODE_LC_SC_DL_UL_01,CELLMEAS,19/1/2018 03:48:04.529,7.0,Serving,LTE FDD 2600 band 7,3150.0,200.0,-44.0,-68.0,-9.0,,93.0,101.585571,3.1032599999999997
295,18Jan19 034247_CS_PS_NKVE HIGHWAY_BUKIT JELUTONG-SUBANG JAYA_OPEN MODE_LC_SC_DL_UL_01,CELLMEAS,19/1/2018 03:48:05.531,7.0,Serving,LTE FDD 2600 band 7,3150.0,200.0,-46.0,-73.0,-10.0,,95.0,101.585716,3.103357
296,18Jan19 034247_CS_PS_NKVE HIGHWAY_BUKIT JELUTONG-SUBANG JAYA_OPEN MODE_LC_SC_DL_UL_01,CELLMEAS,19/1/2018 03:48:06.533,7.0,Serving,LTE FDD 2600 band 7,3150.0,200.0,-49.0,-77.0,-10.0,,94.0,101.585861,3.103453
297,18Jan19 034247_CS_PS_NKVE HIGHWAY_BUKIT JELUTONG-SUBANG JAYA_OPEN MODE_LC_SC_DL_UL_01,CELLMEAS,19/1/2018 03:48:07.534,7.0,Serving,LTE FDD 2600 band 7,3150.0,200.0,-45.0,-75.0,-10.0,,94.0,101.586014,3.103548
298,18Jan19 034247_CS_PS_NKVE HIGHWAY_BUKIT JELUTONG-SUBANG JAYA_OPEN MODE_LC_SC_DL_UL_01,CELLMEAS,19/1/2018 03:48:08.535,7.0,Serving,LTE FDD 2600 band 7,3150.0,200.0,-49.0,-79.0,-10.0,,92.0,101.586159,3.103643
299,18Jan19 034247_CS_PS_NKVE HIGHWAY_BUKIT JELUTONG-SUBANG JAYA_OPEN MODE_LC_SC_DL_UL_01,CELLMEAS,19/1/2018 03:48:09.542,7.0,Serving,LTE FDD 2600 band 7,3150.0,200.0,-40.0,-70.0,-10.0,,89.0,101.58629599999999,3.103738
300,18Jan19 034247_CS_PS_NKVE HIGHWAY_BUKIT JELUTONG-SUBANG JAYA_OPEN MODE_LC_SC_DL_UL_01,CELLMEAS,19/1/2018 03:48:10.541,7.0,Serving,LTE FDD 2600 band 7,3150.0,200.0,-45.0,-75.0,-9.0,,99.0,101.58644100000001,3.1038330000000003
301,18Jan19 034247_CS_PS_NKVE HIGHWAY_BUKIT JELUTONG-SUBANG JAYA_OPEN MODE_LC_SC_DL_UL_01,CELLMEAS,19/1/2018 03:48:11.545,7.0,Serving,LTE FDD 2600 band 7,3150.0,200.0,-57.0,-88.0,-12.0,,106.0,101.58659399999999,3.103925
302,18Jan19 034247_CS_PS_NKVE HIGHWAY_BUKIT JELUTONG-SUBANG JAYA_OPEN MODE_LC_SC_DL_UL_01,CELLMEAS,19/1/2018 03:48:12.540,7.0,Serving,LTE FDD 2600 band 7,3150.0,200.0,-52.0,-80.0,-9.0,,104.0,101.586739,3.104018
303,18Jan19 034247_CS_PS_NKVE HIGHWAY_BUKIT JELUTONG-SUBANG JAYA_OPEN MODE_LC_SC_DL_UL_01,CELLMEAS,19/1/2018 03:48:13.542,7.0,Serving,LTE FDD 2600 band 7,3150.0,199.0,-55.5,-84.0,-12.0,,104.5,101.586884,3.1041119999999998
304,18Jan19 034247_CS_PS_NKVE HIGHWAY_BUKIT JELUTONG-SUBANG JAYA_OPEN MODE_LC_SC_DL_UL_01,CELLMEAS,19/1/2018 03:48:14.541,7.0,Serving,LTE FDD 2600 band 7,3150.0,198.0,-55.0,-82.0,-10.0,,100.0,101.587029,3.104203
305,18Jan19 034247_CS_PS_NKVE HIGHWAY_BUKIT JELUTONG-SUBANG JAYA_OPEN MODE_LC_SC_DL_UL_01,CELLMEAS,19/1/2018 03:48:15.543,7.0,Serving,LTE FDD 2600 band 7,3150.0,198.0,-54.0,-82.0,-11.0,,103.0,101.58717299999999,3.1042970000000003
306,18Jan19 034247_CS_PS_NKVE HIGHWAY_BUKIT JELUTONG-SUBANG JAYA_OPEN MODE_LC_SC_DL_UL_01,CELLMEAS,19/1/2018 03:48:16.543,7.0,Serving,LTE FDD 2600 band 7,3150.0,198.0,-55.0,-84.0,-11.0,,102.0,101.587326,3.104388
307,18Jan19 034247_CS_PS_NKVE HIGHWAY_BUKIT JELUTONG-SUBANG JAYA_OPEN MODE_LC_SC_DL_UL_01,CELLMEAS,19/1/2018 03:48:17.540,7.0,Serving,LTE FDD 2600 band 7,3150.0,198.0,-52.0,-81.0,-10.0,,98.0,101.587471,3.10448
308,18Jan19 034247_CS_PS_NKVE HIGHWAY_BUKIT JELUTONG-SUBANG JAYA_OPEN MODE_LC_SC_DL_UL_01,CELLMEAS,19/1/2018 03:48:18.543,7.0,Serving,LTE FDD 2600 band 7,3150.0,198.0,-50.0,-79.0,-9.0,,97.0,101.58760799999999,3.104575
309,18Jan19 034247_CS_PS_NKVE HIGHWAY_BUKIT JELUTONG-SUBANG JAYA_OPEN MODE_LC_SC_DL_UL_01,CELLMEAS,19/1/2018 03:48:19.543,7.0,Serving,LTE FDD 2600 band 7,3150.0,198.0,-48.0,-77.0,-10.0,,91.0,101.587746,3.10467
310,18Jan19 034247_CS_PS_NKVE HIGHWAY_BUKIT JELUTONG-SUBANG JAYA_OPEN MODE_LC_SC_DL_UL_01,CELLMEAS,19/1/2018 03:48:20.542,7.0,Serving,LTE FDD 2600 band 7,3150.0,198.0,-48.0,-77.0,-9.0,,93.0,101.587875,3.104767
311,18Jan19 034247_CS_PS_NKVE HIGHWAY_BUKIT JELUTONG-SUBANG JAYA_OPEN MODE_LC_SC_DL_UL_01,CELLMEAS,19/1/2018 03:48:21.543,7.0,Serving,LTE FDD 2600 band 7,3150.0,198.0,-46.0,-76.0,-10.0,,96.0,101.58800500000001,3.104863
312,18Jan19 034247_CS_PS_NKVE HIGHWAY_BUKIT JELUTONG-SUBANG JAYA_OPEN MODE_LC_SC_DL_UL_01,CELLMEAS,19/1/2018 03:48:22.547,7.0,Serving,LTE FDD 2600 band 7,3150.0,198.0,-47.0,-76.0,-9.0,,91.0,101.588127,3.104963
313,18Jan19 034247_CS_PS_NKVE HIGHWAY_BUKIT JELUTONG-SUBANG JAYA_OPEN MODE_LC_SC_DL_UL_01,CELLMEAS,19/1/2018 03:48:23.542,7.0,Serving,LTE FDD 2600 band 7,3150.0,198.0,-48.0,-75.0,-9.0,,94.0,101.588234,3.105067
314,18Jan19 034247_CS_PS_NKVE HIGHWAY_BUKIT JELUTONG-SUBANG JAYA_OPEN MODE_LC_SC_DL_UL_01,CELLMEAS,19/1/2018 03:48:24.541,7.0,Serving,LTE FDD 2600 band 7,3150.0,198.0,-48.0,-78.0,-9.0,,94.0,101.588318,3.105182
315,18Jan19 034247_CS_PS_NKVE HIGHWAY_BUKIT JELUTONG-SUBANG JAYA_OPEN MODE_LC_SC_DL_UL_01,CELLMEAS,19/1/2018 03:48:25.542,7.0,Serving,LTE FDD 2600 band 7,3150.0,198.0,-52.0,-78.0,-9.0,,98.0,101.588387,3.105307
316,18Jan19 034247_CS_PS_NKVE HIGHWAY_BUKIT JELUTONG-SUBANG JAYA_OPEN MODE_LC_SC_DL_UL_01,CELLMEAS,19/1/2018 03:48:26.544,7.0,Serving,LTE FDD 2600 band 7,3150.0,198.0,-49.0,-78.0,-8.0,,105.0,101.588425,3.10544
317,18Jan19 034247_CS_PS_NKVE HIGHWAY_BUKIT JELUTONG-SUBANG JAYA_OPEN MODE_LC_SC_DL_UL_01,CELLMEAS,19/1/2018 03:48:27.544,7.0,Serving,LTE FDD 2600 band 7,3150.0,198.0,-58.0,-85.0,-9.0,,98.0,101.58844,3.105587
318,18Jan19 034247_CS_PS_NKVE HIGHWAY_BUKIT JELUTONG-SUBANG JAYA_OPEN MODE_LC_SC_DL_UL_01,CELLMEAS,19/1/2018 03:48:28.543,7.0,Serving,LTE FDD 2600 band 7,3150.0,198.0,-52.0,-76.0,-8.0,,106.0,101.588417,3.105738
319,18Jan19 034247_CS_PS_NKVE HIGHWAY_BUKIT JELUTONG-SUBANG JAYA_OPEN MODE_LC_SC_DL_UL_01,CELLMEAS,19/1/2018 03:48:29.544,7.0,Serving,LTE FDD 2600 band 7,3150.0,198.0,-61.0,-91.0,-10.0,,110.0,101.588394,3.105887
320,18Jan19 034247_CS_PS_NKVE HIGHWAY_BUKIT JELUTONG-SUBANG JAYA_OPEN MODE_LC_SC_DL_UL_01,CELLMEAS,19/1/2018 03:48:30.545,7.0,Serving,LTE FDD 2600 band 7,3150.0,302.5,-60.5,-90.5,-11.0,,109.5,101.588371,3.106035
321,18Jan19 034247_CS_PS_NKVE HIGHWAY_BUKIT JELUTONG-SUBANG JAYA_OPEN MODE_LC_SC_DL_UL_01,CELLMEAS,19/1/2018 03:48:31.546,7.0,Serving,LTE FDD 2600 band 7,3150.0,407.0,-62.0,-89.0,-9.0,,109.0,101.588348,3.106183
322,18Jan19 034247_CS_PS_NKVE HIGHWAY_BUKIT JELUTONG-SUBANG JAYA_OPEN MODE_LC_SC_DL_UL_01,CELLMEAS,19/1/2018 03:48:32.545,7.0,Serving,LTE FDD 2600 band 7,3150.0,407.0,-60.0,-89.0,-9.0,,108.0,101.58833299999999,3.106332
323,18Jan19 034247_CS_PS_NKVE HIGHWAY_BUKIT JELUTONG-SUBANG JAYA_OPEN MODE_LC_SC_DL_UL_01,CELLMEAS,19/1/2018 03:48:33.546,7.0,Serving,LTE FDD 2600 band 7,3150.0,407.0,-58.0,-87.0,-8.0,,103.0,101.58833299999999,3.106478
324,18Jan19 034247_CS_PS_NKVE HIGHWAY_BUKIT JELUTONG-SUBANG JAYA_OPEN MODE_LC_SC_DL_UL_01,CELLMEAS,19/1/2018 03:48:34.545,7.0,Serving,LTE FDD 2600 band 7,3150.0,407.0,-62.0,-89.0,-8.0,,109.0,101.588341,3.10662
325,18Jan19 034247_CS_PS_NKVE HIGHWAY_BUKIT JELUTONG-SUBANG JAYA_OPEN MODE_LC_SC_DL_UL_01,CELLMEAS,19/1/2018 03:48:35.547,7.0,Serving,LTE FDD 2600 band 7,3150.0,407.0,-64.0,-90.0,-8.0,,105.0,101.588371,3.106757
326,18Jan19 034247_CS_PS_NKVE HIGHWAY_BUKIT JELUTONG-SUBANG JAYA_OPEN MODE_LC_SC_DL_UL_01,CELLMEAS,19/1/2018 03:48:36.547,7.0,Serving,LTE FDD 2600 band 7,3150.0,407.0,-56.0,-83.0,-7.0,,102.0,101.588425,3.106888
327,18Jan19 034247_CS_PS_NKVE HIGHWAY_BUKIT JELUTONG-SUBANG JAYA_OPEN MODE_LC_SC_DL_UL_01,CELLMEAS,19/1/2018 03:48:37.546,7.0,Serving,LTE FDD 2600 band 7,3150.0,407.0,-57.0,-80.0,-7.0,,98.0,101.588509,3.107002
328,18Jan19 034247_CS_PS_NKVE HIGHWAY_BUKIT JELUTONG-SUBANG JAYA_OPEN MODE_LC_SC_DL_UL_01,CELLMEAS,19/1/2018 03:48:38.547,7.0,Serving,LTE FDD 2600 band 7,3150.0,407.0,-48.0,-75.0,-8.0,,93.0,101.588615,3.107098
329,18Jan19 034247_CS_PS_NKVE HIGHWAY_BUKIT JELUTONG-SUBANG JAYA_OPEN MODE_LC_SC_DL_UL_01,CELLMEAS,19/1/2018 03:48:39.545,7.0,Serving,LTE FDD 2600 band 7,3150.0,407.0,-44.0,-75.0,-9.0,,94.0,101.588737,3.107175
330,18Jan19 034247_CS_PS_NKVE HIGHWAY_BUKIT JELUTONG-SUBANG JAYA_OPEN MODE_LC_SC_DL_UL_01,CELLMEAS,19/1/2018 03:48:40.545,7.0,Serving,LTE FDD 2600 band 7,3150.0,407.0,-48.0,-77.0,-9.0,,91.0,101.58886700000001,3.107227
331,18Jan19 034247_CS_PS_NKVE HIGHWAY_BUKIT JELUTONG-SUBANG JAYA_OPEN MODE_LC_SC_DL_UL_01,CELLMEAS,19/1/2018 03:48:41.548,7.0,Serving,LTE FDD 2600 band 7,3150.0,407.0,-44.0,-73.0,-9.0,,91.0,101.589012,3.107255
332,18Jan19 034247_CS_PS_NKVE HIGHWAY_BUKIT JELUTONG-SUBANG JAYA_OPEN MODE_LC_SC_DL_UL_01,CELLMEAS,19/1/2018 03:48:42.547,7.0,Serving,LTE FDD 2600 band 7,3150.0,407.0,-46.0,-73.0,-9.0,,97.0,101.589157,3.1072580000000003
333,18Jan19 034247_CS_PS_NKVE HIGHWAY_BUKIT JELUTONG-SUBANG JAYA_OPEN MODE_LC_SC_DL_UL_01,CELLMEAS,19/1/2018 03:48:43.549,7.0,Serving,LTE FDD 2600 band 7,3150.0,407.0,-47.0,-75.0,-11.0,,96.0,101.589294,3.107238
334,18Jan19 034247_CS_PS_NKVE HIGHWAY_BUKIT JELUTONG-SUBANG JAYA_OPEN MODE_LC_SC_DL_UL_01,CELLMEAS,19/1/2018 03:48:44.549,7.0,Serving,LTE FDD 2600 band 7,3150.0,407.0,-53.0,-73.0,-10.0,,103.0,101.58943199999999,3.107183
335,18Jan19 034247_CS_PS_NKVE HIGHWAY_BUKIT JELUTONG-SUBANG JAYA_OPEN MODE_LC_SC_DL_UL_01,CELLMEAS,19/1/2018 03:48:45.550,7.0,Serving,LTE FDD 2600 band 7,3150.0,407.0,-51.0,-74.0,-10.0,,96.0,101.589561,3.107107
336,18Jan19 034247_CS_PS_NKVE HIGHWAY_BUKIT JELUTONG-SUBANG JAYA_OPEN MODE_LC_SC_DL_UL_01,CELLMEAS,19/1/2018 03:48:46.550,7.0,Serving,LTE FDD 2600 band 7,3150.0,407.0,-50.0,-75.0,-9.0,,91.0,101.58968399999999,3.107023
337,18Jan19 034247_CS_PS_NKVE HIGHWAY_BUKIT JELUTONG-SUBANG JAYA_OPEN MODE_LC_SC_DL_UL_01,CELLMEAS,19/1/2018 03:48:47.549,7.0,Serving,LTE FDD 2600 band 7,3150.0,407.0,-46.0,-72.0,-8.0,,95.0,101.589798,3.106925
338,18Jan19 034247_CS_PS_NKVE HIGHWAY_BUKIT JELUTONG-SUBANG JAYA_OPEN MODE_LC_SC_DL_UL_01,CELLMEAS,19/1/2018 03:48:48.551,7.0,Serving,LTE FDD 2600 band 7,3150.0,407.0,-50.0,-76.0,-8.0,,103.0,101.589897,3.106818
339,18Jan19 034247_CS_PS_NKVE HIGHWAY_BUKIT JELUTONG-SUBANG JAYA_OPEN MODE_LC_SC_DL_UL_01,CELLMEAS,19/1/2018 03:48:49.550,7.0,Serving,LTE FDD 2600 band 7,3150.0,370.0,-53.5,-80.0,-9.5,,103.5,101.589989,3.106703
340,18Jan19 034247_CS_PS_NKVE HIGHWAY_BUKIT JELUTONG-SUBANG JAYA_OPEN MODE_LC_SC_DL_UL_01,CELLMEAS,19/1/2018 03:48:50.552,7.0,Serving,LTE FDD 2600 band 7,3150.0,333.0,-51.0,-78.0,-9.0,,97.0,101.59008,3.106588
341,18Jan19 034247_CS_PS_NKVE HIGHWAY_BUKIT JELUTONG-SUBANG JAYA_OPEN MODE_LC_SC_DL_UL_01,CELLMEAS,19/1/2018 03:48:51.556,7.0,Serving,LTE FDD 2600 band 7,3150.0,333.0,-51.0,-76.0,-8.0,,101.0,101.590164,3.106477
342,18Jan19 034247_CS_PS_NKVE HIGHWAY_BUKIT JELUTONG-SUBANG JAYA_OPEN MODE_LC_SC_DL_UL_01,CELLMEAS,19/1/2018 03:48:52.553,7.0,Serving,LTE FDD 2600 band 7,3150.0,333.0,-54.0,-78.0,-7.0,,107.0,101.590248,3.1063669999999997
343,18Jan19 034247_CS_PS_NKVE HIGHWAY_BUKIT JELUTONG-SUBANG JAYA_OPEN MODE_LC_SC_DL_UL_01,CELLMEAS,19/1/2018 03:48:53.556,7.0,Serving,LTE FDD 2600 band 7,3150.0,407.0,-59.0,-82.0,-11.0,,109.5,101.59033199999999,3.106258
344,18Jan19 034247_CS_PS_NKVE HIGHWAY_BUKIT JELUTONG-SUBANG JAYA_OPEN MODE_LC_SC_DL_UL_01,CELLMEAS,19/1/2018 03:48:54.556,7.0,Serving,LTE FDD 2600 band 7,3150.0,407.0,-57.0,-84.0,-11.0,,106.0,101.590416,3.10615
345,18Jan19 034247_CS_PS_NKVE HIGHWAY_BUKIT JELUTONG-SUBANG JAYA_OPEN MODE_LC_SC_DL_UL_01,CELLMEAS,19/1/2018 03:48:55.554,7.0,Serving,LTE FDD 2600 band 7,3150.0,407.0,-56.0,-82.0,-10.0,,103.0,101.5905,3.10604
346,18Jan19 034247_CS_PS_NKVE HIGHWAY_BUKIT JELUTONG-SUBANG JAYA_OPEN MODE_LC_SC_DL_UL_01,CELLMEAS,19/1/2018 03:48:56.553,7.0,Serving,LTE FDD 2600 band 7,3150.0,407.0,-54.0,-81.0,-10.0,,101.0,101.59058399999999,3.105927
347,18Jan19 034247_CS_PS_NKVE HIGHWAY_BUKIT JELUTONG-SUBANG JAYA_OPEN MODE_LC_SC_DL_UL_01,CELLMEAS,19/1/2018 03:48:57.556,7.0,Serving,LTE FDD 2600 band 7,3150.0,407.0,-57.0,-80.0,-10.0,,105.0,101.59066,3.10581
348,18Jan19 034247_CS_PS_NKVE HIGHWAY_BUKIT JELUTONG-SUBANG JAYA_OPEN MODE_LC_SC_DL_UL_01,CELLMEAS,19/1/2018 03:48:58.554,7.0,Serving,LTE FDD 2600 band 7,3150.0,407.0,-59.0,-80.0,-11.0,,109.0,101.59073599999999,3.10569
349,18Jan19 034247_CS_PS_NKVE HIGHWAY_BUKIT JELUTONG-SUBANG JAYA_OPEN MODE_LC_SC_DL_UL_01,CELLMEAS,19/1/2018 03:48:59.554,7.0,Serving,LTE FDD 2600 band 7,3150.0,407.0,-56.0,-79.0,-10.0,,104.0,101.590797,3.1055650000000004
350,18Jan19 034247_CS_PS_NKVE HIGHWAY_BUKIT JELUTONG-SUBANG JAYA_OPEN MODE_LC_SC_DL_UL_01,CELLMEAS,19/1/2018 03:49:00.557,7.0,Serving,LTE FDD 2600 band 7,3150.0,370.0,-55.0,-83.0,-10.0,,101.5,101.590858,3.105432
351,18Jan19 034247_CS_PS_NKVE HIGHWAY_BUKIT JELUTONG-SUBANG JAYA_OPEN MODE_LC_SC_DL_UL_01,CELLMEAS,19/1/2018 03:49:01.256,7.0,Serving,LTE FDD 2600 band 7,3150.0,406.0,-57.0,-86.0,-9.0,,104.5,101.59090400000001,3.105292
352,18Jan19 034247_CS_PS_NKVE HIGHWAY_BUKIT JELUTONG-SUBANG JAYA_OPEN MODE_LC_SC_DL_UL_01,CELLMEAS,19/1/2018 03:49:02.554,7.0,Serving,LTE FDD 2600 band 7,3150.0,406.0,-60.0,-88.0,-11.0,,109.0,101.59095,3.10515
353,18Jan19 034247_CS_PS_NKVE HIGHWAY_BUKIT JELUTONG-SUBANG JAYA_OPEN MODE_LC_SC_DL_UL_01,CELLMEAS,19/1/2018 03:49:03.558,7.0,Serving,LTE FDD 2600 band 7,3150.0,369.5,-60.5,-87.0,-10.0,,108.0,101.59097299999999,3.105003
354,18Jan19 034247_CS_PS_NKVE HIGHWAY_BUKIT JELUTONG-SUBANG JAYA_OPEN MODE_LC_SC_DL_UL_01,CELLMEAS,19/1/2018 03:49:04.557,7.0,Serving,LTE FDD 2600 band 7,3150.0,333.0,-61.0,-84.0,-7.0,,110.0,101.59099599999999,3.104857
355,18Jan19 034247_CS_PS_NKVE HIGHWAY_BUKIT JELUTONG-SUBANG JAYA_OPEN MODE_LC_SC_DL_UL_01,CELLMEAS,19/1/2018 03:49:05.559,7.0,Serving,LTE FDD 2600 band 7,3150.0,333.0,-66.0,-92.0,-8.0,,112.0,101.591011,3.104708
356,18Jan19 034247_CS_PS_NKVE HIGHWAY_BUKIT JELUTONG-SUBANG JAYA_OPEN MODE_LC_SC_DL_UL_01,CELLMEAS,19/1/2018 03:49:06.269,7.0,Serving,LTE FDD 2600 band 7,3150.0,406.0,-63.0,-85.0,-7.0,,108.0,101.591011,3.1045580000000004
357,18Jan19 034247_CS_PS_NKVE HIGHWAY_BUKIT JELUTONG-SUBANG JAYA_OPEN MODE_LC_SC_DL_UL_01,CELLMEAS,19/1/2018 03:49:07.566,7.0,Serving,LTE FDD 2600 band 7,3150.0,406.0,-64.0,-91.0,-10.0,,111.0,101.591003,3.1044080000000003
358,18Jan19 034247_CS_PS_NKVE HIGHWAY_BUKIT JELUTONG-SUBANG JAYA_OPEN MODE_LC_SC_DL_UL_01,CELLMEAS,19/1/2018 03:49:08.566,7.0,Serving,LTE FDD 2600 band 7,3150.0,406.0,-64.0,-89.0,-10.0,,109.0,101.590988,3.104257
359,18Jan19 034247_CS_PS_NKVE HIGHWAY_BUKIT JELUTONG-SUBANG JAYA_OPEN MODE_LC_SC_DL_UL_01,CELLMEAS,19/1/2018 03:49:09.565,7.0,Serving,LTE FDD 2600 band 7,3150.0,406.0,-63.0,-88.0,-10.0,,109.0,101.590958,3.104108
360,18Jan19 034247_CS_PS_NKVE HIGHWAY_BUKIT JELUTONG-SUBANG JAYA_OPEN MODE_LC_SC_DL_UL_01,CELLMEAS,19/1/2018 03:49:10.565,7.0,Serving,LTE FDD 2600 band 7,3150.0,406.0,-62.0,-91.0,-10.0,,106.0,101.590919,3.10396
361,18Jan19 034247_CS_PS_NKVE HIGHWAY_BUKIT JELUTONG-SUBANG JAYA_OPEN MODE_LC_SC_DL_UL_01,CELLMEAS,19/1/2018 03:49:11.565,7.0,Serving,LTE FDD 2600 band 7,3150.0,406.0,-57.0,-84.0,-9.0,,101.0,101.590874,3.103813
362,18Jan19 034247_CS_PS_NKVE HIGHWAY_BUKIT JELUTONG-SUBANG JAYA_OPEN MODE_LC_SC_DL_UL_01,CELLMEAS,19/1/2018 03:49:12.567,7.0,Serving,LTE FDD 2600 band 7,3150.0,406.0,-56.0,-82.0,-9.0,,101.0,101.590828,3.10367
363,18Jan19 034247_CS_PS_NKVE HIGHWAY_BUKIT JELUTONG-SUBANG JAYA_OPEN MODE_LC_SC_DL_UL_01,CELLMEAS,19/1/2018 03:49:13.566,7.0,Serving,LTE FDD 2600 band 7,3150.0,406.0,-61.0,-80.0,-10.0,,106.0,101.59078199999999,3.10353
364,18Jan19 034247_CS_PS_NKVE HIGHWAY_BUKIT JELUTONG-SUBANG JAYA_OPEN MODE_LC_SC_DL_UL_01,CELLMEAS,19/1/2018 03:49:14.567,7.0,Serving,LTE FDD 2600 band 7,3150.0,406.0,-59.0,-78.0,-10.0,,105.0,101.59073599999999,3.103398
365,18Jan19 034247_CS_PS_NKVE HIGHWAY_BUKIT JELUTONG-SUBANG JAYA_OPEN MODE_LC_SC_DL_UL_01,CELLMEAS,19/1/2018 03:49:15.568,7.0,Serving,LTE FDD 2600 band 7,3150.0,406.0,-52.0,-78.0,-10.0,,98.0,101.590691,3.103277
366,18Jan19 034247_CS_PS_NKVE HIGHWAY_BUKIT JELUTONG-SUBANG JAYA_OPEN MODE_LC_SC_DL_UL_01,CELLMEAS,19/1/2018 03:49:16.569,7.0,Serving,LTE FDD 2600 band 7,3150.0,406.0,-52.0,-77.0,-9.0,,98.0,101.590652,3.103165
367,18Jan19 034247_CS_PS_NKVE HIGHWAY_BUKIT JELUTONG-SUBANG JAYA_OPEN MODE_LC_SC_DL_UL_01,CELLMEAS,19/1/2018 03:49:17.570,7.0,Serving,LTE FDD 2600 band 7,3150.0,406.0,-51.0,-78.0,-9.0,,99.0,101.590622,3.103067
368,18Jan19 034247_CS_PS_NKVE HIGHWAY_BUKIT JELUTONG-SUBANG JAYA_OPEN MODE_LC_SC_DL_UL_01,CELLMEAS,19/1/2018 03:49:18.571,7.0,Serving,LTE FDD 2600 band 7,3150.0,406.0,-51.5,-78.0,-6.0,,94.0,101.59060699999999,3.102985
